EESchema Schematic File Version 2
EELAYER 25 0
EELAYER END
$Descr A4 11693 8268
encoding utf-8
Sheet 5 10
Title "TI-99/4A"
Date "2015-09-28"
Rev "1"
Comp "HackMac"
Comment1 "Address Decoding"
Comment2 ""
Comment3 ""
Comment4 ""
$EndDescr
$Comp
L 74LS138 U505
U 1 1 56079FA7
P 3900 1950
F 0 "U505" H 4000 2450 60  0000 C CNN
F 1 "74LS138" H 4050 1401 60  0000 C CNN
F 2 "Sockets_DIP:DIP-16__300" H 3900 1950 60  0001 C CNN
F 3 "" H 3900 1950 60  0000 C CNN
	1    3900 1950
	1    0    0    -1  
$EndComp
$Comp
L 74LS03 U506
U 2 1 56079FE2
P 2300 2900
F 0 "U506" H 2300 2950 60  0000 C CNN
F 1 "74LS03" H 2300 2850 60  0000 C CNN
F 2 "Sockets_DIP:DIP-14__300" H 2300 2900 60  0001 C CNN
F 3 "" H 2300 2900 60  0000 C CNN
	2    2300 2900
	1    0    0    1   
$EndComp
Text HLabel 1400 1600 0    60   Input ~ 0
U503-3
Text HLabel 1400 1800 0    60   Input ~ 0
U503-7
Text HLabel 1400 1700 0    60   Input ~ 0
U503-5
$Comp
L R R513
U 1 1 5621FF91
P 3000 2650
F 0 "R513" V 3000 2650 50  0000 C CNN
F 1 "2.2k" V 2900 2650 50  0000 C CNN
F 2 "Resistors_ThroughHole:Resistor_Horizontal_RM10mm" V 2930 2650 30  0001 C CNN
F 3 "" H 3000 2650 30  0000 C CNN
	1    3000 2650
	1    0    0    -1  
$EndComp
$Comp
L +5V #PWR049
U 1 1 5621FF92
P 3000 2500
F 0 "#PWR049" H 3000 2350 50  0001 C CNN
F 1 "+5V" H 3000 2640 50  0000 C CNN
F 2 "" H 3000 2500 60  0000 C CNN
F 3 "" H 3000 2500 60  0000 C CNN
	1    3000 2500
	1    0    0    -1  
$EndComp
Text HLabel 1400 2200 0    60   Input ~ 0
U602-8
$Comp
L 74LS138 U504
U 1 1 5607B34B
P 2450 3750
F 0 "U504" H 2550 4250 60  0000 C CNN
F 1 "74LS138" H 2600 3201 60  0000 C CNN
F 2 "Sockets_DIP:DIP-16__300" H 2450 3750 60  0001 C CNN
F 3 "" H 2450 3750 60  0000 C CNN
	1    2450 3750
	1    0    0    -1  
$EndComp
Text HLabel 1400 3400 0    60   Input ~ 0
U600-22
Text HLabel 1400 3500 0    60   Input ~ 0
U600-23
Text HLabel 1400 3600 0    60   Input ~ 0
U600-24
Text HLabel 1400 3000 0    60   Input ~ 0
U602-10
$Comp
L 74LS03 U506
U 3 1 5607BDC8
P 5800 2100
F 0 "U506" H 5800 2150 60  0000 C CNN
F 1 "74LS03" H 5800 2050 60  0000 C CNN
F 2 "Sockets_DIP:DIP-14__300" H 5800 2100 60  0001 C CNN
F 3 "" H 5800 2100 60  0000 C CNN
	3    5800 2100
	1    0    0    -1  
$EndComp
$Comp
L 74LS03 U506
U 4 1 5607BDE9
P 5800 2700
F 0 "U506" H 5800 2750 60  0000 C CNN
F 1 "74LS03" H 5800 2650 60  0000 C CNN
F 2 "Sockets_DIP:DIP-14__300" H 5800 2700 60  0001 C CNN
F 3 "" H 5800 2700 60  0000 C CNN
	4    5800 2700
	1    0    0    -1  
$EndComp
Text HLabel 8200 2100 2    60   Output ~ 0
U506-8
$Comp
L R R503
U 1 1 5607C323
P 6600 2550
F 0 "R503" V 6600 2550 50  0000 C CNN
F 1 "1k" V 6500 2550 50  0000 C CNN
F 2 "Resistors_ThroughHole:Resistor_Horizontal_RM10mm" V 6530 2550 30  0001 C CNN
F 3 "" H 6600 2550 30  0000 C CNN
	1    6600 2550
	1    0    0    -1  
$EndComp
$Comp
L +5V #PWR050
U 1 1 5607C3FC
P 6600 2400
F 0 "#PWR050" H 6600 2250 50  0001 C CNN
F 1 "+5V" H 6600 2540 50  0000 C CNN
F 2 "" H 6600 2400 60  0000 C CNN
F 3 "" H 6600 2400 60  0000 C CNN
	1    6600 2400
	1    0    0    -1  
$EndComp
Text Label 8100 2100 2    60   ~ 0
SBE
Text HLabel 8200 1800 2    60   Output ~ 0
U505-12
Text HLabel 8200 1700 2    60   Output ~ 0
U505-13
Text HLabel 8200 1600 2    60   Output ~ 0
U505-14
Text Label 8100 1600 2    60   ~ 0
~SOUND_SEL
Text Label 8100 1700 2    60   ~ 0
~CS_VDP_R
Text Label 8100 1800 2    60   ~ 0
~CS_VDP_W
Text Label 1450 3400 0    60   ~ 0
A2
Text Label 1450 3500 0    60   ~ 0
A1
Text Label 1450 3600 0    60   ~ 0
A0
Text HLabel 8200 3400 2    60   Output ~ 0
R527-2
Text HLabel 8200 3600 2    60   Output ~ 0
U504-13
Text HLabel 8200 3700 2    60   Output ~ 0
U504-12
Text HLabel 8200 4000 2    60   Output ~ 0
U507-8
Text Label 8100 3400 2    60   ~ 0
~ROMEN
Text Label 8100 3600 2    60   ~ 0
~MBE
Text Label 8100 3700 2    60   ~ 0
~ROMG
Text Label 8100 4000 2    60   ~ 0
~MB
$Comp
L R R515
U 1 1 560B5AF4
P 1700 3900
F 0 "R515" V 1700 3900 50  0000 C CNN
F 1 "1k" V 1600 3900 50  0000 C CNN
F 2 "Resistors_ThroughHole:Resistor_Horizontal_RM10mm" V 1630 3900 30  0001 C CNN
F 3 "" H 1700 3900 30  0000 C CNN
	1    1700 3900
	0    1    1    0   
$EndComp
$Comp
L +5V #PWR051
U 1 1 560B5B5D
P 1550 3900
F 0 "#PWR051" H 1550 3750 50  0001 C CNN
F 1 "+5V" H 1550 4040 50  0000 C CNN
F 2 "" H 1550 3900 60  0000 C CNN
F 3 "" H 1550 3900 60  0000 C CNN
	1    1550 3900
	1    0    0    -1  
$EndComp
$Comp
L GND #PWR052
U 1 1 560B5E4F
P 1700 4200
F 0 "#PWR052" H 1700 3950 50  0001 C CNN
F 1 "GND" H 1700 4050 50  0000 C CNN
F 2 "" H 1700 4200 60  0000 C CNN
F 3 "" H 1700 4200 60  0000 C CNN
	1    1700 4200
	1    0    0    -1  
$EndComp
Text HLabel 1400 4100 0    60   Input ~ 0
U605-3
Text Label 1450 4100 0    60   ~ 0
~MEMEN
Text HLabel 8200 2700 2    60   Output ~ 0
U505-11
Text Label 8100 2700 2    60   ~ 0
GBE
Wire Wire Line
	1400 1600 3300 1600
Wire Wire Line
	1400 1700 3300 1700
Wire Wire Line
	1400 1800 3300 1800
Wire Wire Line
	3300 2100 3100 2100
Wire Wire Line
	3100 2100 3100 2900
Wire Wire Line
	3100 2900 2900 2900
Wire Wire Line
	3000 2800 3000 2900
Connection ~ 3000 2900
Wire Wire Line
	1400 2200 3300 2200
Wire Wire Line
	3050 3800 6500 3800
Wire Wire Line
	3300 3800 3300 2300
Wire Wire Line
	1400 3400 1850 3400
Wire Wire Line
	1850 3500 1400 3500
Wire Wire Line
	1400 3600 1850 3600
Wire Wire Line
	1700 2800 1700 1600
Connection ~ 1700 1600
Wire Wire Line
	1400 3000 1700 3000
Wire Wire Line
	5200 2000 4500 2000
Wire Wire Line
	4500 2100 5000 2100
Wire Wire Line
	5000 2100 5000 2200
Wire Wire Line
	5000 2200 5200 2200
Wire Wire Line
	4500 2200 4800 2200
Wire Wire Line
	4800 2200 4800 2600
Wire Wire Line
	4800 2600 5200 2600
Wire Wire Line
	4500 2300 4600 2300
Wire Wire Line
	4600 2300 4600 2800
Wire Wire Line
	4600 2800 5200 2800
Wire Wire Line
	6400 2100 8200 2100
Wire Wire Line
	6400 2700 8200 2700
Connection ~ 6600 2700
Wire Wire Line
	8200 1600 4700 1600
Wire Wire Line
	4700 1600 4700 1700
Wire Wire Line
	4700 1700 4500 1700
Wire Wire Line
	4500 1800 4800 1800
Wire Wire Line
	4800 1800 4800 1700
Wire Wire Line
	4800 1700 8200 1700
Wire Wire Line
	4500 1900 4900 1900
Wire Wire Line
	4900 1900 4900 1800
Wire Wire Line
	4900 1800 8200 1800
Wire Wire Line
	4400 3400 3050 3400
Wire Wire Line
	3050 3600 8200 3600
Wire Wire Line
	3050 3700 8200 3700
Connection ~ 3300 3800
Wire Wire Line
	1700 4200 1700 4000
Wire Wire Line
	1700 4000 1850 4000
Wire Wire Line
	1400 4100 1850 4100
$Comp
L R R527
U 1 1 561DECF0
P 4550 3400
F 0 "R527" V 4550 3400 50  0000 C CNN
F 1 "1k" V 4450 3400 50  0000 C CNN
F 2 "Resistors_ThroughHole:Resistor_Horizontal_RM10mm" V 4480 3400 30  0001 C CNN
F 3 "" H 4550 3400 30  0000 C CNN
	1    4550 3400
	0    1    1    0   
$EndComp
Wire Wire Line
	4700 3400 8200 3400
$Comp
L 74LS32 U507
U 3 1 561E02ED
P 7300 4000
F 0 "U507" H 7300 4050 60  0000 C CNN
F 1 "74LS32" H 7300 3950 60  0000 C CNN
F 2 "Sockets_DIP:DIP-14__300" H 7300 4000 60  0001 C CNN
F 3 "" H 7300 4000 60  0000 C CNN
	3    7300 4000
	1    0    0    -1  
$EndComp
Wire Wire Line
	7900 4000 8200 4000
Wire Wire Line
	6500 3800 6500 3900
Wire Wire Line
	6500 3900 6700 3900
$Comp
L 74LS32 U507
U 4 1 561E0435
P 6100 4100
F 0 "U507" H 6100 4150 60  0000 C CNN
F 1 "74LS32" H 6100 4050 60  0000 C CNN
F 2 "Sockets_DIP:DIP-14__300" H 6100 4100 60  0001 C CNN
F 3 "" H 6100 4100 60  0000 C CNN
	4    6100 4100
	1    0    0    -1  
$EndComp
$Comp
L 74LS32 U507
U 1 1 561E04CF
P 4900 4300
F 0 "U507" H 4900 4350 60  0000 C CNN
F 1 "74LS32" H 4900 4250 60  0000 C CNN
F 2 "Sockets_DIP:DIP-14__300" H 4900 4300 60  0001 C CNN
F 3 "" H 4900 4300 60  0000 C CNN
	1    4900 4300
	1    0    0    -1  
$EndComp
Text HLabel 1400 4700 0    60   Input ~ 0
U600-21
Text HLabel 1400 4600 0    60   Input ~ 0
U600-20
Text HLabel 1400 4500 0    60   Input ~ 0
U600-19
Wire Wire Line
	5500 4000 3300 4000
Wire Wire Line
	3300 4000 3300 4500
Wire Wire Line
	3300 4500 1400 4500
Wire Wire Line
	1400 4600 3400 4600
Wire Wire Line
	3400 4600 3400 4200
Wire Wire Line
	3400 4200 4300 4200
Wire Wire Line
	4300 4400 3500 4400
Wire Wire Line
	3500 4400 3500 4700
Wire Wire Line
	3500 4700 1400 4700
Wire Wire Line
	5500 4200 5500 4300
Text Label 1450 4500 0    60   ~ 0
A5
Text Label 1450 4600 0    60   ~ 0
A4
Text Label 1450 4700 0    60   ~ 0
A3
Text Label 1450 2200 0    60   ~ 0
A15
Text Label 1450 1600 0    60   ~ 0
A5
Text Label 1450 1700 0    60   ~ 0
A4
Text Label 1450 1800 0    60   ~ 0
A3
Text Label 1450 3000 0    60   ~ 0
DBIN
Text HLabel 8200 4300 2    60   Output ~ 0
U507-11
Wire Wire Line
	8200 4300 6700 4300
Wire Wire Line
	6700 4300 6700 4100
Text Label 8100 4300 2    60   ~ 0
RAMBLK
$EndSCHEMATC
