EESchema Schematic File Version 2
EELAYER 25 0
EELAYER END
$Descr A4 11693 8268
encoding utf-8
Sheet 1 10
Title "TI-99/4A"
Date "2015-09-28"
Rev "1"
Comp "HackMac"
Comment1 "Main schematic for separating each function block to its own sub schematic."
Comment2 ""
Comment3 ""
Comment4 ""
$EndDescr
$Sheet
S 2000 5200 1050 2300
U 5607313D
F0 "8Bit16BitSwitch" 60
F1 "8bit16bitSwitch.sch" 60
F2 "U600-49" B L 2000 6700 60 
F3 "U600-50" B L 2000 6800 60 
F4 "U600-51" B L 2000 6900 60 
F5 "U600-52" B L 2000 7000 60 
F6 "U600-53" B L 2000 7100 60 
F7 "U600-54" B L 2000 7200 60 
F8 "U600-55" B L 2000 7300 60 
F9 "U600-56" B L 2000 7400 60 
F10 "U600-41" B L 2000 5900 60 
F11 "U600-42" B L 2000 6000 60 
F12 "U600-43" B L 2000 6100 60 
F13 "U600-44" B L 2000 6200 60 
F14 "U600-45" B L 2000 6300 60 
F15 "U600-46" B L 2000 6400 60 
F16 "U600-47" B L 2000 6500 60 
F17 "U600-48" B L 2000 6600 60 
F18 "MUX_D0" B R 3050 6700 60 
F19 "MUX_D1" B R 3050 6800 60 
F20 "MUX_D2" B R 3050 6900 60 
F21 "MUX_D3" B R 3050 7000 60 
F22 "MUX_D4" B R 3050 7100 60 
F23 "MUX_D5" B R 3050 7200 60 
F24 "MUX_D6" B R 3050 7300 60 
F25 "MUX_D7" B R 3050 7400 60 
F26 "U602-2" I R 3050 6150 60 
F27 "U602-8" O L 2000 5300 60 
F28 "U601-14" I L 2000 5450 60 
F29 "U601-6" I L 2000 5650 60 
F30 "U601-15" I L 2000 5550 60 
F31 "U602-10" O R 3050 5300 60 
F32 "U600-61" I R 3050 6250 60 
F33 "U606-3" O R 3050 5500 60 
F34 "U506-3" I R 3050 5650 60 
F35 "U505-13" I R 3050 5750 60 
F36 "U600-62" O R 3050 5400 60 
F37 "U507-8" I R 3050 5850 60 
F38 "R527-2" I R 3050 5950 60 
F39 "U605-3" I R 3050 6050 60 
$EndSheet
Entry Wire Line
	3450 6700 3550 6800
Entry Wire Line
	3450 6800 3550 6900
Entry Wire Line
	3450 6900 3550 7000
Entry Wire Line
	3450 7000 3550 7100
Entry Wire Line
	3450 7100 3550 7200
Entry Wire Line
	3450 7200 3550 7300
Entry Wire Line
	3450 7300 3550 7400
Entry Wire Line
	3450 7400 3550 7500
Entry Wire Line
	3550 7500 3650 7400
Entry Wire Line
	3550 7400 3650 7300
Entry Wire Line
	3550 7300 3650 7200
Entry Wire Line
	3550 7200 3650 7100
Entry Wire Line
	3550 7100 3650 7000
Entry Wire Line
	3550 7000 3650 6900
Entry Wire Line
	3550 6900 3650 6800
Entry Wire Line
	3550 6800 3650 6700
Text Label 3100 6700 0    60   ~ 0
mD0
Text Label 3100 6800 0    60   ~ 0
mD1
Text Label 3100 6900 0    60   ~ 0
mD2
Text Label 3100 7000 0    60   ~ 0
mD3
Text Label 3100 7100 0    60   ~ 0
mD4
Text Label 3100 7200 0    60   ~ 0
mD5
Text Label 3100 7300 0    60   ~ 0
mD6
Text Label 3100 7400 0    60   ~ 0
mD7
Text Label 4000 6700 2    60   ~ 0
mD0
Text Label 4000 6800 2    60   ~ 0
mD1
Text Label 4000 6900 2    60   ~ 0
mD2
Text Label 4000 7000 2    60   ~ 0
mD3
Text Label 4000 7100 2    60   ~ 0
mD4
Text Label 4000 7200 2    60   ~ 0
mD5
Text Label 4000 7300 2    60   ~ 0
mD6
Text Label 4000 7400 2    60   ~ 0
mD7
Entry Wire Line
	10100 850  10200 950 
Entry Wire Line
	10100 950  10200 1050
Entry Wire Line
	10100 1050 10200 1150
Entry Wire Line
	10100 1150 10200 1250
Entry Wire Line
	10100 1250 10200 1350
Entry Wire Line
	10100 1350 10200 1450
Entry Wire Line
	10100 1450 10200 1550
Entry Wire Line
	10100 1550 10200 1650
Entry Wire Line
	10100 1650 10200 1750
Entry Wire Line
	10100 1750 10200 1850
Entry Wire Line
	10100 1850 10200 1950
Entry Wire Line
	10100 1950 10200 2050
Entry Wire Line
	10100 2050 10200 2150
Entry Wire Line
	10100 2150 10200 2250
Entry Wire Line
	10100 2250 10200 2350
Text Label 10450 950  2    60   ~ 0
A0
Text Label 10450 1050 2    60   ~ 0
A1
Text Label 10450 1150 2    60   ~ 0
A2
Text Label 10450 1250 2    60   ~ 0
A3
Text Label 10450 1350 2    60   ~ 0
A4
Text Label 10450 1450 2    60   ~ 0
A5
Text Label 10450 1550 2    60   ~ 0
A6
Text Label 10450 1650 2    60   ~ 0
A7
Text Label 10450 1750 2    60   ~ 0
A8
Text Label 10450 1850 2    60   ~ 0
A9
Text Label 10450 1950 2    60   ~ 0
A10
Text Label 10450 2050 2    60   ~ 0
A11
Text Label 10450 2150 2    60   ~ 0
A12
Text Label 10450 2250 2    60   ~ 0
A13
Text Label 10450 2350 2    60   ~ 0
A14
Entry Wire Line
	1500 5900 1600 6000
Entry Wire Line
	1500 6000 1600 6100
Entry Wire Line
	1500 6100 1600 6200
Entry Wire Line
	1500 6200 1600 6300
Entry Wire Line
	1500 6300 1600 6400
Entry Wire Line
	1500 6400 1600 6500
Entry Wire Line
	1500 6500 1600 6600
Entry Wire Line
	1500 6600 1600 6700
Entry Wire Line
	1500 6700 1600 6800
Entry Wire Line
	1500 6800 1600 6900
Entry Wire Line
	1500 6900 1600 7000
Entry Wire Line
	1500 7000 1600 7100
Entry Wire Line
	1500 7100 1600 7200
Entry Wire Line
	1500 7200 1600 7300
Entry Wire Line
	1500 7300 1600 7400
Entry Wire Line
	1500 7400 1600 7500
Text Label 1250 5900 0    60   ~ 0
D0
Text Label 1250 6000 0    60   ~ 0
D1
Text Label 1250 6100 0    60   ~ 0
D2
Text Label 1250 6200 0    60   ~ 0
D3
Text Label 1250 6300 0    60   ~ 0
D4
Text Label 1250 6400 0    60   ~ 0
D5
Text Label 1250 6500 0    60   ~ 0
D6
Text Label 1250 6600 0    60   ~ 0
D7
Text Label 1250 6700 0    60   ~ 0
D8
Text Label 1250 6800 0    60   ~ 0
D9
Text Label 1250 6900 0    60   ~ 0
D10
Text Label 1250 7000 0    60   ~ 0
D11
Text Label 1250 7100 0    60   ~ 0
D12
Text Label 1250 7200 0    60   ~ 0
D13
Text Label 1250 7300 0    60   ~ 0
D14
Text Label 1250 7400 0    60   ~ 0
D15
Text Label 1950 5900 2    60   ~ 0
D0
Text Label 1950 6000 2    60   ~ 0
D1
Text Label 1950 6100 2    60   ~ 0
D2
Text Label 1950 6200 2    60   ~ 0
D3
Text Label 1950 6300 2    60   ~ 0
D4
Text Label 1950 6400 2    60   ~ 0
D5
Text Label 1950 6500 2    60   ~ 0
D6
Text Label 1950 6600 2    60   ~ 0
D7
Text Label 1950 6700 2    60   ~ 0
D8
Text Label 1950 6800 2    60   ~ 0
D9
Text Label 1950 6900 2    60   ~ 0
D10
Text Label 1950 7000 2    60   ~ 0
D11
Text Label 1950 7100 2    60   ~ 0
D12
Text Label 1950 7200 2    60   ~ 0
D13
Text Label 1950 7300 2    60   ~ 0
D14
Text Label 1950 7400 2    60   ~ 0
D15
Entry Wire Line
	1500 750  1600 650 
Entry Wire Line
	1500 850  1600 750 
Entry Wire Line
	1500 950  1600 850 
Entry Wire Line
	1500 1050 1600 950 
Entry Wire Line
	1500 1150 1600 1050
Entry Wire Line
	1500 1250 1600 1150
Entry Wire Line
	1500 1350 1600 1250
Entry Wire Line
	1500 1450 1600 1350
Entry Wire Line
	1500 1550 1600 1450
Entry Wire Line
	1500 1650 1600 1550
Entry Wire Line
	1500 1750 1600 1650
Entry Wire Line
	1500 1850 1600 1750
Entry Wire Line
	1500 1950 1600 1850
Entry Wire Line
	1500 2050 1600 1950
Entry Wire Line
	1500 2150 1600 2050
Text Label 1250 750  0    60   ~ 0
A0
Text Label 1250 850  0    60   ~ 0
A1
Text Label 1250 950  0    60   ~ 0
A2
Text Label 1250 1050 0    60   ~ 0
A3
Text Label 1250 1150 0    60   ~ 0
A4
Text Label 1250 1250 0    60   ~ 0
A5
Text Label 1250 1350 0    60   ~ 0
A6
Text Label 1250 1450 0    60   ~ 0
A7
Text Label 1250 1550 0    60   ~ 0
A8
Text Label 1250 1650 0    60   ~ 0
A9
Text Label 1250 1750 0    60   ~ 0
A10
Text Label 1250 1850 0    60   ~ 0
A11
Text Label 1250 1950 0    60   ~ 0
A12
Text Label 1250 2050 0    60   ~ 0
A13
Text Label 1250 2150 0    60   ~ 0
A14
Entry Wire Line
	1600 1450 1700 1550
Entry Wire Line
	1600 1350 1700 1450
Entry Wire Line
	1600 1250 1700 1350
Text Label 1950 1350 2    60   ~ 0
A0
Text Label 1950 1450 2    60   ~ 0
A1
Text Label 1950 1550 2    60   ~ 0
A2
Entry Wire Line
	10100 5550 10200 5450
Entry Wire Line
	10100 5650 10200 5550
Entry Wire Line
	10100 5750 10200 5650
Entry Wire Line
	10100 5850 10200 5750
Entry Wire Line
	10100 5950 10200 5850
Entry Wire Line
	10100 6050 10200 5950
Entry Wire Line
	10100 6150 10200 6050
Entry Wire Line
	10100 6250 10200 6150
Text Label 10450 5450 2    60   ~ 0
mD0
Text Label 10450 5550 2    60   ~ 0
mD1
Text Label 10450 5650 2    60   ~ 0
mD2
Text Label 10450 5750 2    60   ~ 0
mD3
Text Label 10450 5850 2    60   ~ 0
mD4
Text Label 10450 5950 2    60   ~ 0
mD5
Text Label 10450 6050 2    60   ~ 0
mD6
Text Label 10450 6150 2    60   ~ 0
mD7
Text Label 5200 6850 0    60   ~ 0
~GS
Text Label 10450 3650 2    60   ~ 0
~GS
Text Label 10450 3000 2    60   ~ 0
Vss
Text Label 10450 3450 2    60   ~ 0
~ROMG
Text Label 10450 3550 2    60   ~ 0
~MBE
Text Label 3150 2150 0    60   ~ 0
~MBE
Text Label 3150 2050 0    60   ~ 0
~ROMG
Text Label 5200 6750 0    60   ~ 0
GREADY
Text Label 10450 3100 2    60   ~ 0
GREADY
Text Label 10450 4400 2    60   ~ 0
READY/~HOLD
Text Label 5200 7100 0    60   ~ 0
DBIN
Text Label 10450 3750 2    60   ~ 0
DBIN
Text Label 3100 5300 0    60   ~ 0
DBIN
Text Label 10450 5300 2    60   ~ 0
CRUOUT
Text Label 1250 5200 0    60   ~ 0
CRUOUT
Text Label 10450 5200 2    60   ~ 0
CRUCLK
Text Label 1250 5100 0    60   ~ 0
CRUCLK
Entry Wire Line
	10100 2350 10200 2450
Text Label 10450 2450 2    60   ~ 0
A15
Text Label 1950 5300 2    60   ~ 0
A15
Text Label 1250 4600 0    60   ~ 0
~LOAD
Text Label 10450 4950 2    60   ~ 0
~LOAD
Text Label 1250 5000 0    60   ~ 0
CRUIN
Text Label 10450 5100 2    60   ~ 0
CRUIN
Text Label 1250 4050 0    60   ~ 0
~MEMEN
Text Label 10450 3850 2    60   ~ 0
~MEMEN
Text Label 10450 4250 2    60   ~ 0
IAQ
Text Label 10450 4500 2    60   ~ 0
HOLDA
Text Label 1250 4150 0    60   ~ 0
IAQ
Text Label 1250 4400 0    60   ~ 0
HOLDA
Text Label 1250 3950 0    60   ~ 0
~DBIN
Text Label 3100 6150 0    60   ~ 0
~DBIN
Text Label 1950 5450 2    60   ~ 0
~Ø1
Text Label 1250 5400 0    60   ~ 0
~Ø1
Text Label 1250 5600 0    60   ~ 0
~Ø3
Text Label 1250 5500 0    60   ~ 0
~Ø2
Text Label 1250 5700 0    60   ~ 0
~Ø4
Text Label 1950 5550 2    60   ~ 0
~Ø2
Text Label 1950 5650 2    60   ~ 0
~Ø4
Text Label 10450 4100 2    60   ~ 0
~Ø3
$Sheet
S 600  600  600  6900
U 56085F00
F0 "CPU" 60
F1 "CPU.sch" 60
F2 "U600-10" O R 1200 2150 60 
F3 "U600-11" O R 1200 2050 60 
F4 "U600-12" O R 1200 1950 60 
F5 "U600-13" O R 1200 1850 60 
F6 "U600-14" O R 1200 1750 60 
F7 "U600-15" O R 1200 1650 60 
F8 "U600-16" O R 1200 1550 60 
F9 "U600-17" O R 1200 1450 60 
F10 "U600-18" O R 1200 1350 60 
F11 "U600-19" O R 1200 1250 60 
F12 "U600-20" O R 1200 1150 60 
F13 "U600-21" O R 1200 1050 60 
F14 "U600-22" O R 1200 950 60 
F15 "U600-23" O R 1200 850 60 
F16 "U600-24" O R 1200 750 60 
F17 "U600-41" B R 1200 5900 60 
F18 "U600-42" B R 1200 6000 60 
F19 "U600-43" B R 1200 6100 60 
F20 "U600-44" B R 1200 6200 60 
F21 "U600-45" B R 1200 6300 60 
F22 "U600-46" B R 1200 6400 60 
F23 "U600-47" B R 1200 6500 60 
F24 "U600-48" B R 1200 6600 60 
F25 "U600-49" B R 1200 6700 60 
F26 "U600-50" B R 1200 6800 60 
F27 "U600-51" B R 1200 6900 60 
F28 "U600-52" B R 1200 7000 60 
F29 "U600-53" B R 1200 7100 60 
F30 "U600-54" B R 1200 7200 60 
F31 "U600-55" B R 1200 7300 60 
F32 "U600-56" B R 1200 7400 60 
F33 "U602-2" O R 1200 3950 60 
F34 "U600-60" O R 1200 5100 60 
F35 "U600-30" O R 1200 5200 60 
F36 "U600-4" I R 1200 4600 60 
F37 "U600-31" I R 1200 5000 60 
F38 "U605-3" I R 1200 4050 60 
F39 "U600-5" O R 1200 4400 60 
F40 "U600-7" O R 1200 4150 60 
F41 "U600-61" O R 1200 3850 60 
F42 "U601-14" O R 1200 5400 60 
F43 "U601-7" O R 1200 5600 60 
F44 "U601-15" O R 1200 5500 60 
F45 "U601-6" O R 1200 5700 60 
F46 "U600-32" I R 1200 3600 60 
F47 "RESET" I R 1200 4700 60 
F48 "U600-62" I R 1200 4300 60 
F49 "U601-4" O R 1200 4800 60 
$EndSheet
Text Label 1250 4700 0    60   ~ 0
RESET
Text Label 10450 4850 2    60   ~ 0
RESET
$Sheet
S 10500 850  600  5400
U 560691D6
F0 "GROM-IO-Port" 60
F1 "GROM-IO-Port.sch" 60
F2 "U600-60" I L 10500 5200 60 
F3 "U600-10" I L 10500 2350 60 
F4 "U600-11" I L 10500 2250 60 
F5 "U600-12" I L 10500 2150 60 
F6 "U600-13" I L 10500 2050 60 
F7 "U600-14" I L 10500 1950 60 
F8 "U600-15" I L 10500 1850 60 
F9 "U600-16" I L 10500 1750 60 
F10 "U600-17" I L 10500 1650 60 
F11 "U600-18" I L 10500 1550 60 
F12 "U600-19" I L 10500 1450 60 
F13 "U600-20" I L 10500 1350 60 
F14 "U600-21" I L 10500 1250 60 
F15 "U601-7" I L 10500 4100 60 
F16 "U606-3" I L 10500 3950 60 
F17 "U600-22" I L 10500 1150 60 
F18 "U600-23" I L 10500 1050 60 
F19 "U600-24" I L 10500 950 60 
F20 "U602-10" I L 10500 3750 60 
F21 "U508-12" I L 10500 3650 60 
F22 "U100-37" I L 10500 3300 60 
F23 "U504-12" I L 10500 3450 60 
F24 "U500-16" I L 10500 3000 60 
F25 "RESET" I L 10500 4850 60 
F26 "U600-31" O L 10500 5100 60 
F27 "MUX_D0" B L 10500 5450 60 
F28 "MUX_D1" B L 10500 5550 60 
F29 "MUX_D2" B L 10500 5650 60 
F30 "MUX_D3" B L 10500 5750 60 
F31 "MUX_D4" B L 10500 5850 60 
F32 "MUX_D5" B L 10500 5950 60 
F33 "MUX_D6" B L 10500 6050 60 
F34 "MUX_D7" B L 10500 6150 60 
F35 "U504-13" I L 10500 3550 60 
F36 "U300-17" O L 10500 4650 60 
F37 "U600-4" I L 10500 4950 60 
F38 "U511-9" I L 10500 3200 60 
F39 "U500-15" O L 10500 3100 60 
F40 "U506-3" I L 10500 4400 60 
F41 "U602-8" I L 10500 2450 60 
F42 "U605-3" I L 10500 3850 60 
F43 "U600-30" I L 10500 5300 60 
F44 "U600-7" I L 10500 4250 60 
F45 "U600-5" I L 10500 4500 60 
F46 "U601-4" O L 10500 4750 60 
F47 "U503-3" O L 10500 2750 60 
F48 "U503-5" O L 10500 2650 60 
F49 "U503-7" O L 10500 2550 60 
F50 "U509-13" O L 10500 2850 60 
$EndSheet
$Sheet
S 2000 1250 1100 1450
U 5607AC3B
F0 "AddressDecoding" 60
F1 "AddressDecoding.sch" 60
F2 "U503-3" I L 2000 2300 60 
F3 "U503-7" I L 2000 2100 60 
F4 "U503-5" I L 2000 2200 60 
F5 "U602-8" I L 2000 1950 60 
F6 "U600-22" I L 2000 1550 60 
F7 "U600-23" I L 2000 1450 60 
F8 "U600-24" I L 2000 1350 60 
F9 "U602-10" I L 2000 2500 60 
F10 "U506-8" O R 3100 1350 60 
F11 "U505-12" O R 3100 1600 60 
F12 "U505-13" O R 3100 1700 60 
F13 "U505-14" O R 3100 1800 60 
F14 "R527-2" O R 3100 2250 60 
F15 "U504-13" O R 3100 2150 60 
F16 "U504-12" O R 3100 2050 60 
F17 "U507-8" O R 3100 1950 60 
F18 "U605-3" I L 2000 2600 60 
F19 "U505-11" O R 3100 1450 60 
F20 "U600-21" I L 2000 1650 60 
F21 "U600-20" I L 2000 1750 60 
F22 "U600-19" I L 2000 1850 60 
F23 "U507-11" O R 3100 2400 60 
$EndSheet
Text Label 3100 5650 0    60   ~ 0
READY/~HOLD
Entry Wire Line
	1500 3950 1600 3850
Entry Wire Line
	1500 5400 1600 5300
Entry Wire Line
	1500 5500 1600 5400
Entry Wire Line
	1500 5600 1600 5500
Entry Wire Line
	1500 5700 1600 5600
Entry Wire Line
	1500 4400 1600 4300
Entry Wire Line
	1500 4150 1600 4050
Entry Wire Line
	1500 4050 1600 3950
Entry Wire Line
	1500 4600 1600 4500
Entry Wire Line
	1500 5000 1600 4900
Entry Wire Line
	1500 5100 1600 5000
Entry Wire Line
	1500 5200 1600 5100
Entry Wire Line
	1500 4700 1600 4600
Entry Wire Line
	3450 6150 3550 6050
Entry Wire Line
	1600 5350 1700 5450
Entry Wire Line
	1600 5450 1700 5550
Entry Wire Line
	1600 5550 1700 5650
Text Label 3150 2250 0    60   ~ 0
~ROMEN
Text Label 3150 1950 0    60   ~ 0
~MB
Text Label 3150 1800 0    60   ~ 0
~SND_EN
Text Label 3150 1700 0    60   ~ 0
~VDPR_EN
Text Label 3150 1600 0    60   ~ 0
~VDPW_EN
Text Label 3150 1350 0    60   ~ 0
SBE
Entry Wire Line
	1600 6000 1700 5900
Entry Wire Line
	1600 6100 1700 6000
Entry Wire Line
	1600 6200 1700 6100
Entry Wire Line
	1600 6300 1700 6200
Entry Wire Line
	1600 6400 1700 6300
Entry Wire Line
	1600 6500 1700 6400
Entry Wire Line
	1600 6600 1700 6500
Entry Wire Line
	1600 6700 1700 6600
Entry Wire Line
	1600 6800 1700 6700
Entry Wire Line
	1600 6900 1700 6800
Entry Wire Line
	1600 7000 1700 6900
Entry Wire Line
	1600 7100 1700 7000
Entry Wire Line
	1600 7200 1700 7100
Entry Wire Line
	1600 7300 1700 7200
Entry Wire Line
	1600 7400 1700 7300
Entry Wire Line
	1600 7500 1700 7400
Text Label 1950 1750 2    60   ~ 0
A4
Text Label 1950 1650 2    60   ~ 0
A3
Text Label 1950 1950 2    60   ~ 0
A15
Entry Wire Line
	1600 1850 1700 1950
Text Label 1950 2500 2    60   ~ 0
DBIN
Text Label 1950 2600 2    60   ~ 0
~MEMEN
Text Label 1250 4300 0    60   ~ 0
READY
Text Label 1250 3850 0    60   ~ 0
~WE
Text Label 1250 3600 0    60   ~ 0
~INTREQ
Text Label 1250 4800 0    60   ~ 0
~RESET
Entry Wire Line
	1500 3850 1600 3750
Entry Wire Line
	1500 4300 1600 4200
Entry Wire Line
	1500 4800 1600 4700
Entry Wire Line
	1500 3600 1600 3500
Entry Wire Line
	1600 2600 1700 2500
Entry Wire Line
	1600 2700 1700 2600
Entry Wire Line
	3450 5650 3550 5550
Entry Wire Line
	3450 5500 3550 5400
Entry Wire Line
	3450 6250 3550 6150
Entry Wire Line
	3450 5300 3550 5200
Text Label 3100 6250 0    60   ~ 0
~WE
Text Label 3100 5500 0    60   ~ 0
~mWE
$Sheet
S 4050 6450 1100 1050
U 56079CED
F0 "GROM-Logic" 60
F1 "GROM-Logic.sch" 60
F2 "U505-11" I R 5150 7250 60 
F3 "U506-3" O R 5150 6550 60 
F4 "MUX_D0" B L 4050 6700 60 
F5 "MUX_D1" B L 4050 6800 60 
F6 "MUX_D2" B L 4050 6900 60 
F7 "MUX_D3" B L 4050 7000 60 
F8 "MUX_D4" B L 4050 7100 60 
F9 "MUX_D5" B L 4050 7200 60 
F10 "MUX_D6" B L 4050 7300 60 
F11 "MUX_D7" B L 4050 7400 60 
F12 "U602-10" I R 5150 7100 60 
F13 "U509-13" I L 4050 6550 60 
F14 "U100-37" I R 5150 7350 60 
F15 "U500-16" O R 5150 6650 60 
F16 "U500-15" O R 5150 6750 60 
F17 "U508-12" O R 5150 6850 60 
F18 "U602-2" I R 5150 7000 60 
$EndSheet
Entry Wire Line
	3450 1350 3550 1450
Entry Wire Line
	3450 1600 3550 1700
Entry Wire Line
	3450 1700 3550 1800
Entry Wire Line
	3450 1800 3550 1900
Entry Wire Line
	3450 1950 3550 2050
Entry Wire Line
	3450 2050 3550 2150
Entry Wire Line
	3450 2150 3550 2250
Entry Wire Line
	3450 2250 3550 2350
Entry Wire Line
	5500 7100 5600 7000
Text Label 5200 6650 0    60   ~ 0
Vss
Text Label 5200 6550 0    60   ~ 0
READY/~HOLD
Entry Wire Line
	5500 6550 5600 6450
Entry Wire Line
	5500 6650 5600 6550
Entry Wire Line
	5500 6750 5600 6650
Text Label 1950 1850 2    60   ~ 0
A5
Entry Wire Line
	1600 1550 1700 1650
Entry Wire Line
	1600 1650 1700 1750
Entry Wire Line
	1600 1750 1700 1850
Text Label 5200 7250 0    60   ~ 0
GBE
Entry Wire Line
	3450 1450 3550 1550
Text Label 3150 1450 0    60   ~ 0
GBE
Entry Wire Line
	5500 6850 5600 6750
Text Label 4000 6550 2    60   ~ 0
IO_A14
Text Label 5200 7350 0    60   ~ 0
SGCCLK
Text Label 10450 3200 2    60   ~ 0
SNDIN
Text Label 10450 3300 2    60   ~ 0
SGCCLK
Text Label 10450 4750 2    60   ~ 0
~RESET
Text Label 10450 3950 2    60   ~ 0
~mWE
Text Label 10450 4650 2    60   ~ 0
~EXTINT
Entry Wire Line
	1600 2000 1700 2100
Entry Wire Line
	1600 2100 1700 2200
Entry Wire Line
	1600 2200 1700 2300
Text Label 1950 2100 2    60   ~ 0
IO_A3
Text Label 1950 2200 2    60   ~ 0
IO_A4
Text Label 1950 2300 2    60   ~ 0
IO_A5
Entry Wire Line
	10100 2450 10200 2550
Entry Wire Line
	10100 2550 10200 2650
Entry Wire Line
	10100 2650 10200 2750
Text Label 10450 2550 2    60   ~ 0
IO_A3
Text Label 10450 2650 2    60   ~ 0
IO_A4
Text Label 10450 2750 2    60   ~ 0
IO_A5
Entry Wire Line
	10100 2750 10200 2850
Text Label 10450 2850 2    60   ~ 0
IO_A14
Entry Bus Bus
	1600 2950 1700 2850
Entry Bus Bus
	5500 5000 5600 5100
Entry Bus Bus
	3450 5000 3550 5100
$Sheet
S 4200 1000 1100 1700
U 561CDF3B
F0 "ROM/RAM" 60
F1 "ROM-RAM.sch" 60
F2 "U600-41" B R 5300 1100 60 
F3 "U600-42" B R 5300 1200 60 
F4 "U600-43" B R 5300 1300 60 
F5 "U600-44" B R 5300 1400 60 
F6 "U600-45" B R 5300 1500 60 
F7 "U600-46" B R 5300 1600 60 
F8 "U600-47" B R 5300 1700 60 
F9 "U600-48" B R 5300 1800 60 
F10 "U600-49" B R 5300 1900 60 
F11 "U600-50" B R 5300 2000 60 
F12 "U600-51" B R 5300 2100 60 
F13 "U600-52" B R 5300 2200 60 
F14 "U600-53" B R 5300 2300 60 
F15 "U600-54" B R 5300 2400 60 
F16 "U600-55" B R 5300 2500 60 
F17 "U600-56" B R 5300 2600 60 
F18 "U507-8" I L 4200 2350 60 
F19 "U600-61" I L 4200 2450 60 
F20 "R527-2" I L 4200 2600 60 
F21 "U600-10" I L 4200 2200 60 
F22 "U600-11" I L 4200 2100 60 
F23 "U600-12" I L 4200 2000 60 
F24 "U600-13" I L 4200 1900 60 
F25 "U600-14" I L 4200 1800 60 
F26 "U600-15" I L 4200 1700 60 
F27 "U600-16" I L 4200 1600 60 
F28 "U600-17" I L 4200 1500 60 
F29 "U600-18" I L 4200 1400 60 
F30 "U600-19" I L 4200 1300 60 
F31 "U600-20" I L 4200 1200 60 
F32 "U600-21" I L 4200 1100 60 
$EndSheet
Entry Wire Line
	10000 3100 10100 3000
Entry Wire Line
	10000 3200 10100 3100
Entry Wire Line
	10000 3300 10100 3200
Entry Wire Line
	10000 3400 10100 3300
Entry Wire Line
	10000 3550 10100 3450
Entry Wire Line
	10000 3650 10100 3550
Entry Wire Line
	10000 3750 10100 3650
Entry Wire Line
	10000 3850 10100 3750
Entry Wire Line
	10000 3950 10100 3850
Entry Wire Line
	10000 4050 10100 3950
Entry Wire Line
	10000 4200 10100 4100
Entry Wire Line
	10000 4350 10100 4250
Entry Wire Line
	10000 4500 10100 4400
Entry Wire Line
	10000 4600 10100 4500
Entry Wire Line
	10000 4750 10100 4650
Entry Wire Line
	10000 4850 10100 4750
Entry Wire Line
	10000 4950 10100 4850
Entry Wire Line
	10000 5000 10100 5100
Entry Wire Line
	10000 5200 10100 5300
Entry Wire Line
	10000 5050 10100 4950
Entry Wire Line
	10000 5100 10100 5200
Entry Wire Line
	3800 1000 3900 1100
Entry Wire Line
	3800 1100 3900 1200
Entry Wire Line
	3800 1200 3900 1300
Entry Wire Line
	3800 1300 3900 1400
Entry Wire Line
	3800 1400 3900 1500
Entry Wire Line
	3800 1500 3900 1600
Entry Wire Line
	3800 1600 3900 1700
Entry Wire Line
	3800 1700 3900 1800
Entry Wire Line
	3800 1800 3900 1900
Entry Wire Line
	3800 1900 3900 2000
Entry Wire Line
	3800 2000 3900 2100
Entry Wire Line
	3800 2100 3900 2200
Entry Wire Line
	3550 2250 3650 2350
Entry Wire Line
	3550 2350 3650 2450
Entry Wire Line
	3550 2500 3650 2600
Entry Wire Line
	5600 1100 5700 1200
Entry Wire Line
	5600 1200 5700 1300
Entry Wire Line
	5600 1300 5700 1400
Entry Wire Line
	5600 1400 5700 1500
Entry Wire Line
	5600 1500 5700 1600
Entry Wire Line
	5600 1600 5700 1700
Entry Wire Line
	5600 1700 5700 1800
Entry Wire Line
	5600 1800 5700 1900
Entry Wire Line
	5600 1900 5700 2000
Entry Wire Line
	5600 2000 5700 2100
Entry Wire Line
	5600 2100 5700 2200
Entry Wire Line
	5600 2200 5700 2300
Entry Wire Line
	5600 2300 5700 2400
Entry Wire Line
	5600 2400 5700 2500
Entry Wire Line
	5600 2500 5700 2600
Entry Wire Line
	5600 2600 5700 2700
Entry Bus Bus
	3700 550  3800 650 
Text Label 4150 1100 2    60   ~ 0
A3
Text Label 4150 1200 2    60   ~ 0
A4
Text Label 4150 1300 2    60   ~ 0
A5
Text Label 4150 1400 2    60   ~ 0
A6
Text Label 4150 1500 2    60   ~ 0
A7
Text Label 4150 1600 2    60   ~ 0
A8
Text Label 4150 1700 2    60   ~ 0
A9
Text Label 4150 1800 2    60   ~ 0
A10
Text Label 4150 1900 2    60   ~ 0
A11
Text Label 4150 2000 2    60   ~ 0
A12
Text Label 4150 2100 2    60   ~ 0
A13
Text Label 4150 2200 2    60   ~ 0
A14
Text Label 5350 1100 0    60   ~ 0
D0
Text Label 5350 1200 0    60   ~ 0
D1
Text Label 5350 1300 0    60   ~ 0
D2
Text Label 5350 1400 0    60   ~ 0
D3
Text Label 5350 1500 0    60   ~ 0
D4
Text Label 5350 1600 0    60   ~ 0
D5
Text Label 5350 1700 0    60   ~ 0
D6
Text Label 5350 1800 0    60   ~ 0
D7
Text Label 5350 1900 0    60   ~ 0
D8
Text Label 5350 2000 0    60   ~ 0
D9
Text Label 5350 2100 0    60   ~ 0
D10
Text Label 5350 2200 0    60   ~ 0
D11
Text Label 5350 2300 0    60   ~ 0
D12
Text Label 5350 2400 0    60   ~ 0
D13
Text Label 5350 2500 0    60   ~ 0
D14
Text Label 5350 2600 0    60   ~ 0
D15
Entry Bus Bus
	5600 7700 5700 7600
NoConn ~ 5700 5000
Text Label 4150 2350 2    60   ~ 0
~MB
Text Label 4150 2600 2    60   ~ 0
~ROMEN
Text Label 4150 2450 2    60   ~ 0
~WE
Wire Bus Line
	1600 6000 1600 7700
Wire Wire Line
	2000 6000 1700 6000
Wire Wire Line
	1700 6100 2000 6100
Wire Wire Line
	2000 6200 1700 6200
Wire Wire Line
	1700 6300 2000 6300
Wire Wire Line
	2000 6400 1700 6400
Wire Wire Line
	1700 6500 2000 6500
Wire Wire Line
	2000 6600 1700 6600
Wire Wire Line
	1700 6700 2000 6700
Wire Wire Line
	2000 6800 1700 6800
Wire Wire Line
	1700 6900 2000 6900
Wire Wire Line
	2000 7000 1700 7000
Wire Wire Line
	1700 7100 2000 7100
Wire Wire Line
	2000 7200 1700 7200
Wire Wire Line
	1700 7300 2000 7300
Wire Wire Line
	3050 6700 3450 6700
Wire Wire Line
	3050 6800 3450 6800
Wire Wire Line
	3050 6900 3450 6900
Wire Wire Line
	3050 7000 3450 7000
Wire Wire Line
	3050 7100 3450 7100
Wire Wire Line
	3050 7200 3450 7200
Wire Wire Line
	3050 7300 3450 7300
Wire Wire Line
	3050 7400 3450 7400
Wire Wire Line
	3650 6700 4050 6700
Wire Wire Line
	4050 6800 3650 6800
Wire Wire Line
	3650 6900 4050 6900
Wire Wire Line
	4050 7000 3650 7000
Wire Wire Line
	3650 7100 4050 7100
Wire Wire Line
	4050 7200 3650 7200
Wire Wire Line
	3650 7300 4050 7300
Wire Wire Line
	4050 7400 3650 7400
Wire Bus Line
	10100 550  10100 2750
Wire Wire Line
	10200 950  10500 950 
Wire Wire Line
	10200 1050 10500 1050
Wire Wire Line
	10200 1150 10500 1150
Wire Wire Line
	10200 1250 10500 1250
Wire Wire Line
	10200 1350 10500 1350
Wire Wire Line
	10200 1450 10500 1450
Wire Wire Line
	10200 1550 10500 1550
Wire Wire Line
	10200 1650 10500 1650
Wire Wire Line
	10200 1750 10500 1750
Wire Wire Line
	10200 1850 10500 1850
Wire Wire Line
	10200 1950 10500 1950
Wire Wire Line
	10200 2050 10500 2050
Wire Wire Line
	10200 2150 10500 2150
Wire Wire Line
	10200 2250 10500 2250
Wire Wire Line
	10200 2350 10500 2350
Wire Wire Line
	1200 5900 1500 5900
Wire Wire Line
	1200 6000 1500 6000
Wire Wire Line
	1200 6100 1500 6100
Wire Wire Line
	1200 6200 1500 6200
Wire Wire Line
	1200 6300 1500 6300
Wire Wire Line
	1200 6400 1500 6400
Wire Wire Line
	1200 6500 1500 6500
Wire Wire Line
	1200 6600 1500 6600
Wire Wire Line
	1200 6700 1500 6700
Wire Wire Line
	1200 6800 1500 6800
Wire Wire Line
	1200 6900 1500 6900
Wire Wire Line
	1200 7000 1500 7000
Wire Wire Line
	1200 7100 1500 7100
Wire Wire Line
	1200 7200 1500 7200
Wire Wire Line
	1200 7300 1500 7300
Wire Wire Line
	1200 7400 1500 7400
Wire Bus Line
	1600 550  1600 2200
Wire Wire Line
	1200 850  1500 850 
Wire Wire Line
	1200 950  1500 950 
Wire Wire Line
	1200 1050 1500 1050
Wire Wire Line
	1200 1150 1500 1150
Wire Wire Line
	1200 1250 1500 1250
Wire Wire Line
	1200 1350 1500 1350
Wire Wire Line
	1200 1450 1500 1450
Wire Wire Line
	1200 1550 1500 1550
Wire Wire Line
	1200 1650 1500 1650
Wire Wire Line
	1200 1750 1500 1750
Wire Wire Line
	1200 1850 1500 1850
Wire Wire Line
	1200 1950 1500 1950
Wire Wire Line
	1200 2050 1500 2050
Wire Wire Line
	1200 2150 1500 2150
Wire Wire Line
	1700 1350 2000 1350
Wire Wire Line
	1700 1450 2000 1450
Wire Wire Line
	1700 1550 2000 1550
Wire Bus Line
	10100 5550 10100 6450
Wire Bus Line
	10100 6150 10100 6250
Wire Bus Line
	10100 5650 10100 6050
Wire Wire Line
	10200 5450 10500 5450
Wire Wire Line
	10200 5550 10500 5550
Wire Wire Line
	10200 5650 10500 5650
Wire Wire Line
	10200 5750 10500 5750
Wire Wire Line
	10200 5850 10500 5850
Wire Wire Line
	10200 5950 10500 5950
Wire Wire Line
	10200 6050 10500 6050
Wire Wire Line
	10200 6150 10500 6150
Wire Wire Line
	3100 2150 3450 2150
Wire Bus Line
	1600 550  10100 550 
Wire Wire Line
	3450 2050 3100 2050
Wire Wire Line
	1200 750  1500 750 
Wire Bus Line
	10100 6450 5800 6450
Wire Wire Line
	1500 5200 1200 5200
Wire Wire Line
	1500 5100 1200 5100
Wire Wire Line
	10200 2450 10500 2450
Wire Wire Line
	1750 5300 2000 5300
Wire Wire Line
	1200 4600 1500 4600
Wire Wire Line
	1500 5000 1200 5000
Wire Wire Line
	1200 4050 1500 4050
Wire Wire Line
	1200 4150 1500 4150
Wire Wire Line
	1200 4400 1500 4400
Wire Wire Line
	3450 6150 3050 6150
Wire Wire Line
	1200 5400 1500 5400
Wire Wire Line
	1700 5450 2000 5450
Wire Wire Line
	2000 5550 1700 5550
Wire Wire Line
	1500 5500 1200 5500
Wire Wire Line
	1200 5600 1500 5600
Wire Wire Line
	1700 5650 2000 5650
Wire Wire Line
	1200 5700 1500 5700
Wire Wire Line
	5500 6550 5150 6550
Wire Wire Line
	5500 6650 5150 6650
Wire Wire Line
	5500 6750 5150 6750
Wire Bus Line
	5600 5100 5600 7250
Wire Bus Line
	1600 2600 1600 5600
Wire Bus Line
	1600 3500 1600 3750
Wire Bus Line
	1600 3900 1600 5300
Wire Wire Line
	1200 3950 1500 3950
Wire Wire Line
	1500 4700 1200 4700
Wire Wire Line
	3100 2250 3450 2250
Wire Wire Line
	3100 1950 3450 1950
Wire Wire Line
	3100 1800 3450 1800
Wire Wire Line
	3100 1700 3450 1700
Wire Wire Line
	3100 1600 3450 1600
Wire Wire Line
	3100 1350 3450 1350
Wire Wire Line
	2000 7400 1700 7400
Wire Wire Line
	1700 5900 2000 5900
Wire Wire Line
	1700 1950 2000 1950
Wire Wire Line
	1200 3850 1500 3850
Wire Wire Line
	1500 4300 1200 4300
Wire Wire Line
	1500 4800 1200 4800
Wire Wire Line
	1200 3600 1500 3600
Wire Wire Line
	2000 2500 1700 2500
Wire Wire Line
	2000 2600 1700 2600
Wire Wire Line
	1750 5300 1750 1950
Connection ~ 1750 1950
Wire Bus Line
	3550 1450 3550 2850
Wire Bus Line
	3550 5100 3550 6150
Wire Bus Line
	3550 5200 3550 6050
Wire Wire Line
	3050 5300 3450 5300
Wire Wire Line
	3050 6250 3450 6250
Wire Wire Line
	3050 5650 3450 5650
Wire Wire Line
	3050 5500 3450 5500
Wire Wire Line
	5150 7100 5500 7100
Wire Wire Line
	1700 1650 2000 1650
Wire Wire Line
	1700 1750 2000 1750
Wire Wire Line
	1700 1850 2000 1850
Wire Wire Line
	3100 1450 3450 1450
Wire Wire Line
	5150 7250 5500 7250
Wire Wire Line
	5150 6850 5500 6850
Wire Wire Line
	1700 2100 2000 2100
Wire Wire Line
	1700 2200 2000 2200
Wire Wire Line
	1700 2300 2000 2300
Wire Wire Line
	10200 2550 10500 2550
Wire Wire Line
	10200 2650 10500 2650
Wire Wire Line
	10200 2750 10500 2750
Wire Wire Line
	10200 2850 10500 2850
Wire Bus Line
	10000 5000 1600 5000
Wire Bus Line
	3550 2850 1700 2850
Wire Bus Line
	10000 3100 10000 5200
Wire Bus Line
	10000 5000 10000 5100
Wire Wire Line
	10100 3000 10500 3000
Wire Wire Line
	10100 3100 10500 3100
Wire Wire Line
	10100 3200 10500 3200
Wire Wire Line
	10100 3300 10500 3300
Wire Wire Line
	10100 3450 10500 3450
Wire Wire Line
	10100 3550 10500 3550
Wire Wire Line
	10100 3650 10500 3650
Wire Wire Line
	10100 3750 10500 3750
Wire Wire Line
	10100 3850 10500 3850
Wire Wire Line
	10100 3950 10500 3950
Wire Wire Line
	10100 4100 10500 4100
Wire Wire Line
	10100 4250 10500 4250
Wire Wire Line
	10100 4400 10500 4400
Wire Wire Line
	10100 4500 10500 4500
Wire Wire Line
	10100 4650 10500 4650
Wire Wire Line
	10100 4750 10500 4750
Wire Wire Line
	10100 4850 10500 4850
Wire Wire Line
	10100 4950 10500 4950
Wire Wire Line
	10100 5100 10500 5100
Wire Wire Line
	10100 5200 10500 5200
Wire Wire Line
	10100 5300 10500 5300
Wire Wire Line
	5300 1100 5600 1100
Wire Wire Line
	5300 1200 5600 1200
Wire Wire Line
	5300 1300 5600 1300
Wire Wire Line
	5300 1400 5600 1400
Wire Wire Line
	5300 1500 5600 1500
Wire Wire Line
	5300 1600 5600 1600
Wire Wire Line
	5300 1700 5600 1700
Wire Wire Line
	5300 1800 5600 1800
Wire Wire Line
	5300 1900 5600 1900
Wire Wire Line
	5300 2000 5600 2000
Wire Wire Line
	5300 2100 5600 2100
Wire Wire Line
	5300 2200 5600 2200
Wire Wire Line
	5300 2300 5600 2300
Wire Wire Line
	5300 2400 5600 2400
Wire Wire Line
	5300 2500 5600 2500
Wire Wire Line
	5300 2600 5600 2600
Wire Wire Line
	3900 1100 4200 1100
Wire Wire Line
	3900 1200 4200 1200
Wire Wire Line
	3900 1300 4200 1300
Wire Wire Line
	3900 1400 4200 1400
Wire Wire Line
	3900 1500 4200 1500
Wire Wire Line
	3900 1600 4200 1600
Wire Wire Line
	3900 1700 4200 1700
Wire Wire Line
	3900 1800 4200 1800
Wire Wire Line
	3900 1900 4200 1900
Wire Wire Line
	3900 2000 4200 2000
Wire Wire Line
	3900 2100 4200 2100
Wire Wire Line
	3900 2200 4200 2200
Wire Wire Line
	3650 2350 4200 2350
Wire Wire Line
	3650 2450 4200 2450
Wire Wire Line
	3650 2600 4200 2600
Wire Bus Line
	3800 650  3800 2200
Wire Bus Line
	5700 1200 5700 7600
Wire Bus Line
	1600 7700 5600 7700
Wire Bus Line
	3550 6450 3550 7550
NoConn ~ 5700 7550
Wire Bus Line
	3550 7550 5800 7550
Text Label 3100 5400 0    60   ~ 0
READY
Text Label 3100 5750 0    60   ~ 0
~VDPR_EN
Entry Wire Line
	3450 5400 3550 5300
Entry Wire Line
	3450 5750 3550 5650
Wire Wire Line
	3050 5400 3450 5400
Wire Wire Line
	3050 5750 3450 5750
Entry Wire Line
	3800 2200 3900 2300
Wire Wire Line
	3900 2300 3900 6550
Wire Wire Line
	3900 6550 4050 6550
Entry Wire Line
	3450 5850 3550 5750
Entry Wire Line
	3450 5950 3550 5850
Entry Wire Line
	3450 6050 3550 5950
Wire Wire Line
	3050 5850 3450 5850
Wire Wire Line
	3450 5950 3050 5950
Wire Wire Line
	3050 6050 3450 6050
Text Label 3100 5850 0    60   ~ 0
~MB
Text Label 3100 5950 0    60   ~ 0
~ROMEN
Text Label 3100 6050 0    60   ~ 0
~MEMEN
$Sheet
S 4050 5200 1100 900 
U 560F49B9
F0 "Sound" 60
F1 "Sound.sch" 60
F2 "U511-9" I R 5150 5850 60 
F3 "C503" O R 5150 6000 60 
F4 "MUX_D0" B L 4050 5300 60 
F5 "MUX_D1" B L 4050 5400 60 
F6 "MUX_D2" B L 4050 5500 60 
F7 "MUX_D3" B L 4050 5600 60 
F8 "MUX_D4" B L 4050 5700 60 
F9 "MUX_D5" B L 4050 5800 60 
F10 "MUX_D6" B L 4050 5900 60 
F11 "MUX_D7" B L 4050 6000 60 
F12 "U505-14" I R 5150 5400 60 
F13 "U606-3" I R 5150 5300 60 
F14 "U100-37" I R 5150 5600 60 
F15 "U506-3" I R 5150 5700 60 
$EndSheet
Entry Wire Line
	3650 5400 3750 5300
Entry Wire Line
	3650 5500 3750 5400
Entry Wire Line
	3650 5600 3750 5500
Entry Wire Line
	3650 5700 3750 5600
Entry Wire Line
	3650 5800 3750 5700
Entry Wire Line
	3650 5900 3750 5800
Entry Wire Line
	3650 6000 3750 5900
Entry Wire Line
	3650 6100 3750 6000
Wire Wire Line
	3750 5300 4050 5300
Wire Wire Line
	3750 5400 4050 5400
Wire Wire Line
	3750 5500 4050 5500
Wire Wire Line
	3750 5600 4050 5600
Wire Wire Line
	3750 5700 4050 5700
Wire Wire Line
	3750 5800 4050 5800
Wire Wire Line
	3750 5900 4050 5900
Wire Wire Line
	3750 6000 4050 6000
Text Label 4000 5300 2    60   ~ 0
mD0
Text Label 4000 5400 2    60   ~ 0
mD1
Text Label 4000 5500 2    60   ~ 0
mD2
Text Label 4000 5600 2    60   ~ 0
mD3
Text Label 4000 5700 2    60   ~ 0
mD4
Text Label 4000 5800 2    60   ~ 0
mD5
Text Label 4000 5900 2    60   ~ 0
mD6
Text Label 4000 6000 2    60   ~ 0
mD7
Entry Wire Line
	5500 5850 5600 5750
Entry Wire Line
	5500 5400 5600 5300
Entry Wire Line
	5500 5300 5600 5200
Entry Wire Line
	5500 5600 5600 5500
Entry Wire Line
	5500 5700 5600 5600
Entry Wire Line
	5500 6000 5600 5900
Wire Wire Line
	5150 5850 5500 5850
Wire Wire Line
	5500 5400 5150 5400
Wire Wire Line
	5500 5300 5150 5300
Wire Wire Line
	5500 5600 5150 5600
Wire Wire Line
	5500 5700 5150 5700
Wire Wire Line
	5150 6000 5500 6000
Text Label 5200 5600 0    60   ~ 0
SGCCLK
Text Label 5200 5850 0    60   ~ 0
SNDIN
Text Label 5200 5700 0    60   ~ 0
READY/~HOLD
Text Label 5200 5400 0    60   ~ 0
~SND_EN
Text Label 5200 6000 0    60   ~ 0
SNDOUT
Text Label 5200 5300 0    60   ~ 0
~mWE
Entry Wire Line
	5500 7000 5600 6900
Wire Wire Line
	5150 7000 5500 7000
Text Label 5200 7000 0    60   ~ 0
~DBIN
Entry Wire Line
	5500 7250 5600 7150
Entry Wire Line
	5500 7350 5600 7250
Wire Wire Line
	5150 7350 5500 7350
$Sheet
S 6100 1000 1300 1150
U 560E4E44
F0 "Video" 60
F1 "Video.sch" 60
F2 "U600-41" B L 6100 1100 60 
F3 "U600-42" B L 6100 1200 60 
F4 "U600-43" B L 6100 1300 60 
F5 "U600-44" B L 6100 1400 60 
F6 "U600-45" B L 6100 1500 60 
F7 "U600-46" B L 6100 1600 60 
F8 "U600-47" B L 6100 1700 60 
F9 "U600-48" B L 6100 1800 60 
F10 "U100-37" O R 7400 1300 60 
F11 "U505-13" I R 7400 1450 60 
F12 "U600-10" I R 7400 1100 60 
F13 "U505-12" I R 7400 1550 60 
F14 "U606-3" I R 7400 1650 60 
F15 "U300-18" O R 7400 1900 60 
F16 "U601-4" I R 7400 1750 60 
F17 "C503" I R 7400 2050 60 
$EndSheet
Wire Bus Line
	5800 7550 5800 6450
Wire Bus Line
	3650 5400 3650 6450
Wire Bus Line
	3650 6450 3550 6450
Entry Wire Line
	5700 1200 5800 1100
Entry Wire Line
	5700 1300 5800 1200
Entry Wire Line
	5700 1400 5800 1300
Entry Wire Line
	5700 1500 5800 1400
Entry Wire Line
	5700 1600 5800 1500
Entry Wire Line
	5700 1700 5800 1600
Entry Wire Line
	5700 1800 5800 1700
Entry Wire Line
	5700 1900 5800 1800
Wire Wire Line
	5800 1100 6100 1100
Wire Wire Line
	5800 1200 6100 1200
Wire Wire Line
	5800 1300 6100 1300
Wire Wire Line
	5800 1400 6100 1400
Wire Wire Line
	5800 1500 6100 1500
Wire Wire Line
	5800 1600 6100 1600
Wire Wire Line
	5800 1700 6100 1700
Wire Wire Line
	5800 1800 6100 1800
Text Label 6050 1100 2    60   ~ 0
D0
Text Label 6050 1200 2    60   ~ 0
D1
Text Label 6050 1300 2    60   ~ 0
D2
Text Label 6050 1400 2    60   ~ 0
D3
Text Label 6050 1500 2    60   ~ 0
D4
Text Label 6050 1600 2    60   ~ 0
D5
Text Label 6050 1700 2    60   ~ 0
D6
Text Label 6050 1800 2    60   ~ 0
D7
Entry Bus Bus
	7700 5000 7800 4900
Wire Bus Line
	7800 1400 7800 4900
Entry Wire Line
	7850 1100 7950 1000
Wire Wire Line
	7400 1100 7850 1100
Text Label 7450 1300 0    60   ~ 0
SGCCLK
Entry Wire Line
	7700 1300 7800 1400
Entry Wire Line
	7700 1450 7800 1550
Entry Wire Line
	7700 1550 7800 1650
Entry Wire Line
	7700 1650 7800 1750
Wire Wire Line
	7400 1300 7700 1300
Wire Wire Line
	7400 1450 7700 1450
Wire Wire Line
	7400 1550 7700 1550
Wire Wire Line
	7400 1650 7700 1650
Text Label 7450 1650 0    60   ~ 0
~mWE
Text Label 7450 1100 0    60   ~ 0
A14
Text Label 7450 1450 0    60   ~ 0
~VDPR_EN
Text Label 7450 1550 0    60   ~ 0
~VDPW_EN
Text Label 7450 1900 0    60   ~ 0
VDPINT
Text Label 7450 1750 0    60   ~ 0
~RESET
Entry Wire Line
	7700 1750 7800 1850
Wire Wire Line
	7400 1750 7700 1750
Wire Wire Line
	7400 1900 7700 1900
Wire Wire Line
	7400 2050 7700 2050
Entry Wire Line
	7700 1900 7800 2000
Entry Wire Line
	7700 2050 7800 2150
Text Label 7450 2050 0    60   ~ 0
SNDOUT
$Sheet
S 8400 1000 1100 1750
U 5613DCCA
F0 "Keyboard" 60
F1 "Keyboard.sch" 60
F2 "U601-4" I L 8400 2650 60 
F3 "U507-11" I L 8400 2550 60 
F4 "U601-7" I L 8400 2450 60 
F5 "U600-30" I L 8400 1650 60 
F6 "U600-60" I L 8400 1750 60 
F7 "U600-31" O L 8400 1850 60 
F8 "U600-14" I L 8400 1100 60 
F9 "U600-13" I L 8400 1200 60 
F10 "U600-12" I L 8400 1300 60 
F11 "U600-11" I L 8400 1400 60 
F12 "U600-10" I L 8400 1500 60 
F13 "U600-32" O L 8400 2000 60 
F14 "U300-18" I L 8400 2200 60 
F15 "U300-17" I L 8400 2100 60 
$EndSheet
Entry Wire Line
	3450 2400 3550 2500
Wire Wire Line
	3100 2400 3450 2400
Text Label 3150 2400 0    60   ~ 0
RAMBLK
Entry Bus Bus
	7850 550  7950 650 
Wire Bus Line
	7950 650  7950 1400
Entry Wire Line
	7950 1400 8050 1500
Entry Wire Line
	7950 1300 8050 1400
Entry Wire Line
	7950 1200 8050 1300
Entry Wire Line
	7950 1100 8050 1200
Entry Wire Line
	7950 1000 8050 1100
Entry Wire Line
	7800 2750 7900 2650
Entry Wire Line
	7800 2650 7900 2550
Entry Wire Line
	7800 2550 7900 2450
Entry Wire Line
	7800 2450 7900 2350
Entry Wire Line
	7800 2300 7900 2200
Entry Wire Line
	7800 2200 7900 2100
Entry Wire Line
	7800 2100 7900 2000
Entry Wire Line
	7800 1950 7900 1850
Entry Wire Line
	7800 1850 7900 1750
Entry Wire Line
	7800 1750 7900 1650
Wire Wire Line
	7900 2650 8400 2650
Text Label 8350 2650 2    60   ~ 0
~RESET
Wire Wire Line
	7900 2550 8400 2550
Text Label 8350 2550 2    60   ~ 0
RAMBLK
Wire Wire Line
	7900 2450 8400 2450
Text Label 8350 2450 2    60   ~ 0
~Ø3
Wire Wire Line
	7900 1650 8400 1650
Wire Wire Line
	7900 1750 8400 1750
Wire Wire Line
	7900 1850 8400 1850
Text Label 8350 1650 2    60   ~ 0
CRUOUT
Text Label 8350 1750 2    60   ~ 0
CRUCLK
Text Label 8350 1850 2    60   ~ 0
CRUIN
Wire Wire Line
	8050 1100 8400 1100
Wire Wire Line
	8050 1200 8400 1200
Wire Wire Line
	8050 1300 8400 1300
Wire Wire Line
	8050 1400 8400 1400
Wire Wire Line
	8050 1500 8400 1500
Text Label 8350 1100 2    60   ~ 0
A10
Text Label 8350 1200 2    60   ~ 0
A11
Text Label 8350 1300 2    60   ~ 0
A12
Text Label 8350 1400 2    60   ~ 0
A13
Text Label 8350 1500 2    60   ~ 0
A14
Wire Wire Line
	7900 2000 8400 2000
Text Label 8350 2000 2    60   ~ 0
~INTREQ
Wire Wire Line
	7900 2100 8400 2100
Wire Wire Line
	7900 2200 8400 2200
Text Label 8350 2200 2    60   ~ 0
VDPINT
Text Label 8350 2100 2    60   ~ 0
~EXTINT
$EndSCHEMATC
