EESchema Schematic File Version 2
EELAYER 25 0
EELAYER END
$Descr A4 11693 8268
encoding utf-8
Sheet 4 10
Title "TI-99/4A"
Date "2015-09-28"
Rev "1"
Comp "HackMac"
Comment1 "IO- and GROM-Port"
Comment2 ""
Comment3 ""
Comment4 ""
$EndDescr
$Comp
L CONN_02X22 J501
U 1 1 560663B8
P 5200 2550
F 0 "J501" H 5200 3700 50  0000 C CNN
F 1 "I/O Port" V 5200 2550 50  0000 C CNN
F 2 "" H 5200 1650 60  0001 C CNN
F 3 "" H 5200 1650 60  0000 C CNN
	1    5200 2550
	1    0    0    -1  
$EndComp
$Comp
L CONN_02X18 J500
U 1 1 56066400
P 5200 5400
F 0 "J500" H 5200 6350 50  0000 C CNN
F 1 "GROM Port" V 5200 5400 50  0000 C CNN
F 2 "" H 5200 4350 60  0001 C CNN
F 3 "" H 5200 4350 60  0000 C CNN
	1    5200 5400
	1    0    0    -1  
$EndComp
$Comp
L 74LS367 U509
U 1 1 56066553
P 2950 1600
F 0 "U509" H 2950 1550 60  0000 C CNN
F 1 "74LS367" H 3050 1350 60  0000 C CNN
F 2 "Sockets_DIP:DIP-16__300" H 2950 1600 60  0001 C CNN
F 3 "" H 2950 1600 60  0000 C CNN
	1    2950 1600
	1    0    0    -1  
$EndComp
$Comp
L 74LS367 U503
U 1 1 56066587
P 2950 2850
F 0 "U503" H 2950 2800 60  0000 C CNN
F 1 "74LS367" H 3050 2600 60  0000 C CNN
F 2 "Sockets_DIP:DIP-16__300" H 2950 2850 60  0001 C CNN
F 3 "" H 2950 2850 60  0000 C CNN
	1    2950 2850
	1    0    0    -1  
$EndComp
$Comp
L GND #PWR032
U 1 1 5606670F
P 2250 3400
F 0 "#PWR032" H 2250 3150 50  0001 C CNN
F 1 "GND" H 2250 3250 50  0000 C CNN
F 2 "" H 2250 3400 60  0000 C CNN
F 3 "" H 2250 3400 60  0000 C CNN
	1    2250 3400
	1    0    0    -1  
$EndComp
$Comp
L GND #PWR033
U 1 1 5606672F
P 2250 2150
F 0 "#PWR033" H 2250 1900 50  0001 C CNN
F 1 "GND" H 2250 2000 50  0000 C CNN
F 2 "" H 2250 2150 60  0000 C CNN
F 3 "" H 2250 2150 60  0000 C CNN
	1    2250 2150
	1    0    0    -1  
$EndComp
Entry Wire Line
	4100 1700 4200 1800
Entry Wire Line
	4100 1200 4200 1300
Entry Wire Line
	4100 1600 4200 1700
Entry Wire Line
	4100 1500 4200 1600
Entry Wire Line
	4100 1400 4200 1500
Entry Wire Line
	4100 1300 4200 1400
Entry Wire Line
	4100 2750 4200 2650
Entry Wire Line
	4100 2850 4200 2750
Entry Wire Line
	4100 2950 4200 2850
Entry Wire Line
	4100 2450 4200 2350
Entry Wire Line
	4100 2550 4200 2450
Entry Wire Line
	4100 2650 4200 2550
Text Label 3650 2650 0    60   ~ 0
IO_A3
Text Label 3650 2550 0    60   ~ 0
IO_A4
Text Label 3650 2450 0    60   ~ 0
IO_A5
Text Label 3650 1400 0    60   ~ 0
IO_A6
Text Label 3650 1300 0    60   ~ 0
IO_A7
Text Label 3650 1500 0    60   ~ 0
IO_A8
Text Label 3650 1600 0    60   ~ 0
IO_A9
Text Label 3650 2950 0    60   ~ 0
IO_A10
Text Label 3650 2850 0    60   ~ 0
IO_A11
Text Label 3650 2750 0    60   ~ 0
IO_A12
Text Label 3650 1200 0    60   ~ 0
IO_A13
Text Label 3650 1700 0    60   ~ 0
IO_A14
Entry Wire Line
	4700 1900 4800 2000
Entry Wire Line
	5600 2200 5700 2100
Entry Wire Line
	4700 2100 4800 2200
Entry Wire Line
	4700 2200 4800 2300
Entry Wire Line
	4700 2800 4800 2900
Entry Wire Line
	4700 1600 4800 1700
Entry Wire Line
	4700 1700 4800 1800
Entry Wire Line
	5600 1800 5700 1700
Entry Wire Line
	5600 1700 5700 1600
Entry Wire Line
	5600 2100 5700 2000
Entry Wire Line
	5600 1900 5700 1800
Entry Wire Line
	5600 2300 5700 2200
Entry Wire Line
	5600 2400 5700 2300
Entry Wire Line
	5600 2900 5700 2800
Entry Wire Line
	4700 2900 4800 3000
Entry Wire Line
	4700 2300 4800 2400
Text Label 4950 3000 2    60   ~ 0
IO_A0
Text Label 5450 2900 0    60   ~ 0
IO_A1
Text Label 5450 2400 0    60   ~ 0
IO_A2
Text Label 5450 1900 0    60   ~ 0
IO_A3
Text Label 4950 1800 2    60   ~ 0
IO_A4
Text Label 4950 1700 2    60   ~ 0
IO_A5
Text Label 4950 2900 2    60   ~ 0
IO_A6
Text Label 4950 2300 2    60   ~ 0
IO_A7
Text Label 5450 2100 0    60   ~ 0
IO_A8
Text Label 5450 2300 0    60   ~ 0
IO_A9
Text Label 5450 1700 0    60   ~ 0
IO_A10
Text Label 5450 1800 0    60   ~ 0
IO_A11
Text Label 4950 2000 2    60   ~ 0
IO_A12
Text Label 4950 2200 2    60   ~ 0
IO_A13
Text Label 5450 2200 0    60   ~ 0
IO_A14
Text Label 4950 2400 2    60   ~ 0
IO_A15/CRUOUT
$Comp
L +5V #PWR034
U 1 1 56067F1D
P 2650 2400
F 0 "#PWR034" H 2650 2250 50  0001 C CNN
F 1 "+5V" H 2650 2540 50  0000 C CNN
F 2 "" H 2650 2400 60  0000 C CNN
F 3 "" H 2650 2400 60  0000 C CNN
	1    2650 2400
	1    0    0    -1  
$EndComp
$Comp
L +5V #PWR035
U 1 1 56067F3D
P 2650 1150
F 0 "#PWR035" H 2650 1000 50  0001 C CNN
F 1 "+5V" H 2650 1290 50  0000 C CNN
F 2 "" H 2650 1150 60  0000 C CNN
F 3 "" H 2650 1150 60  0000 C CNN
	1    2650 1150
	1    0    0    -1  
$EndComp
$Comp
L +5V #PWR036
U 1 1 56067FB6
P 2650 3650
F 0 "#PWR036" H 2650 3500 50  0001 C CNN
F 1 "+5V" H 2650 3790 50  0000 C CNN
F 2 "" H 2650 3650 60  0000 C CNN
F 3 "" H 2650 3650 60  0000 C CNN
	1    2650 3650
	1    0    0    -1  
$EndComp
$Comp
L GND #PWR037
U 1 1 56068054
P 2250 4850
F 0 "#PWR037" H 2250 4600 50  0001 C CNN
F 1 "GND" H 2250 4700 50  0000 C CNN
F 2 "" H 2250 4850 60  0000 C CNN
F 3 "" H 2250 4850 60  0000 C CNN
	1    2250 4850
	1    0    0    -1  
$EndComp
Entry Wire Line
	4100 3700 4200 3600
Entry Wire Line
	4100 3800 4200 3700
Entry Wire Line
	4100 3900 4200 3800
Entry Wire Line
	4200 3800 4300 3900
Text Label 3650 3900 0    60   ~ 0
IO_A0
Text Label 3650 3800 0    60   ~ 0
IO_A1
Text Label 3650 3700 0    60   ~ 0
IO_A2
Text Label 4100 4200 0    60   ~ 0
IO_A15/CRUOUT
Entry Wire Line
	5600 4950 5700 4850
Entry Wire Line
	5600 5050 5700 4950
Entry Wire Line
	5600 5150 5700 5050
Entry Wire Line
	5600 5250 5700 5150
Entry Wire Line
	5600 5350 5700 5250
Entry Wire Line
	5600 5450 5700 5350
Entry Wire Line
	5600 5550 5700 5450
Entry Wire Line
	5600 5750 5700 5650
Entry Wire Line
	5600 5850 5700 5750
Entry Wire Line
	5600 5950 5700 5850
Entry Wire Line
	5600 5650 5700 5550
Text Label 5450 5650 0    60   ~ 0
A3
Text Label 5450 5950 0    60   ~ 0
A4
Text Label 5450 5850 0    60   ~ 0
A5
Text Label 5450 5750 0    60   ~ 0
A6
Text Label 5450 5550 0    60   ~ 0
A7
Text Label 5450 5450 0    60   ~ 0
A8
Text Label 5450 5350 0    60   ~ 0
A9
Text Label 5450 5250 0    60   ~ 0
A10
Text Label 5450 5150 0    60   ~ 0
A11
Text Label 5450 5050 0    60   ~ 0
A12
Text Label 5450 4950 0    60   ~ 0
A13
Text Label 4950 5650 2    60   ~ 0
IO_A14
Text Label 1600 2400 0    60   ~ 0
A15
Entry Wire Line
	4200 3700 4300 3800
Text Label 4100 4300 0    60   ~ 0
~IO_CRUCLK
$Comp
L R R507
U 1 1 560695BB
P 3800 4300
F 0 "R507" V 3800 4300 50  0000 C CNN
F 1 "62" V 3750 4500 50  0000 C CNN
F 2 "Resistors_ThroughHole:Resistor_Horizontal_RM10mm" V 3730 4300 30  0001 C CNN
F 3 "" H 3800 4300 30  0000 C CNN
	1    3800 4300
	0    1    1    0   
$EndComp
$Comp
L R R505
U 1 1 560695E8
P 3800 4100
F 0 "R505" V 3800 4100 50  0000 C CNN
F 1 "62" V 3750 4300 50  0000 C CNN
F 2 "Resistors_ThroughHole:Resistor_Horizontal_RM10mm" V 3730 4100 30  0001 C CNN
F 3 "" H 3800 4100 30  0000 C CNN
	1    3800 4100
	0    1    1    0   
$EndComp
$Comp
L R R506
U 1 1 56069619
P 3800 4000
F 0 "R506" V 3800 4000 50  0000 C CNN
F 1 "62" V 3750 4200 50  0000 C CNN
F 2 "Resistors_ThroughHole:Resistor_Horizontal_RM10mm" V 3730 4000 30  0001 C CNN
F 3 "" H 3800 4000 30  0000 C CNN
	1    3800 4000
	0    1    1    0   
$EndComp
$Comp
L R R512
U 1 1 5606963E
P 3800 4200
F 0 "R512" V 3800 4200 50  0000 C CNN
F 1 "62" V 3750 4400 50  0000 C CNN
F 2 "Resistors_ThroughHole:Resistor_Horizontal_RM10mm" V 3730 4200 30  0001 C CNN
F 3 "" H 3800 4200 30  0000 C CNN
	1    3800 4200
	0    1    1    0   
$EndComp
Text Label 4100 4000 0    60   ~ 0
~IO_Ø3
Text Label 4100 4100 0    60   ~ 0
~IO_WE
$Comp
L +5V #PWR038
U 1 1 5606AE5D
P 4950 1500
F 0 "#PWR038" H 4950 1350 50  0001 C CNN
F 1 "+5V" H 4950 1640 50  0000 C CNN
F 2 "" H 4950 1500 60  0000 C CNN
F 3 "" H 4950 1500 60  0000 C CNN
	1    4950 1500
	1    0    0    -1  
$EndComp
$Comp
L -5V #PWR039
U 1 1 5606B03D
P 4950 3600
F 0 "#PWR039" H 4950 3700 50  0001 C CNN
F 1 "-5V" H 4950 3750 50  0000 C CNN
F 2 "" H 4950 3600 60  0000 C CNN
F 3 "" H 4950 3600 60  0000 C CNN
	1    4950 3600
	-1   0    0    1   
$EndComp
$Comp
L GND #PWR040
U 1 1 5606B1D0
P 4850 2500
F 0 "#PWR040" H 4850 2250 50  0001 C CNN
F 1 "GND" H 4850 2350 50  0000 C CNN
F 2 "" H 4850 2500 60  0000 C CNN
F 3 "" H 4850 2500 60  0000 C CNN
	1    4850 2500
	1    0    0    -1  
$EndComp
$Comp
L GND #PWR041
U 1 1 5606B395
P 5450 3000
F 0 "#PWR041" H 5450 2750 50  0001 C CNN
F 1 "GND" H 5450 2850 50  0000 C CNN
F 2 "" H 5450 3000 60  0000 C CNN
F 3 "" H 5450 3000 60  0000 C CNN
	1    5450 3000
	0    -1   -1   0   
$EndComp
Entry Wire Line
	5650 3100 5750 3200
Entry Wire Line
	5650 3200 5750 3300
Entry Wire Line
	5650 3300 5750 3400
Entry Wire Line
	5650 3400 5750 3500
Entry Wire Line
	5650 3500 5750 3600
Entry Wire Line
	4650 3400 4750 3300
Entry Wire Line
	4650 3500 4750 3400
Entry Wire Line
	4650 3300 4750 3200
Text Label 4950 3300 2    60   ~ 0
IO_D0
Text Label 5450 3400 0    60   ~ 0
IO_D1
Text Label 4950 3400 2    60   ~ 0
IO_D2
Text Label 5450 3500 0    60   ~ 0
IO_D3
Text Label 4950 3200 2    60   ~ 0
IO_D4
Text Label 5450 3300 0    60   ~ 0
IO_D5
Text Label 5450 3200 0    60   ~ 0
IO_D6
Text Label 5450 3100 0    60   ~ 0
IO_D7
Entry Wire Line
	4650 5250 4750 5350
Entry Wire Line
	4650 5150 4750 5250
Entry Wire Line
	4650 5050 4750 5150
Entry Wire Line
	4650 4950 4750 5050
Entry Wire Line
	4650 4850 4750 4950
Entry Wire Line
	4650 4750 4750 4850
Entry Wire Line
	4650 4650 4750 4750
Entry Wire Line
	4650 4550 4750 4650
Text Label 4950 5350 2    60   ~ 0
IO_D0
Text Label 4950 5250 2    60   ~ 0
IO_D1
Text Label 4950 5150 2    60   ~ 0
IO_D2
Text Label 4950 5050 2    60   ~ 0
IO_D3
Text Label 4950 4950 2    60   ~ 0
IO_D4
Text Label 4950 4850 2    60   ~ 0
IO_D5
Text Label 4950 4750 2    60   ~ 0
IO_D6
Text Label 4950 4650 2    60   ~ 0
IO_D7
Entry Wire Line
	2000 2850 2100 2950
Entry Wire Line
	2000 2750 2100 2850
Entry Wire Line
	2000 2650 2100 2750
Entry Wire Line
	2000 2550 2100 2650
Entry Wire Line
	2000 2450 2100 2550
Entry Wire Line
	2000 2350 2100 2450
Entry Wire Line
	2000 1600 2100 1700
Entry Wire Line
	2000 1500 2100 1600
Entry Wire Line
	2000 1400 2100 1500
Entry Wire Line
	2000 1300 2100 1400
Entry Wire Line
	2000 1200 2100 1300
Entry Wire Line
	2000 1100 2100 1200
Entry Wire Line
	1900 1200 2000 1100
Entry Wire Line
	1900 1300 2000 1200
Entry Wire Line
	1900 1400 2000 1300
Entry Wire Line
	1900 1500 2000 1400
Entry Wire Line
	1900 1600 2000 1500
Entry Wire Line
	1900 1700 2000 1600
Entry Wire Line
	1900 1800 2000 1700
Entry Wire Line
	1900 1900 2000 1800
Entry Wire Line
	1900 2000 2000 1900
Entry Wire Line
	1900 2100 2000 2000
Entry Wire Line
	1900 2200 2000 2100
Entry Wire Line
	1900 2300 2000 2200
Text HLabel 1550 1200 0    60   Input ~ 0
U600-10
Text HLabel 1550 1300 0    60   Input ~ 0
U600-11
Text HLabel 1550 1400 0    60   Input ~ 0
U600-12
Text HLabel 1550 1500 0    60   Input ~ 0
U600-13
Text HLabel 1550 1600 0    60   Input ~ 0
U600-14
Text HLabel 1550 1700 0    60   Input ~ 0
U600-15
Text HLabel 1550 1800 0    60   Input ~ 0
U600-16
Text HLabel 1550 1900 0    60   Input ~ 0
U600-17
Text HLabel 1550 2000 0    60   Input ~ 0
U600-18
Text HLabel 1550 2100 0    60   Input ~ 0
U600-19
Text HLabel 1550 2200 0    60   Input ~ 0
U600-20
Text HLabel 1550 2300 0    60   Input ~ 0
U600-21
Text Label 1600 1200 0    60   ~ 0
A3
Text Label 1600 1300 0    60   ~ 0
A4
Text Label 1600 1400 0    60   ~ 0
A5
Text Label 1600 1500 0    60   ~ 0
A6
Text Label 1600 1600 0    60   ~ 0
A7
Text Label 1600 1700 0    60   ~ 0
A8
Text Label 1600 1800 0    60   ~ 0
A9
Text Label 1600 1900 0    60   ~ 0
A10
Text Label 1600 2000 0    60   ~ 0
A11
Text Label 1600 2100 0    60   ~ 0
A12
Text Label 1600 2200 0    60   ~ 0
A13
Text Label 1600 2300 0    60   ~ 0
A14
Text HLabel 1550 2400 0    60   Input ~ 0
U602-8
Text HLabel 1550 4000 0    60   Input ~ 0
U601-7
Text Label 1600 4000 0    60   ~ 0
~Ø3
Text HLabel 1550 4100 0    60   Input ~ 0
U606-3
Text Label 1600 4100 0    60   ~ 0
~WE
Text HLabel 1550 3700 0    60   Input ~ 0
U600-22
Text HLabel 1550 3800 0    60   Input ~ 0
U600-23
Text HLabel 1550 3900 0    60   Input ~ 0
U600-24
Text Label 1600 3900 0    60   ~ 0
A0
Text Label 1600 3800 0    60   ~ 0
A1
Text Label 1600 3700 0    60   ~ 0
A2
Text HLabel 1550 5750 0    60   Input ~ 0
U602-10
$Comp
L +5V #PWR042
U 1 1 5606B52A
P 3700 5150
F 0 "#PWR042" H 3700 5000 50  0001 C CNN
F 1 "+5V" H 3700 5290 50  0000 C CNN
F 2 "" H 3700 5150 60  0000 C CNN
F 3 "" H 3700 5150 60  0000 C CNN
	1    3700 5150
	1    0    0    -1  
$EndComp
Text HLabel 1550 6050 0    60   Output ~ 0
U500-15
$Comp
L R R517
U 1 1 5606D2CC
P 4150 5300
F 0 "R517" V 4150 5300 50  0000 C CNN
F 1 "2.2k" V 4150 5100 50  0000 R CNN
F 2 "Resistors_ThroughHole:Resistor_Horizontal_RM10mm" V 4080 5300 30  0001 C CNN
F 3 "" H 4150 5300 30  0000 C CNN
	1    4150 5300
	-1   0    0    1   
$EndComp
$Comp
L R R516
U 1 1 5606D33D
P 4050 5300
F 0 "R516" V 4050 5300 50  0000 C CNN
F 1 "3.3k" V 4050 5100 50  0000 R CNN
F 2 "Resistors_ThroughHole:Resistor_Horizontal_RM10mm" V 3980 5300 30  0001 C CNN
F 3 "" H 4050 5300 30  0000 C CNN
	1    4050 5300
	-1   0    0    1   
$EndComp
$Comp
L R R502
U 1 1 5606D374
P 3950 5300
F 0 "R502" V 3950 5300 50  0000 C CNN
F 1 "1k" V 3950 5100 50  0000 R CNN
F 2 "Resistors_ThroughHole:Resistor_Horizontal_RM10mm" V 3880 5300 30  0001 C CNN
F 3 "" H 3950 5300 30  0000 C CNN
	1    3950 5300
	-1   0    0    1   
$EndComp
$Comp
L R R504
U 1 1 5606D3A7
P 3850 5300
F 0 "R504" V 3850 5300 50  0000 C CNN
F 1 "4.7k" V 3850 5100 50  0000 R CNN
F 2 "Resistors_ThroughHole:Resistor_Horizontal_RM10mm" V 3780 5300 30  0001 C CNN
F 3 "" H 3850 5300 30  0000 C CNN
	1    3850 5300
	-1   0    0    1   
$EndComp
$Comp
L R R518
U 1 1 5606D3DA
P 4250 5300
F 0 "R518" V 4250 5300 50  0000 C CNN
F 1 "2.2k" V 4250 5100 50  0000 R CNN
F 2 "Resistors_ThroughHole:Resistor_Horizontal_RM10mm" V 4180 5300 30  0001 C CNN
F 3 "" H 4250 5300 30  0000 C CNN
	1    4250 5300
	-1   0    0    1   
$EndComp
Text HLabel 1550 5550 0    60   Input ~ 0
U508-12
Text Label 4950 5550 2    60   ~ 0
~GS
Text Label 4950 6050 2    60   ~ 0
GR
Text Label 4950 5750 2    60   ~ 0
DBIN
Text Label 5450 6050 0    60   ~ 0
~WE
Text Label 5450 4850 0    60   ~ 0
A15/CRUOUT
Text Label 5450 4650 0    60   ~ 0
~CRUCLK
Text Label 4950 5850 2    60   ~ 0
GRCLK
Text HLabel 1550 5850 0    60   Input ~ 0
U100-37
$Comp
L GND #PWR043
U 1 1 560724F3
P 5200 6350
F 0 "#PWR043" H 5200 6100 50  0001 C CNN
F 1 "GND" H 5200 6200 50  0000 C CNN
F 2 "" H 5200 6350 60  0000 C CNN
F 3 "" H 5200 6350 60  0000 C CNN
	1    5200 6350
	1    0    0    -1  
$EndComp
$Comp
L GND #PWR044
U 1 1 560729E1
P 5900 4550
F 0 "#PWR044" H 5900 4300 50  0001 C CNN
F 1 "GND" H 5900 4400 50  0000 C CNN
F 2 "" H 5900 4550 60  0000 C CNN
F 3 "" H 5900 4550 60  0000 C CNN
	1    5900 4550
	1    0    0    -1  
$EndComp
Wire Wire Line
	5450 4850 5950 4850
Wire Wire Line
	5450 5950 5600 5950
Wire Wire Line
	5600 5850 5450 5850
Wire Wire Line
	5450 5750 5600 5750
Wire Wire Line
	5600 5650 5450 5650
Wire Wire Line
	5450 5550 5600 5550
Wire Wire Line
	5600 5450 5450 5450
Wire Wire Line
	5450 5350 5600 5350
Wire Wire Line
	5600 5250 5450 5250
Wire Wire Line
	5450 5150 5600 5150
Wire Wire Line
	5600 5050 5450 5050
Wire Wire Line
	5450 4950 5600 4950
Wire Bus Line
	6200 4450 5700 4450
Wire Bus Line
	5700 4450 5700 5850
Wire Bus Line
	5700 4750 5700 5750
Wire Bus Line
	5700 4850 5700 5650
Wire Wire Line
	4100 3700 3650 3700
Wire Wire Line
	3650 3800 4100 3800
Wire Wire Line
	4100 3900 3650 3900
Wire Wire Line
	3950 4200 4300 4200
Connection ~ 2250 4800
Connection ~ 2250 4700
Wire Wire Line
	2650 4800 2650 4750
Wire Wire Line
	2250 4800 2650 4800
Wire Wire Line
	2250 4600 2250 4850
Connection ~ 2250 2100
Wire Wire Line
	2250 2100 2650 2100
Wire Wire Line
	2650 2100 2650 2050
Connection ~ 2250 3350
Wire Wire Line
	2250 3350 2650 3350
Wire Wire Line
	2650 3350 2650 3300
Wire Bus Line
	5700 1250 5700 2800
Wire Wire Line
	5600 2400 5450 2400
Wire Wire Line
	5450 2900 5600 2900
Wire Wire Line
	4800 3000 4950 3000
Wire Wire Line
	4800 2400 4950 2400
Wire Wire Line
	5450 2300 5600 2300
Wire Wire Line
	5600 2100 5450 2100
Wire Wire Line
	5450 1900 5600 1900
Wire Wire Line
	5600 1800 5450 1800
Wire Wire Line
	5450 1700 5600 1700
Wire Wire Line
	5600 2200 5450 2200
Wire Wire Line
	4800 2900 4950 2900
Wire Wire Line
	4800 2300 4950 2300
Wire Wire Line
	4800 2200 4950 2200
Wire Wire Line
	4950 2000 4800 2000
Wire Wire Line
	4800 1800 4950 1800
Wire Wire Line
	4800 1700 4950 1700
Wire Bus Line
	4700 1250 4700 2900
Wire Bus Line
	4700 1900 4700 2800
Wire Wire Line
	3650 2950 4100 2950
Wire Wire Line
	4100 2850 3650 2850
Wire Wire Line
	3650 2750 4100 2750
Wire Wire Line
	4100 2650 3650 2650
Wire Wire Line
	3650 2550 4100 2550
Wire Wire Line
	4100 2450 3650 2450
Wire Wire Line
	3650 1700 4100 1700
Wire Wire Line
	4100 1600 3650 1600
Wire Wire Line
	3650 1500 4100 1500
Wire Wire Line
	3650 1400 4100 1400
Wire Wire Line
	4100 1300 3650 1300
Wire Wire Line
	3650 1200 4100 1200
Wire Bus Line
	4200 900  4200 900 
Wire Bus Line
	4200 1250 5700 1250
Wire Bus Line
	4200 1250 4200 3850
Connection ~ 2250 2000
Wire Wire Line
	2250 1900 2250 2150
Connection ~ 2250 3250
Wire Wire Line
	2250 3150 2250 3400
Wire Wire Line
	4150 5650 4950 5650
Wire Wire Line
	4350 3850 4350 5650
Wire Wire Line
	6050 4300 6050 2500
Wire Wire Line
	6050 2500 5450 2500
Wire Wire Line
	3950 4300 6050 4300
Wire Wire Line
	3950 4000 6000 4000
Wire Wire Line
	6000 4000 6000 2600
Wire Wire Line
	6000 2600 5450 2600
Wire Wire Line
	3950 4100 5950 4100
Wire Wire Line
	5950 4100 5950 2700
Wire Wire Line
	5950 2700 5450 2700
Wire Wire Line
	4850 2500 4950 2500
Wire Wire Line
	4950 2500 4950 2800
Connection ~ 4950 2600
Connection ~ 4950 2700
Wire Bus Line
	4650 3300 4650 5250
Wire Bus Line
	5750 3900 4650 3900
Wire Bus Line
	5750 3200 5750 3900
Wire Wire Line
	4750 3200 4950 3200
Wire Wire Line
	4750 3300 4950 3300
Wire Wire Line
	4750 3400 4950 3400
Wire Wire Line
	5450 3100 5650 3100
Wire Wire Line
	5450 3200 5650 3200
Wire Wire Line
	5450 3300 5650 3300
Wire Wire Line
	5450 3400 5650 3400
Wire Wire Line
	5450 3500 5650 3500
Wire Wire Line
	4950 4650 4750 4650
Wire Wire Line
	4750 4750 4950 4750
Wire Wire Line
	4750 4850 4950 4850
Wire Wire Line
	4750 4950 4950 4950
Wire Wire Line
	4750 5050 4950 5050
Wire Wire Line
	4750 5150 4950 5150
Wire Wire Line
	4750 5250 4950 5250
Wire Wire Line
	4750 5350 4950 5350
Wire Wire Line
	4300 4200 4300 3900
Wire Bus Line
	6200 950  6200 4450
Wire Bus Line
	6200 950  2000 950 
Wire Bus Line
	2000 950  2000 2850
Wire Wire Line
	2100 1200 2250 1200
Wire Wire Line
	2250 1300 2100 1300
Wire Wire Line
	2100 1400 2250 1400
Wire Wire Line
	2250 1500 2100 1500
Wire Wire Line
	2100 1600 2250 1600
Wire Wire Line
	2250 1700 2100 1700
Wire Wire Line
	2100 2450 2250 2450
Wire Wire Line
	2250 2550 2100 2550
Wire Wire Line
	2100 2650 2250 2650
Wire Wire Line
	2250 2750 2100 2750
Wire Wire Line
	2100 2850 2250 2850
Wire Wire Line
	2250 2950 2100 2950
Wire Wire Line
	4300 3800 4350 3850
Wire Wire Line
	1550 1200 1900 1200
Wire Wire Line
	1900 1300 1550 1300
Wire Wire Line
	1550 1400 1900 1400
Wire Wire Line
	1900 1500 1550 1500
Wire Wire Line
	1550 1600 1900 1600
Wire Wire Line
	1900 1700 1550 1700
Wire Wire Line
	1550 1800 1900 1800
Wire Wire Line
	1900 1900 1550 1900
Wire Wire Line
	1550 2000 1900 2000
Wire Wire Line
	1900 2100 1550 2100
Wire Wire Line
	1550 2200 1900 2200
Wire Wire Line
	1900 2300 1550 2300
Wire Wire Line
	2050 4300 2050 5100
Wire Wire Line
	3750 4450 5550 4450
Wire Wire Line
	5550 4450 5550 4650
Wire Wire Line
	5450 4650 6250 4650
Wire Wire Line
	2100 4200 2250 4200
Wire Wire Line
	2100 4200 2100 5050
Wire Wire Line
	2100 5050 3500 5050
Wire Wire Line
	3700 4400 5600 4400
Wire Wire Line
	5600 4400 5600 4850
Wire Wire Line
	1550 4000 2250 4000
Wire Wire Line
	1550 4100 2250 4100
Wire Wire Line
	5450 6050 5600 6050
Wire Wire Line
	5600 6050 5600 6550
Wire Wire Line
	5600 6550 2150 6550
Wire Wire Line
	2150 6550 2150 4100
Connection ~ 2150 4100
Wire Wire Line
	1550 3700 2250 3700
Wire Wire Line
	1550 3800 2250 3800
Wire Wire Line
	1550 3900 2250 3900
Wire Wire Line
	1550 5750 4950 5750
Wire Wire Line
	3700 5150 4250 5150
Connection ~ 4050 5150
Wire Wire Line
	1550 5850 4950 5850
Wire Wire Line
	4050 5450 4050 5750
Wire Wire Line
	4150 5650 4150 5450
Connection ~ 4350 5650
Connection ~ 4050 5750
Wire Wire Line
	3950 5850 3950 5450
Connection ~ 4150 5150
Wire Wire Line
	1550 6050 4950 6050
Wire Wire Line
	3850 5450 3850 6050
Connection ~ 3850 6050
Connection ~ 3950 5150
Connection ~ 3850 5150
Wire Wire Line
	1550 5550 4950 5550
Wire Wire Line
	4250 5550 4250 5450
Wire Wire Line
	2050 5100 3550 5100
Connection ~ 4250 5550
Connection ~ 3950 5850
Wire Wire Line
	5450 6350 5450 6250
Wire Wire Line
	4950 6350 5450 6350
Wire Wire Line
	4950 6250 4950 6350
Connection ~ 5200 6350
Wire Wire Line
	5450 4550 5900 4550
Text HLabel 1550 6600 0    60   Input ~ 0
U504-12
Wire Wire Line
	1550 6600 5650 6600
Wire Wire Line
	5650 6600 5650 6150
Wire Wire Line
	5650 6150 5450 6150
Text Label 5450 6150 0    60   ~ 0
~ROMG
$Comp
L +5V #PWR045
U 1 1 560733BB
P 4550 5450
F 0 "#PWR045" H 4550 5300 50  0001 C CNN
F 1 "+5V" H 4550 5590 50  0000 C CNN
F 2 "" H 4550 5450 60  0000 C CNN
F 3 "" H 4550 5450 60  0000 C CNN
	1    4550 5450
	1    0    0    -1  
$EndComp
Wire Wire Line
	4950 5450 4550 5450
$Comp
L -5V #PWR046
U 1 1 560736CE
P 4550 5950
F 0 "#PWR046" H 4550 6050 50  0001 C CNN
F 1 "-5V" H 4550 6100 50  0000 C CNN
F 2 "" H 4550 5950 60  0000 C CNN
F 3 "" H 4550 5950 60  0000 C CNN
	1    4550 5950
	-1   0    0    1   
$EndComp
Wire Wire Line
	4550 5950 4950 5950
Text HLabel 1550 6150 0    60   Input ~ 0
U500-16
Wire Wire Line
	4950 6150 1550 6150
Text Label 4950 6150 2    60   ~ 0
Vss
Wire Wire Line
	3800 4500 4750 4500
Wire Wire Line
	4750 4500 4750 4550
Wire Wire Line
	3600 4950 3600 5150
Wire Wire Line
	3600 5150 1550 5150
Text HLabel 1550 5150 0    60   Input ~ 0
RESET
Text HLabel 10700 5400 2    60   Output ~ 0
U600-31
Wire Wire Line
	5750 5400 10700 5400
Wire Wire Line
	5750 3950 5750 5400
Wire Wire Line
	5750 4750 5450 4750
Text Label 5450 4750 0    60   ~ 0
CRUIN
Text HLabel 1550 2600 0    60   BiDi ~ 0
MUX_D0
Text HLabel 1550 2700 0    60   BiDi ~ 0
MUX_D1
Text HLabel 1550 2800 0    60   BiDi ~ 0
MUX_D2
Text HLabel 1550 2900 0    60   BiDi ~ 0
MUX_D3
Text HLabel 1550 3000 0    60   BiDi ~ 0
MUX_D4
Text HLabel 1550 3100 0    60   BiDi ~ 0
MUX_D5
Text HLabel 1550 3200 0    60   BiDi ~ 0
MUX_D6
Text HLabel 1550 3300 0    60   BiDi ~ 0
MUX_D7
Wire Bus Line
	1900 5000 4650 5000
Wire Bus Line
	1900 2700 1900 5000
Entry Wire Line
	1800 2600 1900 2700
Entry Wire Line
	1800 2700 1900 2800
Entry Wire Line
	1800 2800 1900 2900
Entry Wire Line
	1800 2900 1900 3000
Entry Wire Line
	1800 3000 1900 3100
Entry Wire Line
	1800 3100 1900 3200
Entry Wire Line
	1800 3200 1900 3300
Entry Wire Line
	1800 3300 1900 3400
Wire Wire Line
	1550 2600 1800 2600
Wire Wire Line
	1550 2700 1800 2700
Wire Wire Line
	1550 2800 1800 2800
Wire Wire Line
	1550 2900 1800 2900
Wire Wire Line
	1550 3000 1800 3000
Wire Wire Line
	1550 3100 1800 3100
Wire Wire Line
	1550 3200 1800 3200
Wire Wire Line
	1550 3300 1800 3300
Text Label 1600 2600 0    60   ~ 0
IO_D0
Text Label 1600 2700 0    60   ~ 0
IO_D1
Text Label 1600 2800 0    60   ~ 0
IO_D2
Text Label 1600 2900 0    60   ~ 0
IO_D3
Text Label 1600 3000 0    60   ~ 0
IO_D4
Text Label 1600 3100 0    60   ~ 0
IO_D5
Text Label 1600 3200 0    60   ~ 0
IO_D6
Text Label 1600 3300 0    60   ~ 0
IO_D7
Text HLabel 1550 4400 0    60   Input ~ 0
U504-13
Wire Wire Line
	1550 4400 2250 4400
Text Label 1600 4400 0    60   ~ 0
~MBE
Text Label 2250 1700 2    60   ~ 0
A14
Text Label 2250 1600 2    60   ~ 0
A9
Text Label 2250 1500 2    60   ~ 0
A8
Text Label 2250 1400 2    60   ~ 0
A6
Text Label 2250 1300 2    60   ~ 0
A7
Text Label 2250 1200 2    60   ~ 0
A13
Text Label 2250 2450 2    60   ~ 0
A5
Text Label 2250 2550 2    60   ~ 0
A4
Text Label 2250 2650 2    60   ~ 0
A3
Text Label 2250 2750 2    60   ~ 0
A12
Text Label 2250 2850 2    60   ~ 0
A11
Text Label 2250 2950 2    60   ~ 0
A10
Wire Wire Line
	4750 4550 4950 4550
Wire Wire Line
	3650 4400 3650 4350
Wire Wire Line
	3650 4350 5900 4350
Wire Wire Line
	5900 4350 5900 2750
Wire Wire Line
	5450 2800 5600 2800
Wire Wire Line
	5600 2800 5600 2750
Wire Wire Line
	5600 2750 5900 2750
Wire Wire Line
	3600 4950 3800 4950
Wire Wire Line
	3800 4950 3800 4500
$Comp
L 74LS244 U510
U 1 1 56066161
P 2950 4200
F 0 "U510" H 3000 4000 60  0000 C CNN
F 1 "74LS244" H 3050 3800 60  0000 C CNN
F 2 "Sockets_DIP:DIP-20__300" H 2950 4200 60  0001 C CNN
F 3 "" H 2950 4200 60  0000 C CNN
	1    2950 4200
	1    0    0    -1  
$EndComp
Wire Wire Line
	3550 5100 3550 4900
Wire Wire Line
	3550 4900 3750 4900
Wire Wire Line
	3750 4900 3750 4450
Wire Wire Line
	3700 4400 3700 4850
Wire Wire Line
	3700 4850 3500 4850
Wire Wire Line
	3500 4850 3500 5050
Text Label 5450 2500 0    60   ~ 0
~IO_CRUCLK
Text Label 5450 2600 0    60   ~ 0
IO_Ø3
Text Label 5450 2700 0    60   ~ 0
~IO_WE
Text Label 5450 2800 0    60   ~ 0
~IO_MBE
Wire Wire Line
	5750 3950 4550 3950
Wire Wire Line
	4550 3100 4950 3100
Connection ~ 5750 4750
Text Label 4950 3100 2    60   ~ 0
CRUIN
$Comp
L R R525
U 1 1 560C009A
P 4550 3250
F 0 "R525" V 4550 3250 50  0000 C CNN
F 1 "100" V 4650 3250 50  0000 C CNN
F 2 "Resistors_ThroughHole:Resistor_Horizontal_RM10mm" V 4480 3250 30  0001 C CNN
F 3 "" H 4550 3250 30  0000 C CNN
	1    4550 3250
	-1   0    0    1   
$EndComp
Wire Wire Line
	4550 3950 4550 3400
Wire Wire Line
	6400 1200 4750 1200
Wire Wire Line
	4750 1200 4750 1600
Wire Wire Line
	4750 1600 4950 1600
Text Label 4950 1600 2    60   ~ 0
~RESET
Text HLabel 1550 800  0    60   Output ~ 0
U300-17
$Comp
L R R524
U 1 1 560C0C5A
P 4950 800
F 0 "R524" V 4950 800 50  0000 C CNN
F 1 "100" V 4850 800 50  0000 C CNN
F 2 "Resistors_ThroughHole:Resistor_Horizontal_RM10mm" V 4880 800 30  0001 C CNN
F 3 "" H 4950 800 30  0000 C CNN
	1    4950 800 
	0    1    1    0   
$EndComp
Wire Wire Line
	4800 800  1550 800 
Wire Wire Line
	5100 800  5900 800 
$Comp
L R R300
U 1 1 560C1095
P 6050 800
F 0 "R300" V 6050 800 50  0000 C CNN
F 1 "4.7k" V 5950 800 50  0000 C CNN
F 2 "Resistors_ThroughHole:Resistor_Horizontal_RM10mm" V 5980 800 30  0001 C CNN
F 3 "" H 6050 800 30  0000 C CNN
	1    6050 800 
	0    1    1    0   
$EndComp
$Comp
L +5V #PWR047
U 1 1 560C1107
P 6300 700
F 0 "#PWR047" H 6300 550 50  0001 C CNN
F 1 "+5V" H 6300 840 50  0000 C CNN
F 2 "" H 6300 700 60  0000 C CNN
F 3 "" H 6300 700 60  0000 C CNN
	1    6300 700 
	1    0    0    -1  
$EndComp
Connection ~ 5750 800 
Wire Wire Line
	5450 1600 5650 1600
Wire Wire Line
	5650 1600 5650 1550
Wire Wire Line
	5650 1550 5750 1550
Wire Wire Line
	5750 1550 5750 800 
Text Label 5450 1600 0    60   ~ 0
~IO_EXT_INT
Wire Wire Line
	6200 800  6300 800 
Text HLabel 1550 700  0    60   Input ~ 0
U600-4
$Comp
L R R523
U 1 1 560C1BB5
P 4400 700
F 0 "R523" V 4400 700 50  0000 C CNN
F 1 "100" V 4300 700 50  0000 C CNN
F 2 "Resistors_ThroughHole:Resistor_Horizontal_RM10mm" V 4330 700 30  0001 C CNN
F 3 "" H 4400 700 30  0000 C CNN
	1    4400 700 
	0    1    1    0   
$EndComp
Wire Wire Line
	4250 700  1550 700 
Text Label 1600 700  0    60   ~ 0
~LOAD
Wire Wire Line
	4550 700  5600 700 
Wire Wire Line
	4650 700  4650 2050
Wire Wire Line
	4650 2050 4750 2050
Wire Wire Line
	4750 2050 4750 2100
Wire Wire Line
	4750 2100 4950 2100
Text Label 4950 2100 2    60   ~ 0
~IO_LOAD
$Comp
L R R509
U 1 1 560C23A8
P 5750 700
F 0 "R509" V 5750 700 50  0000 C CNN
F 1 "4.7k" V 5650 700 50  0000 C CNN
F 2 "Resistors_ThroughHole:Resistor_Horizontal_RM10mm" V 5680 700 30  0001 C CNN
F 3 "" H 5750 700 30  0000 C CNN
	1    5750 700 
	0    1    1    0   
$EndComp
Connection ~ 4650 700 
Wire Wire Line
	6300 800  6300 700 
Wire Wire Line
	6300 700  5900 700 
Connection ~ 6300 700 
$Comp
L R R526
U 1 1 560C3036
P 6500 3800
F 0 "R526" V 6500 3800 50  0000 C CNN
F 1 "100" V 6450 4000 50  0000 C CNN
F 2 "Resistors_ThroughHole:Resistor_Horizontal_RM10mm" V 6430 3800 30  0001 C CNN
F 3 "" H 6500 3800 30  0000 C CNN
	1    6500 3800
	0    1    1    0   
$EndComp
Wire Wire Line
	6650 3800 6800 3800
Wire Wire Line
	6350 3800 4800 3800
Wire Wire Line
	4800 3800 4800 3500
Wire Wire Line
	4800 3500 4950 3500
Text Label 4950 3500 2    60   ~ 0
HOLD/IAQ
$Comp
L R R510
U 1 1 560C372E
P 3800 3500
F 0 "R510" V 3800 3500 50  0000 C CNN
F 1 "330" V 3750 3700 50  0000 C CNN
F 2 "Resistors_ThroughHole:Resistor_Horizontal_RM10mm" V 3730 3500 30  0001 C CNN
F 3 "" H 3800 3500 30  0000 C CNN
	1    3800 3500
	0    1    1    0   
$EndComp
Wire Wire Line
	3950 3500 4450 3500
Wire Wire Line
	4450 3500 4450 3850
Wire Wire Line
	4450 3850 5650 3850
Wire Wire Line
	5650 3850 5650 3600
Wire Wire Line
	5650 3600 5450 3600
Text HLabel 3250 3500 0    60   Input ~ 0
U511-9
Wire Wire Line
	3250 3500 3650 3500
Text Label 5450 3600 0    60   ~ 0
SPEECH
Text HLabel 6600 1950 2    60   Input ~ 0
U506-3
Wire Wire Line
	5550 1950 6600 1950
Text Label 5450 2000 0    60   ~ 0
READY/~HOLD
Entry Wire Line
	1900 2400 2000 2300
Wire Wire Line
	1550 2400 1900 2400
Connection ~ 5600 4850
$Comp
L 74LS04 U604
U 2 1 560B61C8
P 10000 4950
F 0 "U604" H 10195 5065 60  0000 C CNN
F 1 "74LS04" H 10190 4825 60  0000 C CNN
F 2 "Sockets_DIP:DIP-14__300" H 10000 4950 60  0001 C CNN
F 3 "" H 10000 4950 60  0000 C CNN
	2    10000 4950
	-1   0    0    1   
$EndComp
$Comp
L 74LS00 U612
U 4 1 560B6697
P 6550 4850
F 0 "U612" H 6550 4900 60  0000 C CNN
F 1 "74LS00" H 6550 4750 60  0000 C CNN
F 2 "Sockets_DIP:DIP-14__300" H 6550 4850 60  0001 C CNN
F 3 "" H 6550 4850 60  0000 C CNN
	4    6550 4850
	-1   0    0    1   
$EndComp
$Comp
L +5V #PWR048
U 1 1 560B6755
P 7150 4650
F 0 "#PWR048" H 7150 4500 50  0001 C CNN
F 1 "+5V" H 7150 4790 50  0000 C CNN
F 2 "" H 7150 4650 60  0000 C CNN
F 3 "" H 7150 4650 60  0000 C CNN
	1    7150 4650
	1    0    0    -1  
$EndComp
Wire Wire Line
	7150 4650 7150 4750
$Comp
L 74LS00 U606
U 3 1 560B69D0
P 7750 4950
F 0 "U606" H 7750 5000 60  0000 C CNN
F 1 "74LS00" H 7750 4850 60  0000 C CNN
F 2 "Sockets_DIP:DIP-14__300" H 7750 4950 60  0001 C CNN
F 3 "" H 7750 4950 60  0000 C CNN
	3    7750 4950
	-1   0    0    1   
$EndComp
$Comp
L 74LS32 U605
U 3 1 560B6BF9
P 8950 5050
F 0 "U605" H 8950 5100 60  0000 C CNN
F 1 "74LS32" H 8950 5000 60  0000 C CNN
F 2 "Sockets_DIP:DIP-14__300" H 8950 5050 60  0001 C CNN
F 3 "" H 8950 5050 60  0000 C CNN
	3    8950 5050
	-1   0    0    1   
$EndComp
Entry Wire Line
	6200 4200 6300 4300
Wire Wire Line
	6300 4300 8350 4300
Wire Wire Line
	8350 4300 8350 4850
Text Label 6350 4300 0    60   ~ 0
A15
Text HLabel 10700 4950 2    60   Input ~ 0
U605-3
Wire Wire Line
	10450 4950 10700 4950
Text Label 10700 4950 2    60   ~ 0
~MEMEN
Text Label 1600 6600 0    60   ~ 0
~ROMG
Text HLabel 10700 5150 2    60   Input ~ 0
U600-30
Wire Wire Line
	10700 5150 9550 5150
Text Label 10700 5150 2    60   ~ 0
CRUOUT
Wire Wire Line
	2050 4300 2250 4300
Connection ~ 5550 4650
$Comp
L 74LS04 U602
U 6 1 560DFEF2
P 10000 4500
F 0 "U602" H 10195 4615 60  0000 C CNN
F 1 "74LS04" H 10190 4375 60  0000 C CNN
F 2 "Sockets_DIP:DIP-14__300" H 10000 4500 60  0001 C CNN
F 3 "" H 10000 4500 60  0000 C CNN
	6    10000 4500
	-1   0    0    1   
$EndComp
Wire Wire Line
	9550 4500 6250 4500
Wire Wire Line
	6250 4500 6250 4650
Text HLabel 10700 4500 2    60   Input ~ 0
U600-60
Wire Wire Line
	10450 4500 10700 4500
Text Label 10700 4500 2    60   ~ 0
CRUCLK
$Comp
L 74LS32 U605
U 2 1 56114243
P 7400 3800
F 0 "U605" H 7400 3850 60  0000 C CNN
F 1 "74LS32" H 7400 3750 60  0000 C CNN
F 2 "Sockets_DIP:DIP-14__300" H 7400 3800 60  0001 C CNN
F 3 "" H 7400 3800 60  0000 C CNN
	2    7400 3800
	-1   0    0    1   
$EndComp
Text HLabel 8300 3700 2    60   Input ~ 0
U600-7
Text HLabel 8300 3900 2    60   Input ~ 0
U600-5
Wire Wire Line
	8000 3700 8300 3700
Wire Wire Line
	8300 3900 8000 3900
Text Label 8250 3900 2    60   ~ 0
HOLDA
Text Label 8250 3700 2    60   ~ 0
IAQ
Text Label 3300 3500 0    60   ~ 0
SNDIN
Text Label 8550 1200 2    60   ~ 0
~RESET
$Comp
L 74LS04 U508
U 3 1 561B7B6E
P 6850 1200
F 0 "U508" H 7045 1315 60  0000 C CNN
F 1 "74LS04" H 7040 1075 60  0000 C CNN
F 2 "Sockets_DIP:DIP-14__300" H 6850 1200 60  0001 C CNN
F 3 "" H 6850 1200 60  0000 C CNN
	3    6850 1200
	-1   0    0    1   
$EndComp
$Comp
L 74LS04 U508
U 2 1 561B7BC3
P 7750 1200
F 0 "U508" H 7945 1315 60  0000 C CNN
F 1 "74LS04" H 7940 1075 60  0000 C CNN
F 2 "Sockets_DIP:DIP-14__300" H 7750 1200 60  0001 C CNN
F 3 "" H 7750 1200 60  0000 C CNN
	2    7750 1200
	-1   0    0    1   
$EndComp
Text HLabel 8600 1200 2    60   Output ~ 0
U601-4
Wire Wire Line
	8200 1200 8600 1200
Text Label 1600 800  0    60   ~ 0
~EXTINT
Text HLabel 6600 2200 2    60   Output ~ 0
U503-3
Text HLabel 6600 2300 2    60   Output ~ 0
U503-5
Text HLabel 6600 2400 2    60   Output ~ 0
U503-7
Entry Wire Line
	5700 2100 5800 2200
Entry Wire Line
	5700 2200 5800 2300
Entry Wire Line
	5700 2300 5800 2400
Wire Wire Line
	5800 2200 6600 2200
Wire Wire Line
	5800 2300 6600 2300
Wire Wire Line
	5800 2400 6600 2400
Text Label 6550 2200 2    60   ~ 0
IO_A5
Text Label 6550 2300 2    60   ~ 0
IO_A4
Text Label 6550 2400 2    60   ~ 0
IO_A3
Connection ~ 4950 2500
Wire Wire Line
	5450 2000 5550 2000
Wire Wire Line
	5550 2000 5550 1950
Entry Wire Line
	5700 2000 5800 2100
Text HLabel 6600 2100 2    60   Output ~ 0
U509-13
Wire Wire Line
	6600 2100 5800 2100
Text Label 6550 2100 2    60   ~ 0
IO_A14
$EndSCHEMATC
