EESchema Schematic File Version 2
EELAYER 25 0
EELAYER END
$Descr A4 11693 8268
encoding utf-8
Sheet 4 10
Title "TI-99/4A"
Date "2015-09-28"
Rev "1"
Comp "HackMac"
Comment1 "GROM with Logic"
Comment2 ""
Comment3 ""
Comment4 ""
$EndDescr
Text HLabel 8250 4600 2    60   Output ~ 0
U500-15
$Comp
L +5V #PWR053
U 1 1 5607A11C
P 3600 5050
F 0 "#PWR053" H 3600 4900 50  0001 C CNN
F 1 "+5V" H 3600 5190 50  0000 C CNN
F 2 "" H 3600 5050 60  0000 C CNN
F 3 "" H 3600 5050 60  0000 C CNN
	1    3600 5050
	1    0    0    -1  
$EndComp
$Comp
L 74LS03 U506
U 1 1 5621FF90
P 2900 5450
F 0 "U506" H 2900 5500 60  0000 C CNN
F 1 "74LS03" H 2900 5400 60  0000 C CNN
F 2 "Sockets_DIP:DIP-14__300" H 2900 5450 60  0001 C CNN
F 3 "" H 2900 5450 60  0000 C CNN
	1    2900 5450
	1    0    0    -1  
$EndComp
Wire Wire Line
	3500 5450 4350 5450
Connection ~ 3600 5450
Wire Wire Line
	3600 5350 3600 5450
$Comp
L R R508
U 1 1 5607A0AA
P 3600 5200
F 0 "R508" V 3600 5200 50  0000 C CNN
F 1 "4.7k" V 3500 5200 50  0000 C CNN
F 2 "Resistors_ThroughHole:Resistor_Horizontal_RM10mm" V 3530 5200 30  0001 C CNN
F 3 "" H 3600 5200 30  0000 C CNN
	1    3600 5200
	1    0    0    -1  
$EndComp
Text HLabel 1350 5550 0    60   Input ~ 0
U505-11
Wire Wire Line
	1350 5550 2300 5550
Text HLabel 4350 5450 2    60   Output ~ 0
U506-3
Text Label 3700 5450 0    60   ~ 0
READY/~HOLD
Wire Wire Line
	2300 5350 2300 5150
$Comp
L TMC0430 U500
U 1 1 5606CD56
P 4350 3050
F 0 "U500" H 4750 4100 60  0000 C CNN
F 1 "TMC0430" V 4350 3050 60  0000 C CNN
F 2 "Sockets_DIP:DIP-16__300" H 4350 3050 60  0001 C CNN
F 3 "" H 4350 3050 60  0000 C CNN
	1    4350 3050
	1    0    0    -1  
$EndComp
$Comp
L TMC0430 U501
U 1 1 5606CD82
P 6150 3050
F 0 "U501" H 6550 4100 60  0000 C CNN
F 1 "TMC0430" V 6150 3050 60  0000 C CNN
F 2 "Sockets_DIP:DIP-16__300" H 6150 3050 60  0001 C CNN
F 3 "" H 6150 3050 60  0000 C CNN
	1    6150 3050
	1    0    0    -1  
$EndComp
$Comp
L TMC0430 U502
U 1 1 5606CDB2
P 7950 3050
F 0 "U502" H 8350 4100 60  0000 C CNN
F 1 "TMC0430" V 7950 3050 60  0000 C CNN
F 2 "Sockets_DIP:DIP-16__300" H 7950 3050 60  0001 C CNN
F 3 "" H 7950 3050 60  0000 C CNN
	1    7950 3050
	1    0    0    -1  
$EndComp
Wire Bus Line
	3450 1450 3450 2850
Wire Bus Line
	3450 1450 8850 1450
Wire Bus Line
	7050 1450 7050 2850
Wire Bus Line
	5250 1450 5250 2850
Entry Wire Line
	7050 2250 7150 2350
Entry Wire Line
	7050 2150 7150 2250
Entry Wire Line
	7050 2350 7150 2450
Entry Wire Line
	7050 2450 7150 2550
Entry Wire Line
	7050 2550 7150 2650
Entry Wire Line
	7050 2650 7150 2750
Entry Wire Line
	7050 2750 7150 2850
Entry Wire Line
	7050 2850 7150 2950
Entry Wire Line
	5250 2850 5350 2950
Entry Wire Line
	5250 2750 5350 2850
Entry Wire Line
	5250 2650 5350 2750
Entry Wire Line
	5250 2550 5350 2650
Entry Wire Line
	5250 2450 5350 2550
Entry Wire Line
	5250 2350 5350 2450
Entry Wire Line
	5250 2250 5350 2350
Entry Wire Line
	5250 2150 5350 2250
Entry Wire Line
	3450 2850 3550 2950
Entry Wire Line
	3450 2750 3550 2850
Entry Wire Line
	3450 2650 3550 2750
Entry Wire Line
	3450 2550 3550 2650
Entry Wire Line
	3450 2450 3550 2550
Entry Wire Line
	3450 2350 3550 2450
Entry Wire Line
	3450 2250 3550 2350
Entry Wire Line
	3450 2150 3550 2250
Wire Wire Line
	3550 2250 3650 2250
Wire Wire Line
	3550 2350 3650 2350
Wire Wire Line
	3550 2450 3650 2450
Wire Wire Line
	3550 2550 3650 2550
Wire Wire Line
	3550 2650 3650 2650
Wire Wire Line
	3650 2750 3550 2750
Wire Wire Line
	3550 2850 3650 2850
Wire Wire Line
	3550 2950 3650 2950
Wire Wire Line
	5350 2250 5450 2250
Wire Wire Line
	5350 2350 5450 2350
Wire Wire Line
	5350 2450 5450 2450
Wire Wire Line
	5350 2550 5450 2550
Wire Wire Line
	5350 2650 5450 2650
Wire Wire Line
	5350 2750 5450 2750
Wire Wire Line
	5350 2850 5450 2850
Wire Wire Line
	5350 2950 5450 2950
Wire Wire Line
	7150 2250 7250 2250
Wire Wire Line
	7150 2350 7250 2350
Wire Wire Line
	7150 2450 7250 2450
Wire Wire Line
	7150 2550 7250 2550
Wire Wire Line
	7150 2650 7250 2650
Wire Wire Line
	7150 2750 7250 2750
Wire Wire Line
	7150 2850 7250 2850
Wire Wire Line
	7150 2950 7250 2950
Entry Wire Line
	3350 2250 3450 2150
Entry Wire Line
	3350 2350 3450 2250
Entry Wire Line
	3350 2450 3450 2350
Entry Wire Line
	3350 2550 3450 2450
Entry Wire Line
	3350 2650 3450 2550
Entry Wire Line
	3350 2750 3450 2650
Entry Wire Line
	3350 2850 3450 2750
Entry Wire Line
	3350 2950 3450 2850
Text HLabel 3050 2250 0    60   BiDi ~ 0
MUX_D0
Text HLabel 3050 2350 0    60   BiDi ~ 0
MUX_D1
Text HLabel 3050 2450 0    60   BiDi ~ 0
MUX_D2
Text HLabel 3050 2550 0    60   BiDi ~ 0
MUX_D3
Text HLabel 3050 2650 0    60   BiDi ~ 0
MUX_D4
Text HLabel 3050 2750 0    60   BiDi ~ 0
MUX_D5
Text HLabel 3050 2850 0    60   BiDi ~ 0
MUX_D6
Text HLabel 3050 2950 0    60   BiDi ~ 0
MUX_D7
Wire Wire Line
	3050 2250 3350 2250
Wire Wire Line
	3050 2350 3350 2350
Wire Wire Line
	3050 2450 3350 2450
Wire Wire Line
	3050 2550 3350 2550
Wire Wire Line
	3050 2650 3350 2650
Wire Wire Line
	3050 2750 3350 2750
Wire Wire Line
	3050 2850 3350 2850
Wire Wire Line
	3050 2950 3350 2950
Text Label 3150 2250 0    60   ~ 0
D0
Text Label 3150 2350 0    60   ~ 0
D1
Text Label 3150 2450 0    60   ~ 0
D2
Text Label 3150 2550 0    60   ~ 0
D3
Text Label 3150 2650 0    60   ~ 0
D4
Text Label 3150 2750 0    60   ~ 0
D5
Text Label 3150 2850 0    60   ~ 0
D6
Text Label 3150 2950 0    60   ~ 0
D7
Text Label 3550 2250 0    60   ~ 0
D0
Text Label 3550 2350 0    60   ~ 0
D1
Text Label 3550 2450 0    60   ~ 0
D2
Text Label 3550 2550 0    60   ~ 0
D3
Text Label 3550 2650 0    60   ~ 0
D4
Text Label 3550 2750 0    60   ~ 0
D5
Text Label 3550 2850 0    60   ~ 0
D6
Text Label 3550 2950 0    60   ~ 0
D7
Text Label 5350 2250 0    60   ~ 0
D0
Text Label 5350 2350 0    60   ~ 0
D1
Text Label 5350 2450 0    60   ~ 0
D2
Text Label 5350 2550 0    60   ~ 0
D3
Text Label 5350 2650 0    60   ~ 0
D4
Text Label 5350 2750 0    60   ~ 0
D5
Text Label 5350 2850 0    60   ~ 0
D6
Text Label 5350 2950 0    60   ~ 0
D7
Text Label 7150 2250 0    60   ~ 0
D0
Text Label 7150 2350 0    60   ~ 0
D1
Text Label 7150 2450 0    60   ~ 0
D2
Text Label 7150 2550 0    60   ~ 0
D3
Text Label 7150 2650 0    60   ~ 0
D4
Text Label 7150 2750 0    60   ~ 0
D5
Text Label 7150 2850 0    60   ~ 0
D6
Text Label 7150 2950 0    60   ~ 0
D7
$Comp
L +5V #PWR054
U 1 1 5606DE5A
P 4150 1850
F 0 "#PWR054" H 4150 1700 50  0001 C CNN
F 1 "+5V" H 4150 1990 50  0000 C CNN
F 2 "" H 4150 1850 60  0000 C CNN
F 3 "" H 4150 1850 60  0000 C CNN
	1    4150 1850
	1    0    0    -1  
$EndComp
$Comp
L +5V #PWR055
U 1 1 5606DE78
P 5950 1850
F 0 "#PWR055" H 5950 1700 50  0001 C CNN
F 1 "+5V" H 5950 1990 50  0000 C CNN
F 2 "" H 5950 1850 60  0000 C CNN
F 3 "" H 5950 1850 60  0000 C CNN
	1    5950 1850
	1    0    0    -1  
$EndComp
$Comp
L +5V #PWR056
U 1 1 5606DE94
P 7750 1850
F 0 "#PWR056" H 7750 1700 50  0001 C CNN
F 1 "+5V" H 7750 1990 50  0000 C CNN
F 2 "" H 7750 1850 60  0000 C CNN
F 3 "" H 7750 1850 60  0000 C CNN
	1    7750 1850
	1    0    0    -1  
$EndComp
$Comp
L -5V #PWR057
U 1 1 5606E0E2
P 4150 4250
F 0 "#PWR057" H 4150 4350 50  0001 C CNN
F 1 "-5V" H 4150 4400 50  0000 C CNN
F 2 "" H 4150 4250 60  0000 C CNN
F 3 "" H 4150 4250 60  0000 C CNN
	1    4150 4250
	-1   0    0    1   
$EndComp
$Comp
L -5V #PWR058
U 1 1 5606E100
P 5950 4250
F 0 "#PWR058" H 5950 4350 50  0001 C CNN
F 1 "-5V" H 5950 4400 50  0000 C CNN
F 2 "" H 5950 4250 60  0000 C CNN
F 3 "" H 5950 4250 60  0000 C CNN
	1    5950 4250
	-1   0    0    1   
$EndComp
$Comp
L -5V #PWR059
U 1 1 5606E11C
P 7750 4250
F 0 "#PWR059" H 7750 4350 50  0001 C CNN
F 1 "-5V" H 7750 4400 50  0000 C CNN
F 2 "" H 7750 4250 60  0000 C CNN
F 3 "" H 7750 4250 60  0000 C CNN
	1    7750 4250
	-1   0    0    1   
$EndComp
Wire Wire Line
	2300 3450 3650 3450
Wire Wire Line
	2300 4250 2300 3450
$Comp
L R R501
U 1 1 5606EDB1
P 5900 5000
F 0 "R501" V 5900 5000 50  0000 C CNN
F 1 "270" V 5800 5000 50  0000 C CNN
F 2 "Resistors_ThroughHole:Resistor_Horizontal_RM10mm" V 5830 5000 30  0001 C CNN
F 3 "" H 5900 5000 30  0000 C CNN
	1    5900 5000
	1    0    0    -1  
$EndComp
$Comp
L D CR500
U 1 1 5606EE61
P 6100 5000
F 0 "CR500" H 6100 5100 50  0000 C CNN
F 1 "PG1992" H 6100 4900 50  0000 C CNN
F 2 "" H 6100 5000 60  0001 C CNN
F 3 "" H 6100 5000 60  0000 C CNN
	1    6100 5000
	0    1    1    0   
$EndComp
$Comp
L CP1 C505
U 1 1 5606EECE
P 6350 5000
F 0 "C505" H 6375 5100 50  0000 L CNN
F 1 ".1" H 6375 4900 50  0000 L CNN
F 2 "" H 6350 5000 60  0001 C CNN
F 3 "" H 6350 5000 60  0000 C CNN
	1    6350 5000
	1    0    0    -1  
$EndComp
Wire Wire Line
	5900 4850 6350 4850
Connection ~ 6100 4850
Wire Wire Line
	6100 4250 6100 4850
Wire Wire Line
	7900 4450 7900 4250
Wire Wire Line
	4300 4450 8250 4450
Connection ~ 6100 4450
Wire Wire Line
	4300 4250 4300 4450
Wire Wire Line
	6100 5150 6350 5150
$Comp
L GND #PWR060
U 1 1 5606F2B3
P 6350 5150
F 0 "#PWR060" H 6350 4900 50  0001 C CNN
F 1 "GND" H 6350 5000 50  0000 C CNN
F 2 "" H 6350 5150 60  0000 C CNN
F 3 "" H 6350 5150 60  0000 C CNN
	1    6350 5150
	1    0    0    -1  
$EndComp
$Comp
L -5V #PWR061
U 1 1 5606F2E2
P 5900 5150
F 0 "#PWR061" H 5900 5250 50  0001 C CNN
F 1 "-5V" H 5900 5300 50  0000 C CNN
F 2 "" H 5900 5150 60  0000 C CNN
F 3 "" H 5900 5150 60  0000 C CNN
	1    5900 5150
	-1   0    0    1   
$EndComp
Connection ~ 6350 5150
Wire Wire Line
	3500 3450 3500 4600
Wire Wire Line
	3500 4600 8250 4600
Wire Wire Line
	5300 4600 5300 3450
Wire Wire Line
	5300 3450 5450 3450
Connection ~ 3500 3450
Wire Wire Line
	3050 3650 3650 3650
Wire Wire Line
	3550 3650 3550 4650
Wire Wire Line
	3550 4650 7150 4650
Wire Wire Line
	7150 4650 7150 3650
Wire Wire Line
	7150 3650 7250 3650
Wire Wire Line
	7100 4600 7100 3450
Wire Wire Line
	7100 3450 7250 3450
Connection ~ 5300 4600
Wire Wire Line
	5450 3650 5350 3650
Wire Wire Line
	5350 3650 5350 4650
Connection ~ 5350 4650
Wire Wire Line
	1900 3850 3650 3850
Wire Wire Line
	3600 3850 3600 4700
Wire Wire Line
	3600 4700 8250 4700
Wire Wire Line
	7200 4700 7200 3850
Wire Wire Line
	7200 3850 7250 3850
Wire Wire Line
	5450 3850 5400 3850
Wire Wire Line
	5400 3850 5400 4700
Connection ~ 5400 4700
Wire Wire Line
	7250 3250 7050 3250
Wire Wire Line
	7050 3250 7050 4550
Wire Wire Line
	7050 4550 3450 4550
Wire Wire Line
	3450 4550 3450 3250
Wire Wire Line
	3050 3250 3650 3250
Wire Wire Line
	5450 3250 5250 3250
Wire Wire Line
	5250 3250 5250 4550
Connection ~ 5250 4550
Wire Wire Line
	7250 3150 7000 3150
Wire Wire Line
	7000 3150 7000 4500
Wire Wire Line
	7000 4500 3400 4500
Wire Wire Line
	3400 4500 3400 3150
Wire Wire Line
	3050 3150 3650 3150
Wire Wire Line
	5450 3150 5200 3150
Wire Wire Line
	5200 3150 5200 4500
Connection ~ 5200 4500
$Comp
L CP1 C507
U 1 1 5606FE67
P 4300 1850
F 0 "C507" H 4325 1950 50  0000 L CNN
F 1 ".01" H 4325 1750 50  0000 L CNN
F 2 "" H 4300 1850 60  0001 C CNN
F 3 "" H 4300 1850 60  0000 C CNN
	1    4300 1850
	0    -1   -1   0   
$EndComp
$Comp
L GND #PWR062
U 1 1 5606FEB2
P 4450 1850
F 0 "#PWR062" H 4450 1600 50  0001 C CNN
F 1 "GND" H 4450 1700 50  0000 C CNN
F 2 "" H 4450 1850 60  0000 C CNN
F 3 "" H 4450 1850 60  0000 C CNN
	1    4450 1850
	0    -1   -1   0   
$EndComp
Text HLabel 3050 3150 0    60   Input ~ 0
U602-10
Connection ~ 3400 3150
Text HLabel 3050 3250 0    60   Input ~ 0
U509-13
Text HLabel 3050 3650 0    60   Input ~ 0
U100-37
Connection ~ 3450 3250
Connection ~ 3550 3650
Connection ~ 3600 3850
Text HLabel 8250 4450 2    60   Output ~ 0
U500-16
Connection ~ 7900 4450
$Comp
L 74LS04 U508
U 1 1 5607D99C
P 2300 4700
F 0 "U508" H 2495 4815 60  0000 C CNN
F 1 "74LS04" H 2490 4575 60  0000 C CNN
F 2 "Sockets_DIP:DIP-14__300" H 2300 4700 60  0001 C CNN
F 3 "" H 2300 4700 60  0000 C CNN
	1    2300 4700
	0    1    1    0   
$EndComp
Text Label 1400 5550 0    60   ~ 0
GBE
$Comp
L 74LS04 U508
U 6 1 5619AC89
P 1900 4750
F 0 "U508" H 2095 4865 60  0000 C CNN
F 1 "74LS04" H 2090 4625 60  0000 C CNN
F 2 "Sockets_DIP:DIP-14__300" H 1900 4750 60  0001 C CNN
F 3 "" H 1900 4750 60  0000 C CNN
	6    1900 4750
	0    -1   -1   0   
$EndComp
Wire Wire Line
	1900 3850 1900 4300
Wire Wire Line
	1900 5200 1900 5550
Connection ~ 1900 5550
Text HLabel 8250 4700 2    60   Output ~ 0
U508-12
Connection ~ 7200 4700
Connection ~ 7100 4600
Text Label 8200 4450 2    60   ~ 0
Vss
Text Label 8200 4600 2    60   ~ 0
GREADY
Text Label 8200 4700 2    60   ~ 0
~GS
Text Label 3150 3250 0    60   ~ 0
A14
Text Label 3150 3650 0    60   ~ 0
SGCCLK
$Comp
L RESISTOR-8xArrayBussed_SIL_EN60617-4_Derived04-01-01_Date20100615 R500
U 1 1 560F4C54
P 9400 2450
F 0 "R500" V 10350 2250 30  0000 L CNN
F 1 "1.5k" V 10350 2650 30  0000 R CNN
F 2 "Resistors_ThroughHole:Resistor_Array_SIP8" H 9400 2450 60  0001 C CNN
F 3 "" H 9400 2450 60  0000 C CNN
	1    9400 2450
	0    1    -1   0   
$EndComp
Wire Bus Line
	8850 1450 8850 2950
Entry Wire Line
	8850 1550 8950 1650
Entry Wire Line
	8850 1750 8950 1850
Entry Wire Line
	8850 1950 8950 2050
Entry Wire Line
	8850 2150 8950 2250
Entry Wire Line
	8850 2350 8950 2450
Entry Wire Line
	8850 2550 8950 2650
Entry Wire Line
	8850 2750 8950 2850
Entry Wire Line
	8850 2950 8950 3050
Wire Wire Line
	8950 1650 9150 1650
Wire Wire Line
	8950 1850 9150 1850
Wire Wire Line
	8950 2050 9150 2050
Wire Wire Line
	8950 2250 9150 2250
Wire Wire Line
	8950 2450 9150 2450
Wire Wire Line
	8950 2650 9150 2650
Wire Wire Line
	8950 2850 9150 2850
Wire Wire Line
	8950 3050 9150 3050
Text Label 9000 1650 0    60   ~ 0
D0
Text Label 9000 1850 0    60   ~ 0
D1
Text Label 9000 2050 0    60   ~ 0
D2
Text Label 9000 2250 0    60   ~ 0
D3
Text Label 9000 2450 0    60   ~ 0
D4
Text Label 9000 2650 0    60   ~ 0
D5
Text Label 9000 2850 0    60   ~ 0
D6
Text Label 9000 3050 0    60   ~ 0
D7
$Comp
L +12V #PWR063
U 1 1 560F5C8A
P 8650 3150
F 0 "#PWR063" H 8650 3000 50  0001 C CNN
F 1 "+12V" H 8650 3290 50  0000 C CNN
F 2 "" H 8650 3150 60  0000 C CNN
F 3 "" H 8650 3150 60  0000 C CNN
	1    8650 3150
	1    0    0    -1  
$EndComp
$Comp
L R_Small R522
U 1 1 560F5CC2
P 8850 3250
F 0 "R522" V 8800 3250 50  0000 C BNN
F 1 "360" V 8950 3250 50  0000 C BNN
F 2 "Resistors_ThroughHole:Resistor_Horizontal_RM10mm" H 8850 3250 60  0001 C CNN
F 3 "" H 8850 3250 60  0000 C CNN
	1    8850 3250
	0    1    1    0   
$EndComp
Wire Wire Line
	8650 3150 8650 3250
Wire Wire Line
	8650 3250 8750 3250
Wire Wire Line
	8950 3250 9150 3250
Wire Wire Line
	9050 3250 9050 3900
Connection ~ 9050 3250
$Comp
L S8050 Q500
U 1 1 560F6AF6
P 9150 4100
F 0 "Q500" H 9350 4175 50  0000 L CNN
F 1 "TIS92" H 9350 4100 50  0000 L CNN
F 2 "Housings_TO-92:TO-92_Inline_Narrow_Oval" H 9350 4025 50  0001 L CIN
F 3 "" H 9150 4100 50  0000 L CNN
	1    9150 4100
	-1   0    0    -1  
$EndComp
Text HLabel 10650 4100 2    60   Input ~ 0
U602-2
$Comp
L 74LS04 U604
U 4 1 560F6C6E
P 10100 4100
F 0 "U604" H 10295 4215 60  0000 C CNN
F 1 "74LS04" H 10290 3975 60  0000 C CNN
F 2 "Sockets_DIP:DIP-14__300" H 10100 4100 60  0001 C CNN
F 3 "" H 10100 4100 60  0000 C CNN
	4    10100 4100
	-1   0    0    1   
$EndComp
$Comp
L R_Small R519
U 1 1 560F6D0E
P 9500 4100
F 0 "R519" V 9450 4100 50  0000 C BNN
F 1 "5.6k" V 9550 4100 50  0000 C TNN
F 2 "Resistors_ThroughHole:Resistor_Horizontal_RM10mm" H 9500 4100 60  0001 C CNN
F 3 "" H 9500 4100 60  0000 C CNN
	1    9500 4100
	0    1    1    0   
$EndComp
Wire Wire Line
	9600 4100 9650 4100
Wire Wire Line
	9350 4100 9400 4100
Wire Wire Line
	10550 4100 10650 4100
Text Label 10650 4100 2    60   ~ 0
~DBIN
$Comp
L GND #PWR064
U 1 1 560F79BA
P 9050 4250
F 0 "#PWR064" H 9050 4000 50  0001 C CNN
F 1 "GND" H 9050 4100 50  0000 C CNN
F 2 "" H 9050 4250 60  0000 C CNN
F 3 "" H 9050 4250 60  0000 C CNN
	1    9050 4250
	1    0    0    -1  
$EndComp
Wire Wire Line
	9050 4300 9050 4400
$Comp
L D D502
U 1 1 560F7F8C
P 10150 3450
F 0 "D502" H 10150 3550 50  0000 C CNN
F 1 "1N914B" H 10150 3350 50  0000 C CNN
F 2 "Diodes_ThroughHole:Diode_DO-35_SOD27_Horizontal_RM10" H 10150 3450 60  0001 C CNN
F 3 "" H 10150 3450 60  0000 C CNN
	1    10150 3450
	-1   0    0    1   
$EndComp
Wire Wire Line
	10000 3450 9050 3450
Connection ~ 9050 3450
$Comp
L R_Small R521
U 1 1 560F86A7
P 10400 3600
F 0 "R521" H 10430 3620 50  0000 L CNN
F 1 "150" H 10430 3560 50  0000 L CNN
F 2 "Resistors_ThroughHole:Resistor_Horizontal_RM10mm" H 10400 3600 60  0001 C CNN
F 3 "" H 10400 3600 60  0000 C CNN
	1    10400 3600
	1    0    0    -1  
$EndComp
$Comp
L GND #PWR065
U 1 1 560F86F4
P 10400 3750
F 0 "#PWR065" H 10400 3500 50  0001 C CNN
F 1 "GND" H 10400 3600 50  0000 C CNN
F 2 "" H 10400 3750 60  0000 C CNN
F 3 "" H 10400 3750 60  0000 C CNN
	1    10400 3750
	1    0    0    -1  
$EndComp
Wire Wire Line
	10400 3700 10400 3750
$Comp
L R_Small R520
U 1 1 560F8D4E
P 10400 3300
F 0 "R520" H 10430 3320 50  0000 L CNN
F 1 "10" H 10430 3260 50  0000 L CNN
F 2 "Resistors_ThroughHole:Resistor_Horizontal_RM10mm" H 10400 3300 60  0001 C CNN
F 3 "" H 10400 3300 60  0000 C CNN
	1    10400 3300
	1    0    0    -1  
$EndComp
Wire Wire Line
	10400 3400 10400 3500
Wire Wire Line
	10300 3450 10400 3450
Connection ~ 10400 3450
$Comp
L D D501
U 1 1 560F8F75
P 10400 3000
F 0 "D501" V 10400 2950 50  0000 R TNN
F 1 "1N914B" V 10400 2950 50  0000 R BNN
F 2 "Diodes_ThroughHole:Diode_DO-35_SOD27_Horizontal_RM10" H 10400 3000 60  0001 C CNN
F 3 "" H 10400 3000 60  0000 C CNN
	1    10400 3000
	0    -1   -1   0   
$EndComp
$Comp
L +5V #PWR066
U 1 1 560F8FD2
P 10400 2800
F 0 "#PWR066" H 10400 2650 50  0001 C CNN
F 1 "+5V" H 10400 2940 50  0000 C CNN
F 2 "" H 10400 2800 60  0000 C CNN
F 3 "" H 10400 2800 60  0000 C CNN
	1    10400 2800
	1    0    0    -1  
$EndComp
Wire Wire Line
	10400 2800 10400 2850
Wire Wire Line
	10400 3150 10400 3200
$EndSCHEMATC
