EESchema Schematic File Version 2
EELAYER 25 0
EELAYER END
$Descr A4 11693 8268
encoding utf-8
Sheet 10 10
Title "TI-99/4A"
Date "2015-09-28"
Rev "1"
Comp "HackMac"
Comment1 "Schematic for Keyboard, Joystick and Cassette port."
Comment2 ""
Comment3 ""
Comment4 ""
$EndDescr
$Comp
L TMS9901 U300
U 1 1 56153D48
P 2750 3400
F 0 "U300" H 3200 4550 60  0000 R CNN
F 1 "TMS9901" V 2750 3400 60  0000 C CNN
F 2 "" H 2750 3400 60  0000 C CNN
F 3 "" H 2750 3400 60  0000 C CNN
	1    2750 3400
	1    0    0    -1  
$EndComp
Text HLabel 1200 4350 0    60   Input ~ 0
U601-4
Text Label 1250 4350 0    60   ~ 0
~RESET
Text HLabel 1200 4200 0    60   Input ~ 0
U507-11
Text HLabel 1200 4500 0    60   Input ~ 0
U601-7
Text Label 1250 4500 0    60   ~ 0
~Ø3
Text Label 1250 4200 0    60   ~ 0
RAMBLK
Text HLabel 1200 3750 0    60   Input ~ 0
U600-30
Text HLabel 1200 3850 0    60   Input ~ 0
U600-60
Text HLabel 1200 3950 0    60   Output ~ 0
U600-31
Text Label 1250 3750 0    60   ~ 0
CRUOUT
Text Label 1250 3850 0    60   ~ 0
CRUCLK
Text Label 1250 3950 0    60   ~ 0
CRUIN
Text HLabel 1200 3200 0    60   Input ~ 0
U600-14
Text HLabel 1200 3300 0    60   Input ~ 0
U600-13
Text HLabel 1200 3400 0    60   Input ~ 0
U600-12
Text HLabel 1200 3500 0    60   Input ~ 0
U600-11
Text HLabel 1200 3600 0    60   Input ~ 0
U600-10
Text Label 1250 3200 0    60   ~ 0
A10
Text Label 1250 3300 0    60   ~ 0
A11
Text Label 1250 3400 0    60   ~ 0
A12
Text Label 1250 3500 0    60   ~ 0
A13
Text Label 1250 3600 0    60   ~ 0
A14
Text HLabel 1200 2500 0    60   Output ~ 0
U600-32
Text Label 1250 2500 0    60   ~ 0
~INTREQ
Text HLabel 1200 2050 0    60   Input ~ 0
U300-18
Text HLabel 1200 2150 0    60   Input ~ 0
U300-17
Text Label 1250 2150 0    60   ~ 0
~EXTINT
Text Label 1250 2050 0    60   ~ 0
~VDPINT
$Comp
L R R319
U 1 1 56189231
P 3500 1900
F 0 "R319" V 3580 1900 50  0000 C CNN
F 1 "10k" V 3500 1900 50  0000 C CNN
F 2 "" V 3430 1900 30  0000 C CNN
F 3 "" H 3500 1900 30  0000 C CNN
	1    3500 1900
	1    0    0    -1  
$EndComp
$Comp
L +5V #PWR099
U 1 1 5618931B
P 3500 1650
F 0 "#PWR099" H 3500 1500 50  0001 C CNN
F 1 "+5V" H 3500 1790 50  0000 C CNN
F 2 "" H 3500 1650 60  0000 C CNN
F 3 "" H 3500 1650 60  0000 C CNN
	1    3500 1650
	1    0    0    -1  
$EndComp
$Comp
L CP1_Small C300
U 1 1 5618980C
P 2900 1800
F 0 "C300" H 2910 1870 50  0000 L CNN
F 1 "0.01µ" H 2910 1720 50  0000 L CNN
F 2 "" H 2900 1800 60  0000 C CNN
F 3 "" H 2900 1800 60  0000 C CNN
	1    2900 1800
	0    -1   -1   0   
$EndComp
$Comp
L GND #PWR0100
U 1 1 56189846
P 3050 1850
F 0 "#PWR0100" H 3050 1600 50  0001 C CNN
F 1 "GND" H 3050 1700 50  0000 C CNN
F 2 "" H 3050 1850 60  0000 C CNN
F 3 "" H 3050 1850 60  0000 C CNN
	1    3050 1850
	1    0    0    -1  
$EndComp
$Comp
L +5V #PWR0101
U 1 1 561898AB
P 2750 1650
F 0 "#PWR0101" H 2750 1500 50  0001 C CNN
F 1 "+5V" H 2750 1790 50  0000 C CNN
F 2 "" H 2750 1650 60  0000 C CNN
F 3 "" H 2750 1650 60  0000 C CNN
	1    2750 1650
	1    0    0    -1  
$EndComp
$Comp
L 74LS156 U301
U 1 1 5618A2B9
P 4550 5900
F 0 "U301" H 4500 6050 60  0000 C CNN
F 1 "74LS156" H 4550 5800 60  0000 C CNN
F 2 "" H 4550 5900 60  0000 C CNN
F 3 "" H 4550 5900 60  0000 C CNN
	1    4550 5900
	1    0    0    -1  
$EndComp
$Comp
L GND #PWR0102
U 1 1 5618A49B
P 3750 6450
F 0 "#PWR0102" H 3750 6200 50  0001 C CNN
F 1 "GND" H 3750 6300 50  0000 C CNN
F 2 "" H 3750 6450 60  0000 C CNN
F 3 "" H 3750 6450 60  0000 C CNN
	1    3750 6450
	1    0    0    -1  
$EndComp
$Comp
L CP1_Small C301
U 1 1 5618A99A
P 4400 5250
F 0 "C301" H 4410 5320 50  0000 L CNN
F 1 "0.01µ" H 4410 5170 50  0000 L CNN
F 2 "" H 4400 5250 60  0000 C CNN
F 3 "" H 4400 5250 60  0000 C CNN
	1    4400 5250
	0    -1   -1   0   
$EndComp
$Comp
L +5V #PWR0103
U 1 1 5618A9E3
P 4200 5200
F 0 "#PWR0103" H 4200 5050 50  0001 C CNN
F 1 "+5V" H 4200 5340 50  0000 C CNN
F 2 "" H 4200 5200 60  0000 C CNN
F 3 "" H 4200 5200 60  0000 C CNN
	1    4200 5200
	1    0    0    -1  
$EndComp
$Comp
L GND #PWR0104
U 1 1 5618AA21
P 4550 5250
F 0 "#PWR0104" H 4550 5000 50  0001 C CNN
F 1 "GND" H 4550 5100 50  0000 C CNN
F 2 "" H 4550 5250 60  0000 C CNN
F 3 "" H 4550 5250 60  0000 C CNN
	1    4550 5250
	1    0    0    -1  
$EndComp
$Comp
L R R309
U 1 1 5618C4E6
P 5300 6600
F 0 "R309" V 5350 6800 50  0000 C CNN
F 1 "1k" V 5300 6600 50  0000 C CNN
F 2 "" V 5230 6600 30  0000 C CNN
F 3 "" H 5300 6600 30  0000 C CNN
	1    5300 6600
	0    1    1    0   
$EndComp
$Comp
L R R330
U 1 1 5618C53E
P 5300 6750
F 0 "R330" V 5350 6950 50  0000 C CNN
F 1 "1K" V 5300 6750 50  0000 C CNN
F 2 "" V 5230 6750 30  0000 C CNN
F 3 "" H 5300 6750 30  0000 C CNN
	1    5300 6750
	0    1    1    0   
$EndComp
$Comp
L R R310
U 1 1 5618C561
P 5300 6900
F 0 "R310" V 5350 7100 50  0000 C CNN
F 1 "1k" V 5300 6900 50  0000 C CNN
F 2 "" V 5230 6900 30  0000 C CNN
F 3 "" H 5300 6900 30  0000 C CNN
	1    5300 6900
	0    1    1    0   
$EndComp
$Comp
L R R308
U 1 1 5618C585
P 5300 7050
F 0 "R308" V 5350 7250 50  0000 C CNN
F 1 "1k" V 5300 7050 50  0000 C CNN
F 2 "" V 5230 7050 30  0000 C CNN
F 3 "" H 5300 7050 30  0000 C CNN
	1    5300 7050
	0    1    1    0   
$EndComp
$Comp
L R R306
U 1 1 5618C5AA
P 5300 7200
F 0 "R306" V 5350 7400 50  0000 C CNN
F 1 "1k" V 5300 7200 50  0000 C CNN
F 2 "" V 5230 7200 30  0000 C CNN
F 3 "" H 5300 7200 30  0000 C CNN
	1    5300 7200
	0    1    1    0   
$EndComp
$Comp
L R R307
U 1 1 5618C5D0
P 5300 7350
F 0 "R307" V 5350 7550 50  0000 C CNN
F 1 "1k" V 5300 7350 50  0000 C CNN
F 2 "" V 5230 7350 30  0000 C CNN
F 3 "" H 5300 7350 30  0000 C CNN
	1    5300 7350
	0    1    1    0   
$EndComp
$Comp
L +5V #PWR0105
U 1 1 5618C6B5
P 5100 6550
F 0 "#PWR0105" H 5100 6400 50  0001 C CNN
F 1 "+5V" H 5100 6690 50  0000 C CNN
F 2 "" H 5100 6550 60  0000 C CNN
F 3 "" H 5100 6550 60  0000 C CNN
	1    5100 6550
	1    0    0    -1  
$EndComp
$Comp
L CP1_Small C302
U 1 1 5618DFE9
P 6300 6600
F 0 "C302" V 6300 6650 50  0000 L TNN
F 1 "0.001" V 6300 6550 50  0000 R TNN
F 2 "" H 6300 6600 60  0000 C CNN
F 3 "" H 6300 6600 60  0000 C CNN
	1    6300 6600
	0    -1   -1   0   
$EndComp
$Comp
L CP1_Small C331
U 1 1 5618E09F
P 6500 6750
F 0 "C331" V 6500 6800 50  0000 L TNN
F 1 "0.001" V 6500 6700 50  0000 R TNN
F 2 "" H 6500 6750 60  0000 C CNN
F 3 "" H 6500 6750 60  0000 C CNN
	1    6500 6750
	0    -1   -1   0   
$EndComp
$Comp
L CP1_Small C303
U 1 1 5618E0CD
P 6300 6900
F 0 "C303" V 6300 6950 50  0000 L TNN
F 1 "0.001" V 6300 6850 50  0000 R TNN
F 2 "" H 6300 6900 60  0000 C CNN
F 3 "" H 6300 6900 60  0000 C CNN
	1    6300 6900
	0    -1   -1   0   
$EndComp
$Comp
L CP1_Small C304
U 1 1 5618E101
P 6500 7050
F 0 "C304" V 6500 7100 50  0000 L TNN
F 1 "0.001" V 6500 7000 50  0000 R TNN
F 2 "" H 6500 7050 60  0000 C CNN
F 3 "" H 6500 7050 60  0000 C CNN
	1    6500 7050
	0    -1   -1   0   
$EndComp
$Comp
L CP1_Small C306
U 1 1 5618E136
P 6300 7200
F 0 "C306" V 6300 7250 50  0000 L TNN
F 1 "0.001" V 6300 7150 50  0000 R TNN
F 2 "" H 6300 7200 60  0000 C CNN
F 3 "" H 6300 7200 60  0000 C CNN
	1    6300 7200
	0    -1   -1   0   
$EndComp
$Comp
L CP1_Small C305
U 1 1 5618E16D
P 6500 7350
F 0 "C305" V 6500 7400 50  0000 L TNN
F 1 "0.001" V 6500 7300 50  0000 R TNN
F 2 "" H 6500 7350 60  0000 C CNN
F 3 "" H 6500 7350 60  0000 C CNN
	1    6500 7350
	0    -1   -1   0   
$EndComp
$Comp
L GND #PWR0106
U 1 1 5618E45F
P 6650 7450
F 0 "#PWR0106" H 6650 7200 50  0001 C CNN
F 1 "GND" H 6650 7300 50  0000 C CNN
F 2 "" H 6650 7450 60  0000 C CNN
F 3 "" H 6650 7450 60  0000 C CNN
	1    6650 7450
	1    0    0    -1  
$EndComp
$Comp
L L_Small L306
U 1 1 5619005F
P 6100 5500
F 0 "L306" V 6150 5400 50  0000 R CNN
F 1 "6.8µ" V 6050 5500 50  0000 C CNN
F 2 "" H 6100 5500 60  0000 C CNN
F 3 "" H 6100 5500 60  0000 C CNN
	1    6100 5500
	0    -1   -1   0   
$EndComp
$Comp
L L_Small L309
U 1 1 56190098
P 6600 5600
F 0 "L309" V 6650 5500 50  0000 R CNN
F 1 "6.8µ" V 6550 5600 50  0000 C CNN
F 2 "" H 6600 5600 60  0000 C CNN
F 3 "" H 6600 5600 60  0000 C CNN
	1    6600 5600
	0    -1   -1   0   
$EndComp
$Comp
L L_Small L310
U 1 1 561900DB
P 6100 6000
F 0 "L310" V 6150 5900 50  0000 R CNN
F 1 "6.8µ" V 6050 6000 50  0000 C CNN
F 2 "" H 6100 6000 60  0000 C CNN
F 3 "" H 6100 6000 60  0000 C CNN
	1    6100 6000
	0    -1   -1   0   
$EndComp
$Comp
L L_Small L311
U 1 1 56190122
P 6600 6100
F 0 "L311" V 6650 6000 50  0000 R CNN
F 1 "6.8µ" V 6550 6100 50  0000 C CNN
F 2 "" H 6600 6100 60  0000 C CNN
F 3 "" H 6600 6100 60  0000 C CNN
	1    6600 6100
	0    -1   -1   0   
$EndComp
$Comp
L L_Small L312
U 1 1 56190170
P 7100 6200
F 0 "L312" V 7150 6100 50  0000 R CNN
F 1 "6.8µ" V 7050 6200 50  0000 C CNN
F 2 "" H 7100 6200 60  0000 C CNN
F 3 "" H 7100 6200 60  0000 C CNN
	1    7100 6200
	0    -1   -1   0   
$EndComp
$Comp
L L_Small L313
U 1 1 561901B6
P 7600 6300
F 0 "L313" V 7650 6200 50  0000 R CNN
F 1 "6.8µ" V 7550 6300 50  0000 C CNN
F 2 "" H 7600 6300 60  0000 C CNN
F 3 "" H 7600 6300 60  0000 C CNN
	1    7600 6300
	0    -1   -1   0   
$EndComp
$Comp
L CONN_01X15 J100
U 1 1 5619179C
P 10500 5600
F 0 "J100" H 10500 6400 50  0000 C CNN
F 1 "CONN_01X15" V 10600 5600 50  0000 C CNN
F 2 "" H 10500 5600 60  0000 C CNN
F 3 "" H 10500 5600 60  0000 C CNN
	1    10500 5600
	1    0    0    -1  
$EndComp
$Comp
L DB9 J300
U 1 1 56193636
P 10500 4000
F 0 "J300" H 10500 4550 70  0000 C CNN
F 1 "DB9" H 10500 3450 70  0000 C CNN
F 2 "" H 10500 4000 60  0000 C CNN
F 3 "" H 10500 4000 60  0000 C CNN
	1    10500 4000
	1    0    0    -1  
$EndComp
$Comp
L S8050 Q301
U 1 1 56193B91
P 7950 4600
F 0 "Q301" H 8150 4675 50  0000 L CNN
F 1 "TIS92" H 8150 4600 50  0000 L CNN
F 2 "TO-92" H 8150 4525 50  0000 L CIN
F 3 "" H 7950 4600 50  0000 L CNN
	1    7950 4600
	1    0    0    -1  
$EndComp
$Comp
L S8050 Q300
U 1 1 56193BF9
P 6900 4600
F 0 "Q300" H 7100 4675 50  0000 L CNN
F 1 "TIS92" H 7100 4600 50  0000 L CNN
F 2 "TO-92" H 7100 4525 50  0000 L CIN
F 3 "" H 6900 4600 50  0000 L CNN
	1    6900 4600
	1    0    0    -1  
$EndComp
$Comp
L R_Small R324
U 1 1 56193DF9
P 8050 5000
F 0 "R324" H 8000 5050 50  0000 R CNN
F 1 "1.5k" H 8000 4950 50  0000 R CNN
F 2 "" H 8050 5000 60  0000 C CNN
F 3 "" H 8050 5000 60  0000 C CNN
	1    8050 5000
	1    0    0    -1  
$EndComp
$Comp
L R_Small R322
U 1 1 56193E5B
P 7000 5000
F 0 "R322" H 6950 5050 50  0000 R CNN
F 1 "1.5k" H 6950 4950 50  0000 R CNN
F 2 "" H 7000 5000 60  0000 C CNN
F 3 "" H 7000 5000 60  0000 C CNN
	1    7000 5000
	1    0    0    -1  
$EndComp
$Comp
L R_Small R323
U 1 1 56193EB4
P 7700 4450
F 0 "R323" H 7730 4470 50  0000 L CNN
F 1 "1k" H 7730 4410 50  0000 L CNN
F 2 "" H 7700 4450 60  0000 C CNN
F 3 "" H 7700 4450 60  0000 C CNN
	1    7700 4450
	1    0    0    -1  
$EndComp
$Comp
L R_Small R321
U 1 1 56193F05
P 6650 4450
F 0 "R321" H 6680 4470 50  0000 L CNN
F 1 "1k" H 6680 4410 50  0000 L CNN
F 2 "" H 6650 4450 60  0000 C CNN
F 3 "" H 6650 4450 60  0000 C CNN
	1    6650 4450
	1    0    0    -1  
$EndComp
$Comp
L R_Small R340
U 1 1 56193F56
P 7150 4850
F 0 "R340" V 7100 4900 50  0000 C CNN
F 1 "270" V 7250 4850 50  0000 C CNN
F 2 "" H 7150 4850 60  0000 C CNN
F 3 "" H 7150 4850 60  0000 C CNN
	1    7150 4850
	0    1    1    0   
$EndComp
$Comp
L R_Small R341
U 1 1 56193FBE
P 8200 4850
F 0 "R341" V 8150 4900 50  0000 C CNN
F 1 "270" V 8300 4850 50  0000 C CNN
F 2 "" H 8200 4850 60  0000 C CNN
F 3 "" H 8200 4850 60  0000 C CNN
	1    8200 4850
	0    1    1    0   
$EndComp
$Comp
L R_Small R343
U 1 1 56194029
P 8550 4100
F 0 "R343" V 8500 4050 50  0000 R BNN
F 1 "10" V 8500 4150 50  0000 L BNN
F 2 "" H 8550 4100 60  0000 C CNN
F 3 "" H 8550 4100 60  0000 C CNN
	1    8550 4100
	0    1    1    0   
$EndComp
$Comp
L R_Small R342
U 1 1 5619407F
P 8750 4200
F 0 "R342" V 8800 4150 50  0000 R TNN
F 1 "10" V 8800 4250 50  0000 L TNN
F 2 "" H 8750 4200 60  0000 C CNN
F 3 "" H 8750 4200 60  0000 C CNN
	1    8750 4200
	0    1    1    0   
$EndComp
$Comp
L CP1_Small C321
U 1 1 561940FE
P 8350 5000
F 0 "C321" H 8360 5070 50  0000 L CNN
F 1 "0.001" H 8360 4920 50  0000 L CNN
F 2 "" H 8350 5000 60  0000 C CNN
F 3 "" H 8350 5000 60  0000 C CNN
	1    8350 5000
	1    0    0    -1  
$EndComp
$Comp
L CP1_Small C320
U 1 1 56194177
P 7300 5000
F 0 "C320" H 7310 5070 50  0000 L CNN
F 1 "0.001" H 7310 4920 50  0000 L CNN
F 2 "" H 7300 5000 60  0000 C CNN
F 3 "" H 7300 5000 60  0000 C CNN
	1    7300 5000
	1    0    0    -1  
$EndComp
$Comp
L GND #PWR0107
U 1 1 56194DB6
P 8350 5150
F 0 "#PWR0107" H 8350 4900 50  0001 C CNN
F 1 "GND" H 8350 5000 50  0000 C CNN
F 2 "" H 8350 5150 60  0000 C CNN
F 3 "" H 8350 5150 60  0000 C CNN
	1    8350 5150
	1    0    0    -1  
$EndComp
$Comp
L GND #PWR0108
U 1 1 56194E12
P 7300 5150
F 0 "#PWR0108" H 7300 4900 50  0001 C CNN
F 1 "GND" H 7300 5000 50  0000 C CNN
F 2 "" H 7300 5150 60  0000 C CNN
F 3 "" H 7300 5150 60  0000 C CNN
	1    7300 5150
	1    0    0    -1  
$EndComp
$Comp
L +5V #PWR0109
U 1 1 56195AE9
P 6650 4250
F 0 "#PWR0109" H 6650 4100 50  0001 C CNN
F 1 "+5V" H 6650 4390 50  0000 C CNN
F 2 "" H 6650 4250 60  0000 C CNN
F 3 "" H 6650 4250 60  0000 C CNN
	1    6650 4250
	1    0    0    -1  
$EndComp
$Comp
L +5V #PWR0110
U 1 1 56195B45
P 7700 4250
F 0 "#PWR0110" H 7700 4100 50  0001 C CNN
F 1 "+5V" H 7700 4390 50  0000 C CNN
F 2 "" H 7700 4250 60  0000 C CNN
F 3 "" H 7700 4250 60  0000 C CNN
	1    7700 4250
	1    0    0    -1  
$EndComp
$Comp
L -5V #PWR0111
U 1 1 56195DC3
P 8050 5150
F 0 "#PWR0111" H 8050 5250 50  0001 C CNN
F 1 "-5V" H 8050 5300 50  0000 C CNN
F 2 "" H 8050 5150 60  0000 C CNN
F 3 "" H 8050 5150 60  0000 C CNN
	1    8050 5150
	-1   0    0    1   
$EndComp
$Comp
L -5V #PWR0112
U 1 1 56195E1F
P 7000 5150
F 0 "#PWR0112" H 7000 5250 50  0001 C CNN
F 1 "-5V" H 7000 5300 50  0000 C CNN
F 2 "" H 7000 5150 60  0000 C CNN
F 3 "" H 7000 5150 60  0000 C CNN
	1    7000 5150
	-1   0    0    1   
$EndComp
$Comp
L DB9 J400
U 1 1 56199F7C
P 10500 2100
F 0 "J400" H 10500 2650 70  0000 C CNN
F 1 "DB9" H 10500 1550 70  0000 C CNN
F 2 "" H 10500 2100 60  0000 C CNN
F 3 "" H 10500 2100 60  0000 C CNN
	1    10500 2100
	1    0    0    -1  
$EndComp
$Comp
L R R320
U 1 1 561A22C8
P 4300 4900
F 0 "R320" V 4380 4900 50  0000 C CNN
F 1 "10k" V 4300 4900 50  0000 C CNN
F 2 "" V 4230 4900 30  0000 C CNN
F 3 "" H 4300 4900 30  0000 C CNN
	1    4300 4900
	0    1    1    0   
$EndComp
$Comp
L R R315
U 1 1 561A2443
P 4300 4750
F 0 "R315" V 4380 4750 50  0000 C CNN
F 1 "10k" V 4300 4750 50  0000 C CNN
F 2 "" V 4230 4750 30  0000 C CNN
F 3 "" H 4300 4750 30  0000 C CNN
	1    4300 4750
	0    1    1    0   
$EndComp
$Comp
L R R316
U 1 1 561A24B9
P 4300 4600
F 0 "R316" V 4380 4600 50  0000 C CNN
F 1 "10k" V 4300 4600 50  0000 C CNN
F 2 "" V 4230 4600 30  0000 C CNN
F 3 "" H 4300 4600 30  0000 C CNN
	1    4300 4600
	0    1    1    0   
$EndComp
$Comp
L R R317
U 1 1 561A2531
P 4300 4450
F 0 "R317" V 4380 4450 50  0000 C CNN
F 1 "10k" V 4300 4450 50  0000 C CNN
F 2 "" V 4230 4450 30  0000 C CNN
F 3 "" H 4300 4450 30  0000 C CNN
	1    4300 4450
	0    1    1    0   
$EndComp
$Comp
L R R318
U 1 1 561A25AD
P 4300 4300
F 0 "R318" V 4380 4300 50  0000 C CNN
F 1 "10k" V 4300 4300 50  0000 C CNN
F 2 "" V 4230 4300 30  0000 C CNN
F 3 "" H 4300 4300 30  0000 C CNN
	1    4300 4300
	0    1    1    0   
$EndComp
$Comp
L R R313
U 1 1 561A2628
P 4300 4150
F 0 "R313" V 4380 4150 50  0000 C CNN
F 1 "10k" V 4300 4150 50  0000 C CNN
F 2 "" V 4230 4150 30  0000 C CNN
F 3 "" H 4300 4150 30  0000 C CNN
	1    4300 4150
	0    1    1    0   
$EndComp
$Comp
L R R311
U 1 1 561A26A6
P 4300 4000
F 0 "R311" V 4380 4000 50  0000 C CNN
F 1 "10k" V 4300 4000 50  0000 C CNN
F 2 "" V 4230 4000 30  0000 C CNN
F 3 "" H 4300 4000 30  0000 C CNN
	1    4300 4000
	0    1    1    0   
$EndComp
$Comp
L R R312
U 1 1 561A2726
P 4300 3850
F 0 "R312" V 4380 3850 50  0000 C CNN
F 1 "10k" V 4300 3850 50  0000 C CNN
F 2 "" V 4230 3850 30  0000 C CNN
F 3 "" H 4300 3850 30  0000 C CNN
	1    4300 3850
	0    1    1    0   
$EndComp
$Comp
L R R314
U 1 1 561A27A7
P 4300 3700
F 0 "R314" V 4380 3700 50  0000 C CNN
F 1 "10k" V 4300 3700 50  0000 C CNN
F 2 "" V 4230 3700 30  0000 C CNN
F 3 "" H 4300 3700 30  0000 C CNN
	1    4300 3700
	0    1    1    0   
$EndComp
$Comp
L +5V #PWR0113
U 1 1 561A2927
P 4050 3650
F 0 "#PWR0113" H 4050 3500 50  0001 C CNN
F 1 "+5V" H 4050 3790 50  0000 C CNN
F 2 "" H 4050 3650 60  0000 C CNN
F 3 "" H 4050 3650 60  0000 C CNN
	1    4050 3650
	1    0    0    -1  
$EndComp
$Comp
L R R339
U 1 1 561A4E14
P 8650 3450
F 0 "R339" V 8600 3650 50  0000 C CNN
F 1 "470" V 8650 3450 50  0000 C CNN
F 2 "" V 8580 3450 30  0000 C CNN
F 3 "" H 8650 3450 30  0000 C CNN
	1    8650 3450
	0    1    1    0   
$EndComp
$Comp
L R R331
U 1 1 561A4EB5
P 8400 3350
F 0 "R331" V 8350 3550 50  0000 C CNN
F 1 "470" V 8400 3350 50  0000 C CNN
F 2 "" V 8330 3350 30  0000 C CNN
F 3 "" H 8400 3350 30  0000 C CNN
	1    8400 3350
	0    1    1    0   
$EndComp
$Comp
L R R332
U 1 1 561A4F40
P 8150 3250
F 0 "R332" V 8100 3450 50  0000 C CNN
F 1 "470" V 8150 3250 50  0000 C CNN
F 2 "" V 8080 3250 30  0000 C CNN
F 3 "" H 8150 3250 30  0000 C CNN
	1    8150 3250
	0    1    1    0   
$EndComp
$Comp
L R R333
U 1 1 561A4FCC
P 7900 3150
F 0 "R333" V 7850 3350 50  0000 C CNN
F 1 "470" V 7900 3150 50  0000 C CNN
F 2 "" V 7830 3150 30  0000 C CNN
F 3 "" H 7900 3150 30  0000 C CNN
	1    7900 3150
	0    1    1    0   
$EndComp
$Comp
L R R334
U 1 1 561A5059
P 7650 3050
F 0 "R334" V 7600 3250 50  0000 C CNN
F 1 "470" V 7650 3050 50  0000 C CNN
F 2 "" V 7580 3050 30  0000 C CNN
F 3 "" H 7650 3050 30  0000 C CNN
	1    7650 3050
	0    1    1    0   
$EndComp
$Comp
L R R338
U 1 1 561A50E9
P 7400 2900
F 0 "R338" V 7350 3100 50  0000 C CNN
F 1 "470" V 7400 2900 50  0000 C CNN
F 2 "" V 7330 2900 30  0000 C CNN
F 3 "" H 7400 2900 30  0000 C CNN
	1    7400 2900
	0    1    1    0   
$EndComp
$Comp
L R R337
U 1 1 561A5180
P 7150 2800
F 0 "R337" V 7100 3000 50  0000 C CNN
F 1 "470" V 7150 2800 50  0000 C CNN
F 2 "" V 7080 2800 30  0000 C CNN
F 3 "" H 7150 2800 30  0000 C CNN
	1    7150 2800
	0    1    1    0   
$EndComp
$Comp
L R R336
U 1 1 561A5216
P 6900 2700
F 0 "R336" V 6850 2900 50  0000 C CNN
F 1 "470" V 6900 2700 50  0000 C CNN
F 2 "" V 6830 2700 30  0000 C CNN
F 3 "" H 6900 2700 30  0000 C CNN
	1    6900 2700
	0    1    1    0   
$EndComp
$Comp
L R R335
U 1 1 561A52AD
P 6650 2600
F 0 "R335" V 6600 2800 50  0000 C CNN
F 1 "470" V 6650 2600 50  0000 C CNN
F 2 "" V 6580 2600 30  0000 C CNN
F 3 "" H 6650 2600 30  0000 C CNN
	1    6650 2600
	0    1    1    0   
$EndComp
$Comp
L CP1_Small C315
U 1 1 561AA37A
P 5250 4900
F 0 "C315" V 5300 4950 50  0000 L CNN
F 1 "0.001" V 5300 4850 50  0000 R CNN
F 2 "" H 5250 4900 60  0000 C CNN
F 3 "" H 5250 4900 60  0000 C CNN
	1    5250 4900
	0    -1   -1   0   
$EndComp
$Comp
L CP1_Small C311
U 1 1 561AA424
P 5050 4750
F 0 "C311" V 5100 4800 50  0000 L CNN
F 1 "0.001" V 5100 4700 50  0000 R CNN
F 2 "" H 5050 4750 60  0000 C CNN
F 3 "" H 5050 4750 60  0000 C CNN
	1    5050 4750
	0    -1   -1   0   
$EndComp
$Comp
L CP1_Small C312
U 1 1 561AA4AC
P 5250 4600
F 0 "C312" V 5300 4650 50  0000 L CNN
F 1 "0.001" V 5300 4550 50  0000 R CNN
F 2 "" H 5250 4600 60  0000 C CNN
F 3 "" H 5250 4600 60  0000 C CNN
	1    5250 4600
	0    -1   -1   0   
$EndComp
$Comp
L CP1_Small C313
U 1 1 561AA537
P 5050 4450
F 0 "C313" V 5100 4500 50  0000 L CNN
F 1 "0.001" V 5100 4400 50  0000 R CNN
F 2 "" H 5050 4450 60  0000 C CNN
F 3 "" H 5050 4450 60  0000 C CNN
	1    5050 4450
	0    -1   -1   0   
$EndComp
$Comp
L CP1_Small C314
U 1 1 561AA5C3
P 5250 4300
F 0 "C314" V 5300 4350 50  0000 L CNN
F 1 "0.001" V 5300 4250 50  0000 R CNN
F 2 "" H 5250 4300 60  0000 C CNN
F 3 "" H 5250 4300 60  0000 C CNN
	1    5250 4300
	0    -1   -1   0   
$EndComp
$Comp
L CP1_Small C307
U 1 1 561AA64F
P 5050 4150
F 0 "C307" V 5100 4200 50  0000 L CNN
F 1 "0.001" V 5100 4100 50  0000 R CNN
F 2 "" H 5050 4150 60  0000 C CNN
F 3 "" H 5050 4150 60  0000 C CNN
	1    5050 4150
	0    -1   -1   0   
$EndComp
$Comp
L CP1_Small C308
U 1 1 561AA6DF
P 5250 4000
F 0 "C308" V 5300 4050 50  0000 L CNN
F 1 "0.001" V 5300 3950 50  0000 R CNN
F 2 "" H 5250 4000 60  0000 C CNN
F 3 "" H 5250 4000 60  0000 C CNN
	1    5250 4000
	0    -1   -1   0   
$EndComp
$Comp
L CP1_Small C309
U 1 1 561AA76E
P 5050 3850
F 0 "C309" V 5100 3900 50  0000 L CNN
F 1 "0.001" V 5100 3800 50  0000 R CNN
F 2 "" H 5050 3850 60  0000 C CNN
F 3 "" H 5050 3850 60  0000 C CNN
	1    5050 3850
	0    -1   -1   0   
$EndComp
$Comp
L CP1_Small C310
U 1 1 561AA800
P 5250 3700
F 0 "C310" V 5300 3750 50  0000 L CNN
F 1 "0.001" V 5300 3650 50  0000 R CNN
F 2 "" H 5250 3700 60  0000 C CNN
F 3 "" H 5250 3700 60  0000 C CNN
	1    5250 3700
	0    -1   -1   0   
$EndComp
$Comp
L GND #PWR0114
U 1 1 561ACC68
P 5550 5000
F 0 "#PWR0114" H 5550 4750 50  0001 C CNN
F 1 "GND" H 5550 4850 50  0000 C CNN
F 2 "" H 5550 5000 60  0000 C CNN
F 3 "" H 5550 5000 60  0000 C CNN
	1    5550 5000
	1    0    0    -1  
$EndComp
$Comp
L S8050 Q402
U 1 1 561692CC
P 7250 2050
F 0 "Q402" H 7450 2125 50  0000 L CNN
F 1 "TIS92" H 7450 2050 50  0000 L CNN
F 2 "TO-92" H 7450 1975 50  0000 L CIN
F 3 "" H 7250 2050 50  0000 L CNN
	1    7250 2050
	1    0    0    -1  
$EndComp
$Comp
L TIL111 U401
U 1 1 56169431
P 8300 2050
F 0 "U401" H 8300 2150 70  0000 C CNN
F 1 "TIL119" H 8300 1950 70  0000 C CNN
F 2 "" H 8300 2050 60  0000 C CNN
F 3 "" H 8300 2050 60  0000 C CNN
	1    8300 2050
	1    0    0    -1  
$EndComp
$Comp
L R_Small R415
U 1 1 5616951A
P 7800 2050
F 0 "R415" H 7830 2070 50  0000 L CNN
F 1 "220" H 7830 2010 50  0000 L CNN
F 2 "" H 7800 2050 60  0000 C CNN
F 3 "" H 7800 2050 60  0000 C CNN
	1    7800 2050
	1    0    0    -1  
$EndComp
$Comp
L +5V #PWR0115
U 1 1 5616A139
P 7350 1800
F 0 "#PWR0115" H 7350 1650 50  0001 C CNN
F 1 "+5V" H 7350 1940 50  0000 C CNN
F 2 "" H 7350 1800 60  0000 C CNN
F 3 "" H 7350 1800 60  0000 C CNN
	1    7350 1800
	1    0    0    -1  
$EndComp
$Comp
L GND #PWR0116
U 1 1 5616A37E
P 8150 2300
F 0 "#PWR0116" H 8150 2050 50  0001 C CNN
F 1 "GND" H 8150 2150 50  0000 C CNN
F 2 "" H 8150 2300 60  0000 C CNN
F 3 "" H 8150 2300 60  0000 C CNN
	1    8150 2300
	1    0    0    -1  
$EndComp
$Comp
L S8050 Q401
U 1 1 5616A7A8
P 8900 2050
F 0 "Q401" H 9100 2125 50  0000 L CNN
F 1 "TIS92" H 9100 2050 50  0000 L CNN
F 2 "TO-92" H 9100 1975 50  0000 L CIN
F 3 "" H 8900 2050 50  0000 L CNN
	1    8900 2050
	1    0    0    -1  
$EndComp
$Comp
L S8050 Q404
U 1 1 5616ADD7
P 7250 1350
F 0 "Q404" H 7450 1425 50  0000 L CNN
F 1 "TIS92" H 7450 1350 50  0000 L CNN
F 2 "TO-92" H 7450 1275 50  0000 L CIN
F 3 "" H 7250 1350 50  0000 L CNN
	1    7250 1350
	1    0    0    -1  
$EndComp
$Comp
L TIL111 U402
U 1 1 5616ADDD
P 8300 1350
F 0 "U402" H 8300 1450 70  0000 C CNN
F 1 "TIL119" H 8300 1250 70  0000 C CNN
F 2 "" H 8300 1350 60  0000 C CNN
F 3 "" H 8300 1350 60  0000 C CNN
	1    8300 1350
	1    0    0    -1  
$EndComp
$Comp
L R_Small R416
U 1 1 5616ADE3
P 7800 1350
F 0 "R416" H 7830 1370 50  0000 L CNN
F 1 "220" H 7830 1310 50  0000 L CNN
F 2 "" H 7800 1350 60  0000 C CNN
F 3 "" H 7800 1350 60  0000 C CNN
	1    7800 1350
	1    0    0    -1  
$EndComp
$Comp
L +5V #PWR0117
U 1 1 5616ADEF
P 7350 1100
F 0 "#PWR0117" H 7350 950 50  0001 C CNN
F 1 "+5V" H 7350 1240 50  0000 C CNN
F 2 "" H 7350 1100 60  0000 C CNN
F 3 "" H 7350 1100 60  0000 C CNN
	1    7350 1100
	1    0    0    -1  
$EndComp
$Comp
L GND #PWR0118
U 1 1 5616ADF6
P 8150 1600
F 0 "#PWR0118" H 8150 1350 50  0001 C CNN
F 1 "GND" H 8150 1450 50  0000 C CNN
F 2 "" H 8150 1600 60  0000 C CNN
F 3 "" H 8150 1600 60  0000 C CNN
	1    8150 1600
	1    0    0    -1  
$EndComp
$Comp
L S8050 Q403
U 1 1 5616ADFD
P 8900 1350
F 0 "Q403" H 9100 1425 50  0000 L CNN
F 1 "TIS92" H 9100 1350 50  0000 L CNN
F 2 "TO-92" H 9100 1275 50  0000 L CIN
F 3 "" H 8900 1350 50  0000 L CNN
	1    8900 1350
	1    0    0    -1  
$EndComp
$Comp
L L_Small L400
U 1 1 5616C807
P 9650 1950
F 0 "L400" H 9680 1990 50  0000 L CNN
F 1 " " H 9680 1910 50  0000 L CNN
F 2 "" H 9650 1950 60  0000 C CNN
F 3 "" H 9650 1950 60  0000 C CNN
	1    9650 1950
	1    0    0    -1  
$EndComp
$Comp
L L_Small L401
U 1 1 5616C8D0
P 9650 1250
F 0 "L401" H 9680 1290 50  0000 L CNN
F 1 " " H 9680 1210 50  0000 L CNN
F 2 "" H 9650 1250 60  0000 C CNN
F 3 "" H 9650 1250 60  0000 C CNN
	1    9650 1250
	1    0    0    -1  
$EndComp
$Comp
L CP1_Small C404
U 1 1 5617134F
P 9950 2650
F 0 "C404" H 9960 2720 50  0000 L CNN
F 1 "0.001" H 9960 2570 50  0000 L CNN
F 2 "" H 9950 2650 60  0000 C CNN
F 3 "" H 9950 2650 60  0000 C CNN
	1    9950 2650
	1    0    0    -1  
$EndComp
$Comp
L GND #PWR0119
U 1 1 561723D0
P 9850 3150
F 0 "#PWR0119" H 9850 2900 50  0001 C CNN
F 1 "GND" H 9850 3000 50  0000 C CNN
F 2 "" H 9850 3150 60  0000 C CNN
F 3 "" H 9850 3150 60  0000 C CNN
	1    9850 3150
	1    0    0    -1  
$EndComp
$Comp
L CP1_Small C406
U 1 1 561726B7
P 9750 2900
F 0 "C406" H 9760 2970 50  0000 L CNN
F 1 "0.001" H 9760 2820 50  0000 L CNN
F 2 "" H 9750 2900 60  0000 C CNN
F 3 "" H 9750 2900 60  0000 C CNN
	1    9750 2900
	1    0    0    -1  
$EndComp
$Comp
L CP1_Small C405
U 1 1 56174E9E
P 9400 1250
F 0 "C405" H 9410 1320 50  0000 L CNN
F 1 "0.001" H 9410 1170 50  0000 L CNN
F 2 "" H 9400 1250 60  0000 C CNN
F 3 "" H 9400 1250 60  0000 C CNN
	1    9400 1250
	1    0    0    -1  
$EndComp
$Comp
L CP1_Small C403
U 1 1 56174FA2
P 9400 1950
F 0 "C403" H 9410 2020 50  0000 L CNN
F 1 "0.001" H 9410 1870 50  0000 L CNN
F 2 "" H 9400 1950 60  0000 C CNN
F 3 "" H 9400 1950 60  0000 C CNN
	1    9400 1950
	1    0    0    -1  
$EndComp
$Comp
L GND #PWR0120
U 1 1 5617954A
P 9400 1400
F 0 "#PWR0120" H 9400 1150 50  0001 C CNN
F 1 "GND" H 9400 1250 50  0000 C CNN
F 2 "" H 9400 1400 60  0000 C CNN
F 3 "" H 9400 1400 60  0000 C CNN
	1    9400 1400
	1    0    0    -1  
$EndComp
$Comp
L GND #PWR0121
U 1 1 561795FA
P 9400 2100
F 0 "#PWR0121" H 9400 1850 50  0001 C CNN
F 1 "GND" H 9400 1950 50  0000 C CNN
F 2 "" H 9400 2100 60  0000 C CNN
F 3 "" H 9400 2100 60  0000 C CNN
	1    9400 2100
	1    0    0    -1  
$EndComp
$Comp
L L_Small L402
U 1 1 5617D954
P 9100 800
F 0 "L402" V 9050 800 50  0000 C CNN
F 1 " " H 9130 760 50  0000 L CNN
F 2 "" H 9100 800 60  0000 C CNN
F 3 "" H 9100 800 60  0000 C CNN
	1    9100 800 
	0    -1   -1   0   
$EndComp
$Comp
L L_Small L403
U 1 1 5617DA93
P 9450 900
F 0 "L403" V 9400 900 50  0000 C CNN
F 1 " " H 9480 860 50  0000 L CNN
F 2 "" H 9450 900 60  0000 C CNN
F 3 "" H 9450 900 60  0000 C CNN
	1    9450 900 
	0    -1   -1   0   
$EndComp
$Comp
L CP1_Small C414
U 1 1 56180C2E
P 6750 1250
F 0 "C414" H 6760 1320 50  0000 L CNN
F 1 "0.001" H 6760 1170 50  0000 L CNN
F 2 "" H 6750 1250 60  0000 C CNN
F 3 "" H 6750 1250 60  0000 C CNN
	1    6750 1250
	1    0    0    -1  
$EndComp
$Comp
L CP1_Small C402
U 1 1 56180CED
P 6550 1250
F 0 "C402" H 6560 1320 50  0000 R CNN
F 1 "0.001" H 6560 1170 50  0000 R CNN
F 2 "" H 6550 1250 60  0000 C CNN
F 3 "" H 6550 1250 60  0000 C CNN
	1    6550 1250
	1    0    0    -1  
$EndComp
$Comp
L R_Small R406
U 1 1 56181E11
P 6250 950
F 0 "R406" H 6280 970 50  0000 L CNN
F 1 "15" H 6280 910 50  0000 L CNN
F 2 "" H 6250 950 60  0000 C CNN
F 3 "" H 6250 950 60  0000 C CNN
	1    6250 950 
	1    0    0    -1  
$EndComp
$Comp
L R_Small R408
U 1 1 56183B7C
P 6250 1250
F 0 "R408" H 6200 1300 50  0000 R CNN
F 1 "5.6k" H 6200 1200 50  0000 R CNN
F 2 "" H 6250 1250 60  0000 C CNN
F 3 "" H 6250 1250 60  0000 C CNN
	1    6250 1250
	1    0    0    -1  
$EndComp
$Comp
L CP1_Small C408
U 1 1 561848B2
P 6050 800
F 0 "C408" H 6060 870 50  0000 L CNN
F 1 "0.01µ" H 6060 720 50  0000 L CNN
F 2 "" H 6050 800 60  0000 C CNN
F 3 "" H 6050 800 60  0000 C CNN
	1    6050 800 
	0    -1   1    0   
$EndComp
$Comp
L GND #PWR0122
U 1 1 56181D04
P 6650 1450
F 0 "#PWR0122" H 6650 1200 50  0001 C CNN
F 1 "GND" H 6650 1300 50  0000 C CNN
F 2 "" H 6650 1450 60  0000 C CNN
F 3 "" H 6650 1450 60  0000 C CNN
	1    6650 1450
	1    0    0    -1  
$EndComp
$Comp
L R_Small R404
U 1 1 561889F2
P 6400 1700
F 0 "R404" H 6430 1720 50  0000 L CNN
F 1 "10k" H 6430 1660 50  0000 L CNN
F 2 "" H 6400 1700 60  0000 C CNN
F 3 "" H 6400 1700 60  0000 C CNN
	1    6400 1700
	1    0    0    -1  
$EndComp
$Comp
L GND #PWR0123
U 1 1 56188B1E
P 6250 1400
F 0 "#PWR0123" H 6250 1150 50  0001 C CNN
F 1 "GND" H 6250 1250 50  0000 C CNN
F 2 "" H 6250 1400 60  0000 C CNN
F 3 "" H 6250 1400 60  0000 C CNN
	1    6250 1400
	1    0    0    -1  
$EndComp
$Comp
L R_Small R403
U 1 1 5618A50D
P 8600 700
F 0 "R403" V 8650 800 50  0000 L CNN
F 1 "5.6k" V 8650 650 50  0000 R CNN
F 2 "" H 8600 700 60  0000 C CNN
F 3 "" H 8600 700 60  0000 C CNN
	1    8600 700 
	0    1    1    0   
$EndComp
$Comp
L CP1_Small C401
U 1 1 5618A85F
P 10150 850
F 0 "C401" H 10160 920 50  0000 L CNN
F 1 "0.001" H 10160 770 50  0000 L CNN
F 2 "" H 10150 850 60  0000 C CNN
F 3 "" H 10150 850 60  0000 C CNN
	1    10150 850 
	1    0    0    -1  
$EndComp
$Comp
L CP1_Small C400
U 1 1 5618A93A
P 10450 850
F 0 "C400" H 10460 920 50  0000 L CNN
F 1 "0.001" H 10460 770 50  0000 L CNN
F 2 "" H 10450 850 60  0000 C CNN
F 3 "" H 10450 850 60  0000 C CNN
	1    10450 850 
	1    0    0    -1  
$EndComp
$Comp
L GND #PWR0124
U 1 1 5618AE1A
P 10300 1050
F 0 "#PWR0124" H 10300 800 50  0001 C CNN
F 1 "GND" H 10300 900 50  0000 C CNN
F 2 "" H 10300 1050 60  0000 C CNN
F 3 "" H 10300 1050 60  0000 C CNN
	1    10300 1050
	1    0    0    -1  
$EndComp
$Comp
L R_Small R417
U 1 1 5618CF62
P 7500 1050
F 0 "R417" H 7530 1070 50  0000 L CNN
F 1 "9.1k" H 7530 1010 50  0000 L CNN
F 2 "" H 7500 1050 60  0000 C CNN
F 3 "" H 7500 1050 60  0000 C CNN
	1    7500 1050
	1    0    0    -1  
$EndComp
$Comp
L R_Small R405
U 1 1 5618D633
P 6600 1850
F 0 "R405" V 6550 1900 50  0000 L CNN
F 1 "10k" V 6650 1900 50  0000 L CNN
F 2 "" H 6600 1850 60  0000 C CNN
F 3 "" H 6600 1850 60  0000 C CNN
	1    6600 1850
	0    1    1    0   
$EndComp
$Comp
L S8050 Q400
U 1 1 5618DC51
P 5900 2050
F 0 "Q400" H 6100 2125 50  0000 L CNN
F 1 "TIS92" H 6100 2050 50  0000 L CNN
F 2 "TO-92" H 6100 1975 50  0000 L CIN
F 3 "" H 5900 2050 50  0000 L CNN
	1    5900 2050
	1    0    0    -1  
$EndComp
$Comp
L CP1_Small C415
U 1 1 5618F3D2
P 6400 2050
F 0 "C415" H 6410 2120 50  0000 L CNN
F 1 "0.01" H 6410 1970 50  0000 L CNN
F 2 "" H 6400 2050 60  0000 C CNN
F 3 "" H 6400 2050 60  0000 C CNN
	1    6400 2050
	1    0    0    -1  
$EndComp
$Comp
L GND #PWR0125
U 1 1 5618FFEA
P 6400 2250
F 0 "#PWR0125" H 6400 2000 50  0001 C CNN
F 1 "GND" H 6400 2100 50  0000 C CNN
F 2 "" H 6400 2250 60  0000 C CNN
F 3 "" H 6400 2250 60  0000 C CNN
	1    6400 2250
	1    0    0    -1  
$EndComp
$Comp
L R_Small R414
U 1 1 56190C5B
P 5500 2350
F 0 "R414" V 5550 2250 50  0000 R CNN
F 1 "12k" V 5550 2450 50  0000 L CNN
F 2 "" H 5500 2350 60  0000 C CNN
F 3 "" H 5500 2350 60  0000 C CNN
	1    5500 2350
	0    1    1    0   
$EndComp
$Comp
L R_Small R402
U 1 1 5619357D
P 3600 1350
F 0 "R402" H 3630 1370 50  0000 L CNN
F 1 "6.5k" H 3630 1310 50  0000 L CNN
F 2 "" H 3600 1350 60  0000 C CNN
F 3 "" H 3600 1350 60  0000 C CNN
	1    3600 1350
	1    0    0    -1  
$EndComp
$Comp
L R_Small R400
U 1 1 56193F78
P 3600 800
F 0 "R400" H 3630 820 50  0000 L CNN
F 1 "5.6k" H 3630 760 50  0000 L CNN
F 2 "" H 3600 800 60  0000 C CNN
F 3 "" H 3600 800 60  0000 C CNN
	1    3600 800 
	1    0    0    -1  
$EndComp
$Comp
L R_Small R401
U 1 1 56194361
P 3900 800
F 0 "R401" H 3930 820 50  0000 L CNN
F 1 "200" H 3930 760 50  0000 L CNN
F 2 "" H 3900 800 60  0000 C CNN
F 3 "" H 3900 800 60  0000 C CNN
	1    3900 800 
	1    0    0    -1  
$EndComp
$Comp
L CP1_Small C407
U 1 1 561944A7
P 3600 1050
F 0 "C407" H 3610 1120 50  0000 L CNN
F 1 "0.001" H 3610 970 50  0000 L CNN
F 2 "" H 3600 1050 60  0000 C CNN
F 3 "" H 3600 1050 60  0000 C CNN
	1    3600 1050
	1    0    0    -1  
$EndComp
$Comp
L CP1_Small C409
U 1 1 561946AC
P 3900 1350
F 0 "C409" H 3910 1420 50  0000 L CNN
F 1 "0.01µ" H 3910 1270 50  0000 L CNN
F 2 "" H 3900 1350 60  0000 C CNN
F 3 "" H 3900 1350 60  0000 C CNN
	1    3900 1350
	1    0    0    -1  
$EndComp
$Comp
L GND #PWR0126
U 1 1 5619487E
P 3900 1500
F 0 "#PWR0126" H 3900 1250 50  0001 C CNN
F 1 "GND" H 3900 1350 50  0000 C CNN
F 2 "" H 3900 1500 60  0000 C CNN
F 3 "" H 3900 1500 60  0000 C CNN
	1    3900 1500
	1    0    0    -1  
$EndComp
$Comp
L GND #PWR0127
U 1 1 56194958
P 3900 950
F 0 "#PWR0127" H 3900 700 50  0001 C CNN
F 1 "GND" H 3900 800 50  0000 C CNN
F 2 "" H 3900 950 60  0000 C CNN
F 3 "" H 3900 950 60  0000 C CNN
	1    3900 950 
	1    0    0    -1  
$EndComp
$Comp
L LM358 U400
U 2 1 56198049
P 5350 1300
F 0 "U400" H 5350 1300 60  0000 C CNN
F 1 "RC4558" H 5100 1300 60  0000 R CNN
F 2 "" H 5350 1300 60  0000 C CNN
F 3 "" H 5350 1300 60  0000 C CNN
	2    5350 1300
	-1   0    0    1   
$EndComp
$Comp
L LM358 U400
U 1 1 56198372
P 4550 1700
F 0 "U400" H 4550 1700 60  0000 C CNN
F 1 "RC4558" H 4400 1450 60  0000 R CNN
F 2 "" H 4550 1700 60  0000 C CNN
F 3 "" H 4550 1700 60  0000 C CNN
	1    4550 1700
	-1   0    0    -1  
$EndComp
$Comp
L R_Small R409
U 1 1 561984C4
P 5900 950
F 0 "R409" H 5872 970 50  0000 R CNN
F 1 "6.8k" H 5872 910 50  0000 R CNN
F 2 "" H 5900 950 60  0000 C CNN
F 3 "" H 5900 950 60  0000 C CNN
	1    5900 950 
	1    0    0    -1  
$EndComp
$Comp
L GND #PWR0128
U 1 1 56199D40
P 5900 1450
F 0 "#PWR0128" H 5900 1200 50  0001 C CNN
F 1 "GND" H 5900 1300 50  0000 C CNN
F 2 "" H 5900 1450 60  0000 C CNN
F 3 "" H 5900 1450 60  0000 C CNN
	1    5900 1450
	1    0    0    -1  
$EndComp
$Comp
L R_Small R410
U 1 1 561A8E6F
P 5000 1100
F 0 "R410" V 5100 1100 50  0000 C CNN
F 1 "38k" V 5050 1200 50  0000 L CNN
F 2 "" H 5000 1100 60  0000 C CNN
F 3 "" H 5000 1100 60  0000 C CNN
	1    5000 1100
	0    1    1    0   
$EndComp
$Comp
L CP1_Small C411
U 1 1 561A8FC5
P 5000 950
F 0 "C411" V 5050 1000 50  0000 L CNN
F 1 "220p" V 5050 900 50  0000 R CNN
F 2 "" H 5000 950 60  0000 C CNN
F 3 "" H 5000 950 60  0000 C CNN
	1    5000 950 
	0    -1   -1   0   
$EndComp
$Comp
L R_Small R413
U 1 1 561AB5A8
P 3800 1700
F 0 "R413" V 3850 1800 50  0000 L CNN
F 1 "2.2k" V 3900 1700 50  0000 C CNN
F 2 "" H 3800 1700 60  0000 C CNN
F 3 "" H 3800 1700 60  0000 C CNN
	1    3800 1700
	0    1    1    0   
$EndComp
$Comp
L D D402
U 1 1 561ACAB2
P 3850 2100
F 0 "D402" H 3850 2200 50  0000 C CNN
F 1 "PG1••2" H 3850 2000 50  0000 C CNN
F 2 "" H 3850 2100 60  0000 C CNN
F 3 "" H 3850 2100 60  0000 C CNN
	1    3850 2100
	1    0    0    -1  
$EndComp
$Comp
L GND #PWR0129
U 1 1 561AD056
P 4050 2150
F 0 "#PWR0129" H 4050 1900 50  0001 C CNN
F 1 "GND" H 4050 2000 50  0000 C CNN
F 2 "" H 4050 2150 60  0000 C CNN
F 3 "" H 4050 2150 60  0000 C CNN
	1    4050 2150
	1    0    0    -1  
$EndComp
$Comp
L CP1_Small C410
U 1 1 561AE55F
P 5100 1700
F 0 "C410" H 5110 1770 50  0000 L CNN
F 1 "0.022µ" H 5110 1620 50  0000 L CNN
F 2 "" H 5100 1700 60  0000 C CNN
F 3 "" H 5100 1700 60  0000 C CNN
	1    5100 1700
	1    0    0    -1  
$EndComp
$Comp
L CP1_Small C412
U 1 1 561AEDA7
P 4900 2100
F 0 "C412" H 4910 2170 50  0000 L CNN
F 1 "0.1" H 4910 2020 50  0000 L CNN
F 2 "" H 4900 2100 60  0000 C CNN
F 3 "" H 4900 2100 60  0000 C CNN
	1    4900 2100
	0    -1   1    0   
$EndComp
$Comp
L GND #PWR0130
U 1 1 561AF365
P 5100 2150
F 0 "#PWR0130" H 5100 1900 50  0001 C CNN
F 1 "GND" H 5100 2000 50  0000 C CNN
F 2 "" H 5100 2150 60  0000 C CNN
F 3 "" H 5100 2150 60  0000 C CNN
	1    5100 2150
	1    0    0    -1  
$EndComp
$Comp
L -5V #PWR0131
U 1 1 561B001E
P 5450 850
F 0 "#PWR0131" H 5450 950 50  0001 C CNN
F 1 "-5V" H 5450 1000 50  0000 C CNN
F 2 "" H 5450 850 60  0000 C CNN
F 3 "" H 5450 850 60  0000 C CNN
	1    5450 850 
	1    0    0    -1  
$EndComp
$Comp
L +5V #PWR0132
U 1 1 561B48E9
P 4650 1200
F 0 "#PWR0132" H 4650 1050 50  0001 C CNN
F 1 "+5V" H 4650 1340 50  0000 C CNN
F 2 "" H 4650 1200 60  0000 C CNN
F 3 "" H 4650 1200 60  0000 C CNN
	1    4650 1200
	1    0    0    -1  
$EndComp
$Comp
L CP1_Small C413
U 1 1 561B4CDA
P 5450 1950
F 0 "C413" H 5460 2020 50  0000 L CNN
F 1 "0.1" H 5460 1870 50  0000 L CNN
F 2 "" H 5450 1950 60  0000 C CNN
F 3 "" H 5450 1950 60  0000 C CNN
	1    5450 1950
	-1   0    0    -1  
$EndComp
Wire Wire Line
	3400 4200 3700 4200
Connection ~ 3700 5500
Wire Wire Line
	8650 4100 10050 4100
Wire Wire Line
	5900 1400 5900 1450
Wire Wire Line
	5850 1400 5900 1400
Wire Wire Line
	5900 800  5950 800 
Wire Wire Line
	5900 850  5900 800 
Wire Wire Line
	3600 650  3600 700 
Wire Wire Line
	3600 900  3600 950 
Connection ~ 3600 1200
Wire Wire Line
	3900 1200 3900 1250
Wire Wire Line
	3600 1200 3900 1200
Wire Wire Line
	3600 1150 3600 1250
Wire Wire Line
	3900 1450 3900 1500
Wire Wire Line
	3900 900  3900 950 
Wire Wire Line
	3700 2350 5400 2350
Wire Wire Line
	5600 2350 5650 2350
Wire Wire Line
	5650 2050 5700 2050
Connection ~ 6400 2250
Wire Wire Line
	6400 2250 6400 2150
Wire Wire Line
	6000 2250 6400 2250
Connection ~ 6400 1850
Wire Wire Line
	6850 1850 6700 1850
Wire Wire Line
	6000 1850 6500 1850
Connection ~ 7500 700 
Wire Wire Line
	7500 950  7500 700 
Wire Wire Line
	7350 1150 7500 1150
Connection ~ 10300 1000
Wire Wire Line
	10300 1000 10300 1050
Wire Wire Line
	10450 1000 10450 950 
Wire Wire Line
	10150 1000 10450 1000
Wire Wire Line
	10150 950  10150 1000
Connection ~ 10000 650 
Wire Wire Line
	10450 650  10450 750 
Connection ~ 9900 700 
Wire Wire Line
	10150 700  10150 750 
Wire Wire Line
	6850 700  8500 700 
Wire Wire Line
	6400 1800 6400 1950
Wire Wire Line
	6850 700  6850 1850
Connection ~ 6400 800 
Wire Wire Line
	6400 800  6400 1600
Wire Wire Line
	6550 1400 6750 1400
Wire Wire Line
	6650 1400 6650 1450
Connection ~ 6250 800 
Connection ~ 6650 1400
Wire Wire Line
	6250 1400 6250 1350
Connection ~ 6750 1100
Wire Wire Line
	6750 1100 6250 1100
Connection ~ 6250 1100
Wire Wire Line
	6250 1050 6250 1150
Connection ~ 6550 800 
Wire Wire Line
	6250 800  6250 850 
Wire Wire Line
	9850 2000 10050 2000
Wire Wire Line
	9950 1800 10050 1800
Wire Wire Line
	6750 1400 6750 1350
Wire Wire Line
	6550 1350 6550 1400
Wire Wire Line
	6750 900  6750 1150
Wire Wire Line
	6550 800  6550 1150
Wire Wire Line
	3600 650  10450 650 
Wire Wire Line
	8700 700  10150 700 
Wire Wire Line
	6150 800  9000 800 
Wire Wire Line
	9950 2300 9950 2550
Wire Wire Line
	6750 900  9350 900 
Wire Wire Line
	9850 800  9200 800 
Wire Wire Line
	9950 900  9550 900 
Wire Wire Line
	6950 1350 7050 1350
Wire Wire Line
	6950 2450 6950 1350
Wire Wire Line
	3750 2450 6950 2450
Wire Wire Line
	3800 2500 3800 4000
Wire Wire Line
	7000 2500 3800 2500
Wire Wire Line
	7000 2050 7000 2500
Wire Wire Line
	7050 2050 7000 2050
Wire Wire Line
	9400 2050 9400 2100
Wire Wire Line
	9400 1350 9400 1400
Wire Wire Line
	9650 1800 9650 1850
Wire Wire Line
	9650 1400 9800 1400
Wire Wire Line
	9650 1350 9650 1400
Wire Wire Line
	9800 1400 9800 2400
Connection ~ 9400 1800
Connection ~ 9400 1100
Wire Wire Line
	9650 1100 9650 1150
Wire Wire Line
	9950 1800 9950 900 
Wire Wire Line
	9900 1900 9900 700 
Wire Wire Line
	10050 1900 9900 1900
Wire Wire Line
	9850 2000 9850 800 
Wire Wire Line
	10000 1700 10000 650 
Wire Wire Line
	10050 1700 10000 1700
Connection ~ 9850 3050
Wire Wire Line
	9750 3050 9950 3050
Wire Wire Line
	9850 2100 9850 3150
Wire Wire Line
	10050 2100 9850 2100
Connection ~ 9750 2200
Connection ~ 9950 2300
Wire Wire Line
	9750 3000 9750 3050
Wire Wire Line
	9950 3050 9950 2750
Wire Wire Line
	9800 2400 10050 2400
Wire Wire Line
	9650 2500 10050 2500
Wire Wire Line
	9650 2050 9650 2500
Connection ~ 9000 1800
Wire Wire Line
	9400 1800 9400 1850
Connection ~ 9000 1100
Wire Wire Line
	9400 1100 9400 1150
Wire Wire Line
	9750 2200 10050 2200
Wire Wire Line
	9750 1600 9750 2800
Wire Wire Line
	9000 1600 9750 1600
Wire Wire Line
	9000 1550 9000 1600
Wire Wire Line
	9000 2300 10050 2300
Wire Wire Line
	9000 2250 9000 2300
Wire Wire Line
	9000 1100 9000 1150
Wire Wire Line
	8550 1100 9650 1100
Wire Wire Line
	8550 1150 8550 1100
Wire Wire Line
	8650 1350 8700 1350
Wire Wire Line
	8650 1600 8650 1350
Wire Wire Line
	8550 1600 8650 1600
Wire Wire Line
	8550 1550 8550 1600
Wire Wire Line
	8150 1550 8150 1600
Wire Wire Line
	7350 1100 7350 1150
Wire Wire Line
	8150 1100 8150 1150
Wire Wire Line
	7800 1100 8150 1100
Wire Wire Line
	7800 1250 7800 1100
Wire Wire Line
	7800 1600 7800 1450
Wire Wire Line
	7350 1600 7800 1600
Wire Wire Line
	7350 1550 7350 1600
Wire Wire Line
	9000 1800 9000 1850
Wire Wire Line
	8550 1800 9650 1800
Wire Wire Line
	8550 1850 8550 1800
Wire Wire Line
	8650 2050 8700 2050
Wire Wire Line
	8650 2300 8650 2050
Wire Wire Line
	8550 2300 8650 2300
Wire Wire Line
	8550 2250 8550 2300
Wire Wire Line
	8150 2250 8150 2300
Wire Wire Line
	7350 1800 7350 1850
Wire Wire Line
	8150 1800 8150 1850
Wire Wire Line
	7800 1800 8150 1800
Wire Wire Line
	7800 1950 7800 1800
Wire Wire Line
	7800 2300 7800 2150
Wire Wire Line
	7350 2300 7800 2300
Wire Wire Line
	7350 2250 7350 2300
Wire Wire Line
	7350 4100 8450 4100
Wire Wire Line
	5350 5300 5350 5700
Wire Wire Line
	6650 5300 5350 5300
Wire Wire Line
	8400 4200 8650 4200
Wire Wire Line
	4900 3450 4900 4900
Wire Wire Line
	3750 3850 3750 2450
Wire Wire Line
	3700 3750 3700 2350
Wire Wire Line
	3650 1700 3650 3450
Wire Wire Line
	4650 4150 4650 2900
Wire Wire Line
	4600 4000 4600 2800
Connection ~ 5550 4900
Connection ~ 5550 3850
Wire Wire Line
	5150 3850 5550 3850
Connection ~ 5550 4000
Wire Wire Line
	5550 4000 5350 4000
Connection ~ 5550 4150
Wire Wire Line
	5550 4150 5150 4150
Connection ~ 5550 4300
Wire Wire Line
	5550 4300 5350 4300
Connection ~ 5550 4450
Wire Wire Line
	5550 4450 5150 4450
Connection ~ 5550 4600
Wire Wire Line
	5550 4600 5350 4600
Connection ~ 5550 4750
Wire Wire Line
	5550 4750 5150 4750
Wire Wire Line
	5550 4900 5350 4900
Wire Wire Line
	5550 3700 5550 5000
Wire Wire Line
	5350 3700 5550 3700
Connection ~ 4900 4900
Connection ~ 4850 4750
Connection ~ 4800 4600
Connection ~ 4750 4450
Connection ~ 4700 4300
Connection ~ 4650 4150
Connection ~ 4600 4000
Connection ~ 4550 3850
Connection ~ 4500 3700
Connection ~ 4900 3450
Wire Wire Line
	4450 4900 5150 4900
Connection ~ 4850 3350
Wire Wire Line
	4850 4750 4850 3350
Wire Wire Line
	4450 4750 4950 4750
Connection ~ 4800 3250
Wire Wire Line
	4800 4600 4800 3250
Wire Wire Line
	4450 4600 5150 4600
Connection ~ 4750 3150
Wire Wire Line
	4750 4450 4750 3150
Wire Wire Line
	4450 4450 4950 4450
Connection ~ 4700 3050
Wire Wire Line
	4700 4300 4700 3050
Wire Wire Line
	4450 4300 5150 4300
Connection ~ 4650 2900
Wire Wire Line
	4450 4150 4950 4150
Connection ~ 4600 2800
Wire Wire Line
	4450 4000 5150 4000
Connection ~ 4550 2700
Wire Wire Line
	4550 3850 4550 2700
Wire Wire Line
	4450 3850 4950 3850
Connection ~ 4500 2600
Wire Wire Line
	4500 3700 4500 2600
Wire Wire Line
	4450 3700 5150 3700
Connection ~ 4050 4600
Wire Wire Line
	4050 4600 4150 4600
Connection ~ 4050 4450
Wire Wire Line
	4050 4450 4150 4450
Connection ~ 4050 4300
Wire Wire Line
	4050 4300 4150 4300
Connection ~ 4050 4150
Wire Wire Line
	4050 4150 4150 4150
Connection ~ 4050 4000
Wire Wire Line
	4050 4000 4150 4000
Connection ~ 4050 3850
Wire Wire Line
	4050 3850 4150 3850
Wire Wire Line
	1200 4350 2100 4350
Wire Wire Line
	1200 4200 2100 4200
Wire Wire Line
	1200 4500 2100 4500
Wire Wire Line
	1200 3750 2100 3750
Wire Wire Line
	1200 3850 2100 3850
Wire Wire Line
	1200 3950 2100 3950
Wire Wire Line
	1200 3200 2100 3200
Wire Wire Line
	1200 3300 2100 3300
Wire Wire Line
	1200 3400 2100 3400
Wire Wire Line
	1200 3500 2100 3500
Wire Wire Line
	1200 3600 2100 3600
Wire Wire Line
	1200 2500 2100 2500
Wire Wire Line
	3400 2400 3400 2150
Wire Wire Line
	3400 2150 1200 2150
Wire Wire Line
	3400 2500 3450 2500
Wire Wire Line
	3450 2500 3450 2050
Wire Wire Line
	3450 2050 1200 2050
Wire Wire Line
	3500 2050 3500 3550
Wire Wire Line
	3500 3550 3400 3550
Wire Wire Line
	3500 1650 3500 1750
Wire Wire Line
	2750 1650 2750 2300
Wire Wire Line
	3000 1800 3050 1800
Wire Wire Line
	3050 1800 3050 1850
Connection ~ 2750 1800
Wire Wire Line
	2750 1800 2800 1800
Wire Wire Line
	3400 4400 3600 4400
Wire Wire Line
	3600 5850 3800 5850
Wire Wire Line
	3800 5950 3650 5950
Wire Wire Line
	3650 4300 3400 4300
Wire Wire Line
	3700 5500 3800 5500
Wire Wire Line
	3700 6300 3800 6300
Wire Wire Line
	3700 4200 3700 6300
Wire Wire Line
	3800 5600 3750 5600
Wire Wire Line
	3750 5600 3750 6450
Wire Wire Line
	3800 6200 3750 6200
Connection ~ 3750 6200
Wire Wire Line
	4200 5200 4200 5450
Connection ~ 4200 5250
Wire Wire Line
	4500 5250 4550 5250
Wire Wire Line
	4300 5250 4200 5250
Wire Wire Line
	5150 6600 5100 6600
Wire Wire Line
	5100 6550 5100 7350
Wire Wire Line
	5100 7350 5150 7350
Wire Wire Line
	5100 7200 5150 7200
Connection ~ 5100 7200
Wire Wire Line
	5100 7050 5150 7050
Connection ~ 5100 7050
Wire Wire Line
	5100 6900 5150 6900
Connection ~ 5100 6900
Wire Wire Line
	5100 6750 5150 6750
Connection ~ 5100 6750
Connection ~ 5100 6600
Wire Wire Line
	5300 5500 6000 5500
Wire Wire Line
	5550 5500 5550 6600
Wire Wire Line
	5450 6600 6200 6600
Wire Wire Line
	5300 5600 6500 5600
Wire Wire Line
	5650 6750 5650 5600
Wire Wire Line
	5450 6750 6400 6750
Wire Wire Line
	5300 6000 6000 6000
Wire Wire Line
	5750 6000 5750 6900
Wire Wire Line
	5450 6900 6200 6900
Wire Wire Line
	5300 6100 6500 6100
Wire Wire Line
	5850 7050 5850 6100
Wire Wire Line
	5450 7050 6400 7050
Wire Wire Line
	5300 6200 7000 6200
Wire Wire Line
	5950 6200 5950 7200
Wire Wire Line
	5450 7200 6200 7200
Wire Wire Line
	5300 6300 7500 6300
Wire Wire Line
	6050 7350 6050 6300
Wire Wire Line
	5450 7350 6400 7350
Connection ~ 5550 6600
Connection ~ 5650 6750
Connection ~ 5750 6900
Connection ~ 5850 7050
Connection ~ 5950 7200
Connection ~ 6050 7350
Wire Wire Line
	6400 6600 6650 6600
Wire Wire Line
	6650 6600 6650 7450
Wire Wire Line
	6600 6750 6650 6750
Connection ~ 6650 6750
Wire Wire Line
	6650 6900 6400 6900
Connection ~ 6650 6900
Wire Wire Line
	6650 7050 6600 7050
Connection ~ 6650 7050
Wire Wire Line
	6650 7200 6400 7200
Connection ~ 6650 7200
Wire Wire Line
	6650 7350 6600 7350
Connection ~ 6650 7350
Connection ~ 5550 5500
Connection ~ 5650 5600
Connection ~ 5750 6000
Connection ~ 5850 6100
Connection ~ 5950 6200
Connection ~ 6050 6300
Wire Wire Line
	5350 5700 5300 5700
Wire Wire Line
	6650 4550 6650 5300
Wire Wire Line
	5450 5800 5300 5800
Wire Wire Line
	5450 5350 5450 5800
Wire Wire Line
	6200 5500 7100 5500
Wire Wire Line
	7100 5500 7100 5700
Wire Wire Line
	7100 5700 10300 5700
Wire Wire Line
	6700 5600 10300 5600
Wire Wire Line
	6200 6000 10300 6000
Wire Wire Line
	6700 6100 10300 6100
Wire Wire Line
	7200 6200 10300 6200
Wire Wire Line
	7700 6300 10300 6300
Wire Wire Line
	10050 4000 9950 4000
Wire Wire Line
	9950 4000 9950 5500
Wire Wire Line
	9350 5500 10300 5500
Wire Wire Line
	10050 3800 9900 3800
Wire Wire Line
	9900 3800 9900 5300
Wire Wire Line
	9450 5300 10300 5300
Wire Wire Line
	10050 3600 9850 3600
Wire Wire Line
	9850 3600 9850 5200
Wire Wire Line
	9500 5200 10300 5200
Wire Wire Line
	10050 3700 9600 3700
Wire Wire Line
	9600 2800 9600 4900
Wire Wire Line
	9600 4900 10300 4900
Wire Wire Line
	10050 3900 9550 3900
Wire Wire Line
	9550 2900 9550 5000
Wire Wire Line
	9550 5000 10300 5000
Wire Wire Line
	7000 4800 7000 4900
Wire Wire Line
	7050 4850 7000 4850
Connection ~ 7000 4850
Wire Wire Line
	7250 4850 7350 4850
Wire Wire Line
	7300 4850 7300 4900
Wire Wire Line
	8050 4800 8050 4900
Wire Wire Line
	8100 4850 8050 4850
Connection ~ 8050 4850
Wire Wire Line
	8300 4850 8400 4850
Wire Wire Line
	8350 4850 8350 4900
Wire Wire Line
	7700 4550 7700 5350
Connection ~ 7700 4600
Connection ~ 6650 4600
Wire Wire Line
	8350 5100 8350 5150
Wire Wire Line
	7300 5100 7300 5150
Wire Wire Line
	8850 4200 10050 4200
Wire Wire Line
	8400 4850 8400 4200
Connection ~ 8350 4850
Wire Wire Line
	7350 4850 7350 4100
Connection ~ 7300 4850
Wire Wire Line
	6650 4600 6700 4600
Wire Wire Line
	7700 5350 5450 5350
Wire Wire Line
	7700 4600 7750 4600
Wire Wire Line
	7700 4250 7700 4350
Wire Wire Line
	6650 4250 6650 4350
Wire Wire Line
	8050 5100 8050 5150
Wire Wire Line
	7000 5100 7000 5150
Wire Wire Line
	6650 4300 7000 4300
Wire Wire Line
	7000 4300 7000 4400
Connection ~ 6650 4300
Wire Wire Line
	7700 4300 8050 4300
Wire Wire Line
	8050 4300 8050 4400
Connection ~ 7700 4300
Wire Wire Line
	9600 2800 7300 2800
Wire Wire Line
	3400 2800 7000 2800
Connection ~ 9600 3700
Wire Wire Line
	3400 2900 7250 2900
Wire Wire Line
	7550 2900 9550 2900
Connection ~ 9550 3900
Wire Wire Line
	3400 2700 6750 2700
Wire Wire Line
	7050 2700 9500 2700
Wire Wire Line
	9500 2700 9500 5200
Connection ~ 9850 5200
Wire Wire Line
	3400 2600 6500 2600
Wire Wire Line
	6800 2600 9450 2600
Wire Wire Line
	9450 2600 9450 5300
Connection ~ 9900 5300
Wire Wire Line
	9350 5500 9350 3050
Wire Wire Line
	9350 3050 7800 3050
Wire Wire Line
	3400 3050 7500 3050
Connection ~ 9950 5500
Wire Wire Line
	10300 5100 9400 5100
Wire Wire Line
	9400 5100 9400 3150
Wire Wire Line
	9400 3150 8050 3150
Wire Wire Line
	3400 3150 7750 3150
Wire Wire Line
	10300 5800 9300 5800
Wire Wire Line
	9300 5800 9300 3250
Wire Wire Line
	9300 3250 8300 3250
Wire Wire Line
	3400 3250 8000 3250
Wire Wire Line
	10300 5900 9250 5900
Wire Wire Line
	9250 5900 9250 3350
Wire Wire Line
	9250 3350 8550 3350
Wire Wire Line
	3400 3350 8250 3350
Wire Wire Line
	10300 5400 9200 5400
Wire Wire Line
	9200 5400 9200 3450
Wire Wire Line
	9200 3450 8800 3450
Wire Wire Line
	3900 3450 8500 3450
Wire Wire Line
	3900 3450 3900 4100
Wire Wire Line
	3900 4100 3400 4100
Wire Wire Line
	3800 4000 3400 4000
Wire Wire Line
	3400 3850 3750 3850
Wire Wire Line
	3650 3450 3400 3450
Wire Wire Line
	3400 3750 3700 3750
Wire Wire Line
	3400 3650 3600 3650
Wire Wire Line
	4050 3650 4050 4900
Wire Wire Line
	4050 4900 4150 4900
Wire Wire Line
	4050 4750 4150 4750
Connection ~ 4050 4750
Wire Wire Line
	4150 3700 4050 3700
Connection ~ 4050 3700
Wire Wire Line
	3650 5950 3650 4300
Wire Wire Line
	3600 4400 3600 5850
Wire Wire Line
	3600 3650 3600 1450
Wire Wire Line
	3900 700  3900 650 
Connection ~ 3900 650 
Wire Wire Line
	5650 2350 5650 2050
Wire Wire Line
	4850 950  4850 1450
Wire Wire Line
	5650 1000 5150 1000
Wire Wire Line
	5150 950  5150 1100
Wire Wire Line
	5150 950  5100 950 
Wire Wire Line
	5150 1100 5100 1100
Connection ~ 5150 1000
Wire Wire Line
	4500 950  4900 950 
Connection ~ 4850 1300
Wire Wire Line
	4900 1100 4850 1100
Connection ~ 4850 1100
Wire Wire Line
	3650 1700 3700 1700
Wire Wire Line
	3900 1700 4050 1700
Wire Wire Line
	3700 2100 3650 2100
Connection ~ 3650 2100
Wire Wire Line
	4000 2100 4050 2100
Wire Wire Line
	4050 2100 4050 2150
Wire Wire Line
	5050 1600 5100 1600
Wire Wire Line
	5100 1800 5050 1800
Wire Wire Line
	4200 2100 4800 2100
Wire Wire Line
	5100 1600 5100 1450
Wire Wire Line
	5100 1800 5100 2150
Wire Wire Line
	5000 2100 5100 2100
Connection ~ 5100 2100
Wire Wire Line
	5100 1450 4850 1450
Wire Wire Line
	4200 2100 4200 850 
Wire Wire Line
	4200 850  5450 850 
Connection ~ 4650 2100
Wire Wire Line
	5450 850  5450 900 
Wire Wire Line
	5900 1200 5850 1200
Wire Wire Line
	5900 1050 5900 1200
Wire Wire Line
	5900 1100 5650 1100
Wire Wire Line
	5650 1100 5650 1000
Connection ~ 5900 1100
Wire Wire Line
	4650 1200 4650 1300
Connection ~ 4650 1250
Wire Wire Line
	4800 1250 4800 1500
Wire Wire Line
	4800 1500 5350 1500
Wire Wire Line
	5350 1500 5350 1750
Wire Wire Line
	5350 1750 5450 1750
Wire Wire Line
	5450 1700 5450 1850
Connection ~ 5450 1750
Wire Wire Line
	4650 1250 4800 1250
$Comp
L GND #PWR0133
U 1 1 561B695F
P 5450 2100
F 0 "#PWR0133" H 5450 1850 50  0001 C CNN
F 1 "GND" H 5450 1950 50  0000 C CNN
F 2 "" H 5450 2100 60  0000 C CNN
F 3 "" H 5450 2100 60  0000 C CNN
	1    5450 2100
	1    0    0    -1  
$EndComp
Wire Wire Line
	5450 2050 5450 2100
$Comp
L R_Small R412
U 1 1 561B91FF
P 4400 950
F 0 "R412" V 4350 1050 50  0000 L CNN
F 1 "120k" V 4500 950 50  0000 C CNN
F 2 "" H 4400 950 60  0000 C CNN
F 3 "" H 4400 950 60  0000 C CNN
	1    4400 950 
	0    1    1    0   
$EndComp
Connection ~ 4850 950 
Wire Wire Line
	4000 1700 4000 1550
Wire Wire Line
	4000 1550 4250 1550
Wire Wire Line
	4250 1550 4250 950 
Wire Wire Line
	4250 950  4300 950 
Connection ~ 4000 1700
$EndSCHEMATC
