EESchema Schematic File Version 2
EELAYER 25 0
EELAYER END
$Descr A4 11693 8268
encoding utf-8
Sheet 9 10
Title "TI-99/4A"
Date "2015-09-28"
Rev "1"
Comp "HackMac"
Comment1 "Schematic for sound device"
Comment2 ""
Comment3 ""
Comment4 ""
$EndDescr
Text HLabel 7050 3900 2    60   Input ~ 0
U511-9
Text Label 7000 3900 2    60   ~ 0
SNDIN
$Comp
L SN76489 U511
U 1 1 560F62CB
P 5750 3350
F 0 "U511" H 6100 3850 60  0000 R CNN
F 1 "SN76489" V 5750 3350 60  0000 C CNN
F 2 "Sockets_DIP:DIP-16__300" H 5750 3350 60  0001 C CNN
F 3 "" H 5750 3350 60  0000 C CNN
	1    5750 3350
	1    0    0    -1  
$EndComp
Text HLabel 7050 4000 2    60   Output ~ 0
C503
Wire Wire Line
	5200 3700 5150 3700
Wire Wire Line
	5150 3700 5150 3900
Wire Wire Line
	5150 3900 7050 3900
$Comp
L CP1_Small C503
U 1 1 560D5D77
P 6350 4000
F 0 "C503" V 6250 4000 50  0000 C CNN
F 1 "100µ" V 6400 3750 50  0000 L CNN
F 2 "" H 6350 4000 60  0001 C CNN
F 3 "" H 6350 4000 60  0000 C CNN
	1    6350 4000
	0    -1   -1   0   
$EndComp
Wire Wire Line
	6450 4000 7050 4000
Wire Wire Line
	5200 3600 5100 3600
Wire Wire Line
	5100 3600 5100 4000
Wire Wire Line
	5100 4000 6250 4000
$Comp
L CP1_Small C502
U 1 1 560D653B
P 6100 4200
F 0 "C502" H 6000 4250 50  0000 R CNN
F 1 "0.1µ" H 6000 4150 50  0000 R CNN
F 2 "" H 6100 4200 60  0001 C CNN
F 3 "" H 6100 4200 60  0000 C CNN
	1    6100 4200
	1    0    0    -1  
$EndComp
Wire Wire Line
	6100 4100 6100 4000
Connection ~ 6100 4000
$Comp
L R_Small R511
U 1 1 560D65EE
P 6100 4450
F 0 "R511" H 6150 4500 50  0000 L CNN
F 1 "10" H 6150 4400 50  0000 L CNN
F 2 "Resistors_ThroughHole:Resistor_Horizontal_RM10mm" H 6100 4450 60  0001 C CNN
F 3 "" H 6100 4450 60  0000 C CNN
	1    6100 4450
	1    0    0    -1  
$EndComp
$Comp
L GND #PWR070
U 1 1 560D6612
P 6100 4650
F 0 "#PWR070" H 6100 4400 50  0001 C CNN
F 1 "GND" H 6100 4500 50  0000 C CNN
F 2 "" H 6100 4650 60  0000 C CNN
F 3 "" H 6100 4650 60  0000 C CNN
	1    6100 4650
	1    0    0    -1  
$EndComp
Wire Wire Line
	6100 4300 6100 4350
Wire Wire Line
	6100 4550 6100 4650
Wire Bus Line
	6550 2750 6550 3600
Wire Bus Line
	6550 2750 4200 2750
Wire Bus Line
	4200 2750 4200 3600
Entry Wire Line
	6450 3700 6550 3600
Entry Wire Line
	6450 3000 6550 2900
Entry Wire Line
	6450 3100 6550 3000
Entry Wire Line
	6450 3200 6550 3100
Entry Wire Line
	6450 3300 6550 3200
Entry Wire Line
	6450 3400 6550 3300
Entry Wire Line
	6450 3500 6550 3400
Entry Wire Line
	6450 3600 6550 3500
Wire Wire Line
	6300 3000 6450 3000
Wire Wire Line
	6300 3100 6450 3100
Wire Wire Line
	6300 3200 6450 3200
Wire Wire Line
	6300 3300 6450 3300
Wire Wire Line
	6300 3400 6450 3400
Wire Wire Line
	6300 3500 6450 3500
Wire Wire Line
	6300 3600 6450 3600
Wire Wire Line
	6300 3700 6450 3700
Text Label 6300 3000 0    60   ~ 0
D0
Text Label 6300 3100 0    60   ~ 0
D1
Text Label 6300 3200 0    60   ~ 0
D2
Text Label 6300 3300 0    60   ~ 0
D3
Text Label 6300 3400 0    60   ~ 0
D4
Text Label 6300 3500 0    60   ~ 0
D5
Text Label 6300 3600 0    60   ~ 0
D6
Text Label 6300 3700 0    60   ~ 0
D7
Entry Wire Line
	4100 3000 4200 2900
Entry Wire Line
	4100 3100 4200 3000
Entry Wire Line
	4100 3200 4200 3100
Entry Wire Line
	4100 3300 4200 3200
Entry Wire Line
	4100 3400 4200 3300
Entry Wire Line
	4100 3500 4200 3400
Entry Wire Line
	4100 3600 4200 3500
Entry Wire Line
	4100 3700 4200 3600
Text HLabel 3950 3000 0    60   BiDi ~ 0
MUX_D0
Text HLabel 3950 3100 0    60   BiDi ~ 0
MUX_D1
Text HLabel 3950 3200 0    60   BiDi ~ 0
MUX_D2
Text HLabel 3950 3300 0    60   BiDi ~ 0
MUX_D3
Text HLabel 3950 3400 0    60   BiDi ~ 0
MUX_D4
Text HLabel 3950 3500 0    60   BiDi ~ 0
MUX_D5
Text HLabel 3950 3600 0    60   BiDi ~ 0
MUX_D6
Text HLabel 3950 3700 0    60   BiDi ~ 0
MUX_D7
Wire Wire Line
	3950 3000 4100 3000
Wire Wire Line
	3950 3100 4100 3100
Wire Wire Line
	3950 3200 4100 3200
Wire Wire Line
	3950 3300 4100 3300
Wire Wire Line
	3950 3400 4100 3400
Wire Wire Line
	3950 3500 4100 3500
Wire Wire Line
	3950 3600 4100 3600
Wire Wire Line
	3950 3700 4100 3700
Text Label 4000 3000 0    60   ~ 0
D0
Text Label 4000 3100 0    60   ~ 0
D1
Text Label 4000 3200 0    60   ~ 0
D2
Text Label 4000 3300 0    60   ~ 0
D3
Text Label 4000 3400 0    60   ~ 0
D4
Text Label 4000 3500 0    60   ~ 0
D5
Text Label 4000 3600 0    60   ~ 0
D6
Text Label 4000 3700 0    60   ~ 0
D7
Text Label 7000 4000 2    60   ~ 0
SNDOUT
Wire Bus Line
	4600 3100 4600 4200
Entry Wire Line
	4600 3100 4700 3000
Entry Wire Line
	4600 3200 4700 3100
Entry Wire Line
	4600 3400 4700 3300
Entry Wire Line
	4600 3550 4700 3450
Wire Wire Line
	4700 3000 5200 3000
Wire Wire Line
	4700 3100 5200 3100
Wire Wire Line
	4700 3300 5200 3300
Wire Wire Line
	4700 3450 5200 3450
Entry Wire Line
	4500 4000 4600 3900
Entry Wire Line
	4500 4100 4600 4000
Entry Wire Line
	4500 4200 4600 4100
Entry Wire Line
	4500 4300 4600 4200
Text HLabel 3950 4000 0    60   Input ~ 0
U505-14
Text Label 4500 4000 2    60   ~ 0
~SND_EN
Wire Wire Line
	3950 4000 4500 4000
Text Label 4700 3100 0    60   ~ 0
~SND_EN
Text HLabel 3950 4100 0    60   Input ~ 0
U606-3
Wire Wire Line
	3950 4100 4500 4100
Text Label 4500 4100 2    60   ~ 0
~mWE
Text Label 4700 3000 0    60   ~ 0
~mWE
Text HLabel 3950 4200 0    60   Input ~ 0
U100-37
Wire Wire Line
	3950 4200 4500 4200
Text Label 4500 4200 2    60   ~ 0
GRMCLK
Text Label 4700 3300 0    60   ~ 0
GRMCLK
Text HLabel 3950 4300 0    60   Input ~ 0
U506-3
Wire Wire Line
	3950 4300 4500 4300
Text Label 4500 4300 2    60   ~ 0
READY/~HOLD
Text Label 4700 3450 0    60   ~ 0
READY/~HOLD
$Comp
L INDUCTOR_SMALL L500
U 1 1 560DB5B6
P 5450 2550
F 0 "L500" H 5450 2650 50  0000 C CNN
F 1 "6.8µ" H 5450 2500 50  0000 C CNN
F 2 "Resistors_ThroughHole:Resistor_Horizontal_RM15mm" H 5450 2550 60  0001 C CNN
F 3 "" H 5450 2550 60  0000 C CNN
	1    5450 2550
	1    0    0    -1  
$EndComp
$Comp
L C_Small C501
U 1 1 560DB5E0
P 5900 2550
F 0 "C501" V 5800 2550 50  0000 C CNN
F 1 "0.1" V 6000 2550 50  0000 C CNN
F 2 "" H 5900 2550 60  0001 C CNN
F 3 "" H 5900 2550 60  0000 C CNN
	1    5900 2550
	0    1    1    0   
$EndComp
Wire Wire Line
	5700 2550 5800 2550
Wire Wire Line
	5750 2900 5750 2550
Connection ~ 5750 2550
$Comp
L GND #PWR071
U 1 1 560DBB20
P 6150 2550
F 0 "#PWR071" H 6150 2300 50  0001 C CNN
F 1 "GND" H 6150 2400 50  0000 C CNN
F 2 "" H 6150 2550 60  0000 C CNN
F 3 "" H 6150 2550 60  0000 C CNN
	1    6150 2550
	1    0    0    -1  
$EndComp
$Comp
L +5V #PWR072
U 1 1 560DBB46
P 5050 2550
F 0 "#PWR072" H 5050 2400 50  0001 C CNN
F 1 "+5V" H 5050 2690 50  0000 C CNN
F 2 "" H 5050 2550 60  0000 C CNN
F 3 "" H 5050 2550 60  0000 C CNN
	1    5050 2550
	1    0    0    -1  
$EndComp
Wire Wire Line
	5050 2550 5200 2550
Wire Wire Line
	6000 2550 6150 2550
$EndSCHEMATC
