EESchema Schematic File Version 2
EELAYER 25 0
EELAYER END
$Descr A4 11693 8268
encoding utf-8
Sheet 9 10
Title "TI-99/4A"
Date "2015-09-28"
Rev "1"
Comp "HackMac"
Comment1 "Schematic for video display processor"
Comment2 ""
Comment3 ""
Comment4 ""
$EndDescr
Text HLabel 1300 1850 0    60   BiDi ~ 0
U600-41
Text HLabel 1300 1950 0    60   BiDi ~ 0
U600-42
Text HLabel 1300 2050 0    60   BiDi ~ 0
U600-43
Text HLabel 1300 2150 0    60   BiDi ~ 0
U600-44
Text HLabel 1300 2250 0    60   BiDi ~ 0
U600-45
Text HLabel 1300 2350 0    60   BiDi ~ 0
U600-46
Text HLabel 1300 2450 0    60   BiDi ~ 0
U600-47
Text HLabel 1300 2550 0    60   BiDi ~ 0
U600-48
Text Label 1350 1850 0    60   ~ 0
D0
Text Label 1350 1950 0    60   ~ 0
D1
Text Label 1350 2050 0    60   ~ 0
D2
Text Label 1350 2150 0    60   ~ 0
D3
Text Label 1350 2250 0    60   ~ 0
D4
Text Label 1350 2350 0    60   ~ 0
D5
Text Label 1350 2450 0    60   ~ 0
D6
Text Label 1350 2550 0    60   ~ 0
D7
Text HLabel 1300 2700 0    60   Output ~ 0
U100-37
Text Label 1350 2700 0    60   ~ 0
SGCCLK
Text HLabel 1300 1500 0    60   Input ~ 0
U505-13
Text Label 1350 1500 0    60   ~ 0
~VDPR_EN
Text Label 1350 1250 0    60   ~ 0
~VDPW_EN
Text Label 1350 1700 0    60   ~ 0
A14
Text HLabel 1300 1700 0    60   Input ~ 0
U600-10
Text HLabel 1300 1250 0    60   Input ~ 0
U505-12
$Comp
L 74LS32 U507
U 2 1 560F9EAE
P 2350 1150
F 0 "U507" H 2350 1200 60  0000 C CNN
F 1 "74LS32" H 2350 1100 60  0000 C CNN
F 2 "Sockets_DIP:DIP-14__300" H 2350 1150 60  0001 C CNN
F 3 "" H 2350 1150 60  0000 C CNN
	2    2350 1150
	1    0    0    1   
$EndComp
Text HLabel 1300 1050 0    60   Input ~ 0
U606-3
Text Label 1350 1050 0    60   ~ 0
~mWE
Text HLabel 1300 2800 0    60   Output ~ 0
U300-18
Text Label 1350 2800 0    60   ~ 0
VDPINT
Text HLabel 1300 2900 0    60   Input ~ 0
U601-4
Text Label 1350 2900 0    60   ~ 0
~RESET
$Comp
L TMS4116 U109
U 1 1 561089CD
P 5100 2050
F 0 "U109" H 5400 2750 60  0000 R CNN
F 1 "TMS4116" V 5100 2050 60  0000 C CNN
F 2 "Sockets_DIP:DIP-16__300" H 5100 2050 60  0001 C CNN
F 3 "" H 5100 2050 60  0000 C CNN
	1    5100 2050
	1    0    0    -1  
$EndComp
$Comp
L TMS4116 U107
U 1 1 56108A21
P 6350 2050
F 0 "U107" H 6650 2750 60  0000 R CNN
F 1 "TMS4116" V 6350 2050 60  0000 C CNN
F 2 "Sockets_DIP:DIP-16__300" H 6350 2050 60  0001 C CNN
F 3 "" H 6350 2050 60  0000 C CNN
	1    6350 2050
	1    0    0    -1  
$EndComp
$Comp
L TMS4116 U106
U 1 1 56108A48
P 7600 2050
F 0 "U106" H 7900 2750 60  0000 R CNN
F 1 "TMS4116" V 7600 2050 60  0000 C CNN
F 2 "Sockets_DIP:DIP-16__300" H 7600 2050 60  0001 C CNN
F 3 "" H 7600 2050 60  0000 C CNN
	1    7600 2050
	1    0    0    -1  
$EndComp
$Comp
L TMS4116 U105
U 1 1 56108A7D
P 8850 2050
F 0 "U105" H 9150 2750 60  0000 R CNN
F 1 "TMS4116" V 8850 2050 60  0000 C CNN
F 2 "Sockets_DIP:DIP-16__300" H 8850 2050 60  0001 C CNN
F 3 "" H 8850 2050 60  0000 C CNN
	1    8850 2050
	1    0    0    -1  
$EndComp
Entry Wire Line
	4250 1500 4350 1400
Entry Wire Line
	4250 1650 4350 1550
Entry Wire Line
	4250 1750 4350 1650
Entry Wire Line
	4250 1900 4350 1800
Entry Wire Line
	4250 2000 4350 1900
Entry Wire Line
	4250 2100 4350 2000
Entry Wire Line
	4250 2200 4350 2100
Entry Wire Line
	4250 2300 4350 2200
Entry Wire Line
	4250 2400 4350 2300
Entry Wire Line
	4250 2500 4350 2400
Text Label 4100 1500 0    60   ~ 0
~W
Text Label 4100 1650 0    60   ~ 0
~RAS
Text Label 4100 1750 0    60   ~ 0
~CAS
Text Label 4100 1900 0    60   ~ 0
A0
Text Label 4100 2000 0    60   ~ 0
A1
Text Label 4100 2100 0    60   ~ 0
A2
Text Label 4100 2200 0    60   ~ 0
A3
Text Label 4100 2300 0    60   ~ 0
A4
Text Label 4100 2400 0    60   ~ 0
A5
Text Label 4100 2500 0    60   ~ 0
A6
Entry Wire Line
	4350 1400 4450 1500
Entry Wire Line
	4350 1550 4450 1650
Entry Wire Line
	4350 1650 4450 1750
Entry Wire Line
	4350 1800 4450 1900
Entry Wire Line
	4350 1900 4450 2000
Entry Wire Line
	4350 2000 4450 2100
Entry Wire Line
	4350 2100 4450 2200
Entry Wire Line
	4350 2200 4450 2300
Entry Wire Line
	4350 2300 4450 2400
Entry Wire Line
	4350 2400 4450 2500
Text Label 4600 1500 2    60   ~ 0
~W
Text Label 4600 1650 2    60   ~ 0
~RAS
Text Label 4600 1750 2    60   ~ 0
~CAS
Text Label 4600 1900 2    60   ~ 0
A0
Text Label 4600 2000 2    60   ~ 0
A1
Text Label 4600 2100 2    60   ~ 0
A2
Text Label 4600 2200 2    60   ~ 0
A3
Text Label 4600 2300 2    60   ~ 0
A4
Text Label 4600 2400 2    60   ~ 0
A5
Text Label 4600 2500 2    60   ~ 0
A6
Entry Wire Line
	5600 1400 5700 1500
Entry Wire Line
	5600 1550 5700 1650
Entry Wire Line
	5600 1650 5700 1750
Entry Wire Line
	5600 1800 5700 1900
Entry Wire Line
	5600 1900 5700 2000
Entry Wire Line
	5600 2000 5700 2100
Entry Wire Line
	5600 2100 5700 2200
Entry Wire Line
	5600 2200 5700 2300
Entry Wire Line
	5600 2300 5700 2400
Entry Wire Line
	5600 2400 5700 2500
Entry Wire Line
	6850 1400 6950 1500
Entry Wire Line
	6850 1550 6950 1650
Entry Wire Line
	6850 1650 6950 1750
Entry Wire Line
	6850 1800 6950 1900
Entry Wire Line
	6850 1900 6950 2000
Entry Wire Line
	6850 2000 6950 2100
Entry Wire Line
	6850 2100 6950 2200
Entry Wire Line
	6850 2200 6950 2300
Entry Wire Line
	6850 2300 6950 2400
Entry Wire Line
	6850 2400 6950 2500
Entry Wire Line
	8100 1400 8200 1500
Entry Wire Line
	8100 1550 8200 1650
Entry Wire Line
	8100 1650 8200 1750
Entry Wire Line
	8100 1800 8200 1900
Entry Wire Line
	8100 1900 8200 2000
Entry Wire Line
	8100 2000 8200 2100
Entry Wire Line
	8100 2100 8200 2200
Entry Wire Line
	8100 2200 8200 2300
Entry Wire Line
	8100 2300 8200 2400
Entry Wire Line
	8100 2400 8200 2500
$Comp
L TMS9928A U100
U 1 1 5610B83D
P 3550 2450
F 0 "U100" H 3900 3550 60  0000 R CNN
F 1 "TMS9928A" V 3550 2450 60  0000 C CNN
F 2 "Sockets_DIP:DIP-40__600" H 3550 2450 60  0001 C CNN
F 3 "" H 3550 2450 60  0000 C CNN
	1    3550 2450
	1    0    0    -1  
$EndComp
$Comp
L TMS4116 U102
U 1 1 5610C66E
P 5100 4150
F 0 "U102" H 5400 4850 60  0000 R CNN
F 1 "TMS4116" V 5100 4150 60  0000 C CNN
F 2 "Sockets_DIP:DIP-16__300" H 5100 4150 60  0001 C CNN
F 3 "" H 5100 4150 60  0000 C CNN
	1    5100 4150
	1    0    0    1   
$EndComp
$Comp
L TMS4116 U104
U 1 1 5610C6CF
P 6350 4150
F 0 "U104" H 6650 4850 60  0000 R CNN
F 1 "TMS4116" V 6350 4150 60  0000 C CNN
F 2 "Sockets_DIP:DIP-16__300" H 6350 4150 60  0001 C CNN
F 3 "" H 6350 4150 60  0000 C CNN
	1    6350 4150
	1    0    0    1   
$EndComp
$Comp
L TMS4116 U108
U 1 1 5610C744
P 7600 4150
F 0 "U108" H 7900 4850 60  0000 R CNN
F 1 "TMS4116" V 7600 4150 60  0000 C CNN
F 2 "Sockets_DIP:DIP-16__300" H 7600 4150 60  0001 C CNN
F 3 "" H 7600 4150 60  0000 C CNN
	1    7600 4150
	1    0    0    1   
$EndComp
$Comp
L TMS4116 U103
U 1 1 5610C77C
P 8850 4150
F 0 "U103" H 9150 4850 60  0000 R CNN
F 1 "TMS4116" V 8850 4150 60  0000 C CNN
F 2 "Sockets_DIP:DIP-16__300" H 8850 4150 60  0001 C CNN
F 3 "" H 8850 4150 60  0000 C CNN
	1    8850 4150
	1    0    0    1   
$EndComp
Entry Wire Line
	8100 3800 8200 3700
Entry Wire Line
	8100 3900 8200 3800
Entry Wire Line
	8100 4000 8200 3900
Entry Wire Line
	8100 4100 8200 4000
Entry Wire Line
	8100 4200 8200 4100
Entry Wire Line
	8100 4300 8200 4200
Entry Wire Line
	8100 4400 8200 4300
Entry Wire Line
	8100 4550 8200 4450
Entry Wire Line
	8100 4650 8200 4550
Entry Wire Line
	8100 4800 8200 4700
Entry Wire Line
	6850 3800 6950 3700
Entry Wire Line
	6850 3900 6950 3800
Entry Wire Line
	6850 4000 6950 3900
Entry Wire Line
	6850 4100 6950 4000
Entry Wire Line
	6850 4200 6950 4100
Entry Wire Line
	6850 4300 6950 4200
Entry Wire Line
	6850 4400 6950 4300
Entry Wire Line
	5600 3800 5700 3700
Entry Wire Line
	5600 3900 5700 3800
Entry Wire Line
	5600 4000 5700 3900
Entry Wire Line
	5600 4100 5700 4000
Entry Wire Line
	5600 4200 5700 4100
Entry Wire Line
	5600 4300 5700 4200
Entry Wire Line
	5600 4400 5700 4300
Entry Wire Line
	5600 4550 5700 4450
Entry Wire Line
	5600 4650 5700 4550
Entry Wire Line
	5600 4800 5700 4700
Entry Wire Line
	6850 4800 6950 4700
Entry Wire Line
	6850 4550 6950 4450
Entry Wire Line
	6850 4650 6950 4550
Entry Wire Line
	4350 3800 4450 3700
Entry Wire Line
	4350 3900 4450 3800
Entry Wire Line
	4350 4000 4450 3900
Entry Wire Line
	4350 4100 4450 4000
Entry Wire Line
	4350 4200 4450 4100
Entry Wire Line
	4350 4300 4450 4200
Entry Wire Line
	4350 4400 4450 4300
Entry Wire Line
	4350 4550 4450 4450
Entry Wire Line
	4350 4650 4450 4550
Entry Wire Line
	4350 4800 4450 4700
Text Label 4600 4700 2    60   ~ 0
~W
Text Label 5850 4700 2    60   ~ 0
~W
Text Label 7100 4700 2    60   ~ 0
~W
Text Label 8350 4700 2    60   ~ 0
~W
Text Label 4600 4550 2    60   ~ 0
~RAS
Text Label 5850 4550 2    60   ~ 0
~RAS
Text Label 7100 4550 2    60   ~ 0
~RAS
Text Label 8350 4550 2    60   ~ 0
~RAS
Text Label 8350 4450 2    60   ~ 0
~CAS
Text Label 4600 4450 2    60   ~ 0
~CAS
Text Label 5850 4450 2    60   ~ 0
~CAS
Text Label 7100 4450 2    60   ~ 0
~CAS
Text Label 4600 4300 2    60   ~ 0
A0
Text Label 4600 4200 2    60   ~ 0
A1
Text Label 4600 4100 2    60   ~ 0
A2
Text Label 4600 4000 2    60   ~ 0
A3
Text Label 4600 3900 2    60   ~ 0
A4
Text Label 4600 3800 2    60   ~ 0
A5
Text Label 4600 3700 2    60   ~ 0
A6
Text Label 5850 4300 2    60   ~ 0
A0
Text Label 5850 4200 2    60   ~ 0
A1
Text Label 5850 4100 2    60   ~ 0
A2
Text Label 5850 4000 2    60   ~ 0
A3
Text Label 5850 3900 2    60   ~ 0
A4
Text Label 5850 3800 2    60   ~ 0
A5
Text Label 5850 3700 2    60   ~ 0
A6
Text Label 7100 4300 2    60   ~ 0
A0
Text Label 7100 4200 2    60   ~ 0
A1
Text Label 7100 4100 2    60   ~ 0
A2
Text Label 7100 4000 2    60   ~ 0
A3
Text Label 7100 3900 2    60   ~ 0
A4
Text Label 7100 3800 2    60   ~ 0
A5
Text Label 7100 3700 2    60   ~ 0
A6
Text Label 8350 4300 2    60   ~ 0
A0
Text Label 8350 4200 2    60   ~ 0
A1
Text Label 8350 4100 2    60   ~ 0
A2
Text Label 8350 4000 2    60   ~ 0
A3
Text Label 8350 3900 2    60   ~ 0
A4
Text Label 8350 3800 2    60   ~ 0
A5
Text Label 8350 3700 2    60   ~ 0
A6
Text Label 5850 1900 2    60   ~ 0
A0
Text Label 5850 2000 2    60   ~ 0
A1
Text Label 5850 2100 2    60   ~ 0
A2
Text Label 5850 2200 2    60   ~ 0
A3
Text Label 5850 2300 2    60   ~ 0
A4
Text Label 5850 2400 2    60   ~ 0
A5
Text Label 5850 2500 2    60   ~ 0
A6
Text Label 7100 1900 2    60   ~ 0
A0
Text Label 7100 2000 2    60   ~ 0
A1
Text Label 7100 2100 2    60   ~ 0
A2
Text Label 7100 2200 2    60   ~ 0
A3
Text Label 7100 2300 2    60   ~ 0
A4
Text Label 7100 2400 2    60   ~ 0
A5
Text Label 7100 2500 2    60   ~ 0
A6
Text Label 8350 1900 2    60   ~ 0
A0
Text Label 8350 2000 2    60   ~ 0
A1
Text Label 8350 2100 2    60   ~ 0
A2
Text Label 8350 2200 2    60   ~ 0
A3
Text Label 8350 2300 2    60   ~ 0
A4
Text Label 8350 2400 2    60   ~ 0
A5
Text Label 8350 2500 2    60   ~ 0
A6
Text Label 5850 1500 2    60   ~ 0
~W
Text Label 8350 1500 2    60   ~ 0
~W
Text Label 7100 1500 2    60   ~ 0
~W
Text Label 5850 1650 2    60   ~ 0
~RAS
Text Label 7100 1650 2    60   ~ 0
~RAS
Text Label 8350 1650 2    60   ~ 0
~RAS
Text Label 5850 1750 2    60   ~ 0
~CAS
Text Label 7100 1750 2    60   ~ 0
~CAS
Text Label 8350 1750 2    60   ~ 0
~CAS
$Comp
L CONN_01X06 J201
U 1 1 56110D2D
P 10850 5900
F 0 "J201" H 10850 6250 50  0000 C CNN
F 1 "CONN_01X06" V 10950 5900 50  0000 C CNN
F 2 "" H 10850 5900 60  0001 C CNN
F 3 "" H 10850 5900 60  0000 C CNN
	1    10850 5900
	1    0    0    -1  
$EndComp
$Comp
L +12V #PWR073
U 1 1 56111077
P 10950 1750
F 0 "#PWR073" H 10950 1600 50  0001 C CNN
F 1 "+12V" H 10950 1890 50  0000 C CNN
F 2 "" H 10950 1750 60  0000 C CNN
F 3 "" H 10950 1750 60  0000 C CNN
	1    10950 1750
	1    0    0    -1  
$EndComp
$Comp
L +5V #PWR074
U 1 1 561110AC
P 10650 1750
F 0 "#PWR074" H 10650 1600 50  0001 C CNN
F 1 "+5V" H 10650 1890 50  0000 C CNN
F 2 "" H 10650 1750 60  0000 C CNN
F 3 "" H 10650 1750 60  0000 C CNN
	1    10650 1750
	1    0    0    -1  
$EndComp
$Comp
L INDUCTOR_SMALL L102
U 1 1 5611132C
P 10950 2450
F 0 "L102" H 10950 2550 50  0000 C CNN
F 1 "6.8" H 10950 2400 50  0000 C CNN
F 2 "Resistors_ThroughHole:Resistor_Horizontal_RM15mm" H 10950 2450 60  0001 C CNN
F 3 "" H 10950 2450 60  0000 C CNN
	1    10950 2450
	0    1    1    0   
$EndComp
$Comp
L INDUCTOR_SMALL L104
U 1 1 56111370
P 10650 2450
F 0 "L104" H 10650 2550 50  0000 C CNN
F 1 "6.8" H 10650 2400 50  0000 C CNN
F 2 "Resistors_ThroughHole:Resistor_Horizontal_RM15mm" H 10650 2450 60  0001 C CNN
F 3 "" H 10650 2450 60  0000 C CNN
	1    10650 2450
	0    1    1    0   
$EndComp
$Comp
L INDUCTOR_SMALL L103
U 1 1 561113A8
P 10350 2450
F 0 "L103" H 10350 2550 50  0000 C CNN
F 1 "6.8" H 10350 2400 50  0000 C CNN
F 2 "Resistors_ThroughHole:Resistor_Horizontal_RM15mm" H 10350 2450 60  0001 C CNN
F 3 "" H 10350 2450 60  0000 C CNN
	1    10350 2450
	0    1    1    0   
$EndComp
$Comp
L CP1_Small C143
U 1 1 56111882
P 10150 1950
F 0 "C143" H 10160 2020 50  0000 L CNN
F 1 "0.01µ" H 10160 1870 50  0000 L CNN
F 2 "" H 10150 1950 60  0001 C CNN
F 3 "" H 10150 1950 60  0000 C CNN
	1    10150 1950
	0    -1   -1   0   
$EndComp
$Comp
L CP1_Small C145
U 1 1 561118C7
P 10150 2150
F 0 "C145" H 10160 2220 50  0000 L CNN
F 1 "0.01µ" H 10160 2070 50  0000 L CNN
F 2 "" H 10150 2150 60  0001 C CNN
F 3 "" H 10150 2150 60  0000 C CNN
	1    10150 2150
	0    1    1    0   
$EndComp
$Comp
L GND #PWR075
U 1 1 56111B82
P 9950 3400
F 0 "#PWR075" H 9950 3150 50  0001 C CNN
F 1 "GND" H 9950 3250 50  0000 C CNN
F 2 "" H 9950 3400 60  0000 C CNN
F 3 "" H 9950 3400 60  0000 C CNN
	1    9950 3400
	1    0    0    -1  
$EndComp
$Comp
L CP1_Small C130
U 1 1 561126EA
P 10150 3000
F 0 "C130" H 10160 3070 50  0000 L CNN
F 1 "22µ" H 10160 2920 50  0000 L CNN
F 2 "" H 10150 3000 60  0001 C CNN
F 3 "" H 10150 3000 60  0000 C CNN
	1    10150 3000
	0    1    1    0   
$EndComp
$Comp
L CP1_Small C129
U 1 1 56112736
P 10150 3250
F 0 "C129" H 10160 3320 50  0000 L CNN
F 1 "22µ" H 10160 3170 50  0000 L CNN
F 2 "" H 10150 3250 60  0001 C CNN
F 3 "" H 10150 3250 60  0000 C CNN
	1    10150 3250
	0    1    1    0   
$EndComp
$Comp
L CP1_Small C128
U 1 1 5611276F
P 10150 2800
F 0 "C128" H 10160 2870 50  0000 L CNN
F 1 "22µ" H 10160 2720 50  0000 L CNN
F 2 "" H 10150 2800 60  0001 C CNN
F 3 "" H 10150 2800 60  0000 C CNN
	1    10150 2800
	0    -1   -1   0   
$EndComp
Text Label 10950 3850 1    60   ~ 0
+12V_VID
Text Label 10650 3850 1    60   ~ 0
+5V_VID
Text Label 10350 3850 1    60   ~ 0
-5V_VID
$Comp
L CP1_Small C120
U 1 1 56116ED9
P 5500 5300
F 0 "C120" H 5510 5370 50  0000 L CNN
F 1 "0.1" H 5510 5220 50  0000 L CNN
F 2 "" H 5500 5300 60  0001 C CNN
F 3 "" H 5500 5300 60  0000 C CNN
	1    5500 5300
	1    0    0    -1  
$EndComp
$Comp
L CP1_Small C185
U 1 1 56116F18
P 5700 5300
F 0 "C185" H 5710 5370 50  0000 L CNN
F 1 "0.1" H 5710 5220 50  0000 L CNN
F 2 "" H 5700 5300 60  0001 C CNN
F 3 "" H 5700 5300 60  0000 C CNN
	1    5700 5300
	1    0    0    -1  
$EndComp
$Comp
L CP1_Small C184
U 1 1 56116F55
P 5300 5300
F 0 "C184" H 5310 5370 50  0000 L CNN
F 1 "0.1" H 5310 5220 50  0000 L CNN
F 2 "" H 5300 5300 60  0001 C CNN
F 3 "" H 5300 5300 60  0000 C CNN
	1    5300 5300
	1    0    0    -1  
$EndComp
$Comp
L GND #PWR076
U 1 1 5611756F
P 5500 5500
F 0 "#PWR076" H 5500 5250 50  0001 C CNN
F 1 "GND" H 5500 5350 50  0000 C CNN
F 2 "" H 5500 5500 60  0000 C CNN
F 3 "" H 5500 5500 60  0000 C CNN
	1    5500 5500
	1    0    0    -1  
$EndComp
$Comp
L CP1_Small C122
U 1 1 561180E3
P 6750 5300
F 0 "C122" H 6760 5370 50  0000 L CNN
F 1 "0.1" H 6760 5220 50  0000 L CNN
F 2 "" H 6750 5300 60  0001 C CNN
F 3 "" H 6750 5300 60  0000 C CNN
	1    6750 5300
	1    0    0    -1  
$EndComp
$Comp
L CP1_Small C187
U 1 1 561180E9
P 6950 5300
F 0 "C187" H 6960 5370 50  0000 L CNN
F 1 "0.1" H 6960 5220 50  0000 L CNN
F 2 "" H 6950 5300 60  0001 C CNN
F 3 "" H 6950 5300 60  0000 C CNN
	1    6950 5300
	1    0    0    -1  
$EndComp
$Comp
L CP1_Small C186
U 1 1 561180EF
P 6550 5300
F 0 "C186" H 6560 5370 50  0000 L CNN
F 1 "0.1" H 6560 5220 50  0000 L CNN
F 2 "" H 6550 5300 60  0001 C CNN
F 3 "" H 6550 5300 60  0000 C CNN
	1    6550 5300
	1    0    0    -1  
$EndComp
$Comp
L GND #PWR077
U 1 1 561180F7
P 6750 5500
F 0 "#PWR077" H 6750 5250 50  0001 C CNN
F 1 "GND" H 6750 5350 50  0000 C CNN
F 2 "" H 6750 5500 60  0000 C CNN
F 3 "" H 6750 5500 60  0000 C CNN
	1    6750 5500
	1    0    0    -1  
$EndComp
$Comp
L CP1_Small C126
U 1 1 5611818A
P 8000 5300
F 0 "C126" H 8010 5370 50  0000 L CNN
F 1 "0.1" H 8010 5220 50  0000 L CNN
F 2 "" H 8000 5300 60  0001 C CNN
F 3 "" H 8000 5300 60  0000 C CNN
	1    8000 5300
	1    0    0    -1  
$EndComp
$Comp
L CP1_Small C189
U 1 1 56118190
P 8200 5300
F 0 "C189" H 8210 5370 50  0000 L CNN
F 1 "0.1" H 8210 5220 50  0000 L CNN
F 2 "" H 8200 5300 60  0001 C CNN
F 3 "" H 8200 5300 60  0000 C CNN
	1    8200 5300
	1    0    0    -1  
$EndComp
$Comp
L CP1_Small C188
U 1 1 56118196
P 7800 5300
F 0 "C188" H 7810 5370 50  0000 L CNN
F 1 "0.1" H 7810 5220 50  0000 L CNN
F 2 "" H 7800 5300 60  0001 C CNN
F 3 "" H 7800 5300 60  0000 C CNN
	1    7800 5300
	1    0    0    -1  
$EndComp
$Comp
L GND #PWR078
U 1 1 5611819E
P 8000 5500
F 0 "#PWR078" H 8000 5250 50  0001 C CNN
F 1 "GND" H 8000 5350 50  0000 C CNN
F 2 "" H 8000 5500 60  0000 C CNN
F 3 "" H 8000 5500 60  0000 C CNN
	1    8000 5500
	1    0    0    -1  
$EndComp
$Comp
L CP1_Small C121
U 1 1 56118222
P 9250 5300
F 0 "C121" H 9260 5370 50  0000 L CNN
F 1 "0.1" H 9260 5220 50  0000 L CNN
F 2 "" H 9250 5300 60  0001 C CNN
F 3 "" H 9250 5300 60  0000 C CNN
	1    9250 5300
	1    0    0    -1  
$EndComp
$Comp
L CP1_Small C191
U 1 1 56118228
P 9450 5300
F 0 "C191" H 9460 5370 50  0000 L CNN
F 1 "0.1" H 9460 5220 50  0000 L CNN
F 2 "" H 9450 5300 60  0001 C CNN
F 3 "" H 9450 5300 60  0000 C CNN
	1    9450 5300
	1    0    0    -1  
$EndComp
$Comp
L CP1_Small C190
U 1 1 5611822E
P 9050 5300
F 0 "C190" H 9060 5370 50  0000 L CNN
F 1 "0.1" H 9060 5220 50  0000 L CNN
F 2 "" H 9050 5300 60  0001 C CNN
F 3 "" H 9050 5300 60  0000 C CNN
	1    9050 5300
	1    0    0    -1  
$EndComp
$Comp
L GND #PWR079
U 1 1 56118236
P 9250 5500
F 0 "#PWR079" H 9250 5250 50  0001 C CNN
F 1 "GND" H 9250 5350 50  0000 C CNN
F 2 "" H 9250 5500 60  0000 C CNN
F 3 "" H 9250 5500 60  0000 C CNN
	1    9250 5500
	1    0    0    -1  
$EndComp
$Comp
L CP1_Small C123
U 1 1 561195AF
P 9250 900
F 0 "C123" H 9260 970 50  0000 L CNN
F 1 "0.1" H 9260 820 50  0000 L CNN
F 2 "" H 9250 900 60  0001 C CNN
F 3 "" H 9250 900 60  0000 C CNN
	1    9250 900 
	1    0    0    1   
$EndComp
$Comp
L CP1_Small C192
U 1 1 561195B5
P 9450 900
F 0 "C192" H 9460 970 50  0000 L CNN
F 1 "0.1" H 9460 820 50  0000 L CNN
F 2 "" H 9450 900 60  0001 C CNN
F 3 "" H 9450 900 60  0000 C CNN
	1    9450 900 
	1    0    0    1   
$EndComp
$Comp
L CP1_Small C193
U 1 1 561195BB
P 9050 900
F 0 "C193" H 9060 970 50  0000 L CNN
F 1 "0.1" H 9060 820 50  0000 L CNN
F 2 "" H 9050 900 60  0001 C CNN
F 3 "" H 9050 900 60  0000 C CNN
	1    9050 900 
	1    0    0    1   
$EndComp
$Comp
L GND #PWR080
U 1 1 561195C4
P 9250 700
F 0 "#PWR080" H 9250 450 50  0001 C CNN
F 1 "GND" H 9250 550 50  0000 C CNN
F 2 "" H 9250 700 60  0000 C CNN
F 3 "" H 9250 700 60  0000 C CNN
	1    9250 700 
	1    0    0    1   
$EndComp
$Comp
L CP1_Small C124
U 1 1 5611970A
P 8000 900
F 0 "C124" H 8010 970 50  0000 L CNN
F 1 "0.1" H 8010 820 50  0000 L CNN
F 2 "" H 8000 900 60  0001 C CNN
F 3 "" H 8000 900 60  0000 C CNN
	1    8000 900 
	1    0    0    1   
$EndComp
$Comp
L CP1_Small C194
U 1 1 56119710
P 8200 900
F 0 "C194" H 8210 970 50  0000 L CNN
F 1 "0.1" H 8210 820 50  0000 L CNN
F 2 "" H 8200 900 60  0001 C CNN
F 3 "" H 8200 900 60  0000 C CNN
	1    8200 900 
	1    0    0    1   
$EndComp
$Comp
L CP1_Small C195
U 1 1 56119716
P 7800 900
F 0 "C195" H 7810 970 50  0000 L CNN
F 1 "0.1" H 7810 820 50  0000 L CNN
F 2 "" H 7800 900 60  0001 C CNN
F 3 "" H 7800 900 60  0000 C CNN
	1    7800 900 
	1    0    0    1   
$EndComp
$Comp
L GND #PWR081
U 1 1 5611971F
P 8000 700
F 0 "#PWR081" H 8000 450 50  0001 C CNN
F 1 "GND" H 8000 550 50  0000 C CNN
F 2 "" H 8000 700 60  0000 C CNN
F 3 "" H 8000 700 60  0000 C CNN
	1    8000 700 
	1    0    0    1   
$EndComp
$Comp
L CP1_Small C125
U 1 1 561197BE
P 6750 900
F 0 "C125" H 6760 970 50  0000 L CNN
F 1 "0.1" H 6760 820 50  0000 L CNN
F 2 "" H 6750 900 60  0001 C CNN
F 3 "" H 6750 900 60  0000 C CNN
	1    6750 900 
	1    0    0    1   
$EndComp
$Comp
L CP1_Small C196
U 1 1 561197C4
P 6950 900
F 0 "C196" H 6960 970 50  0000 L CNN
F 1 "0.1" H 6960 820 50  0000 L CNN
F 2 "" H 6950 900 60  0001 C CNN
F 3 "" H 6950 900 60  0000 C CNN
	1    6950 900 
	1    0    0    1   
$EndComp
$Comp
L CP1_Small C197
U 1 1 561197CA
P 6550 900
F 0 "C197" H 6560 970 50  0000 L CNN
F 1 "0.1" H 6560 820 50  0000 L CNN
F 2 "" H 6550 900 60  0001 C CNN
F 3 "" H 6550 900 60  0000 C CNN
	1    6550 900 
	1    0    0    1   
$EndComp
$Comp
L GND #PWR082
U 1 1 561197D3
P 6750 700
F 0 "#PWR082" H 6750 450 50  0001 C CNN
F 1 "GND" H 6750 550 50  0000 C CNN
F 2 "" H 6750 700 60  0000 C CNN
F 3 "" H 6750 700 60  0000 C CNN
	1    6750 700 
	1    0    0    1   
$EndComp
$Comp
L CP1_Small C127
U 1 1 561198FD
P 5500 900
F 0 "C127" H 5510 970 50  0000 L CNN
F 1 "0.1" H 5510 820 50  0000 L CNN
F 2 "" H 5500 900 60  0001 C CNN
F 3 "" H 5500 900 60  0000 C CNN
	1    5500 900 
	1    0    0    1   
$EndComp
$Comp
L CP1_Small C198
U 1 1 56119903
P 5700 900
F 0 "C198" H 5710 970 50  0000 L CNN
F 1 "0.1" H 5710 820 50  0000 L CNN
F 2 "" H 5700 900 60  0001 C CNN
F 3 "" H 5700 900 60  0000 C CNN
	1    5700 900 
	1    0    0    1   
$EndComp
$Comp
L CP1_Small C199
U 1 1 56119909
P 5300 900
F 0 "C199" H 5310 970 50  0000 L CNN
F 1 "0.1" H 5310 820 50  0000 L CNN
F 2 "" H 5300 900 60  0001 C CNN
F 3 "" H 5300 900 60  0000 C CNN
	1    5300 900 
	1    0    0    1   
$EndComp
$Comp
L GND #PWR083
U 1 1 56119912
P 5500 700
F 0 "#PWR083" H 5500 450 50  0001 C CNN
F 1 "GND" H 5500 550 50  0000 C CNN
F 2 "" H 5500 700 60  0000 C CNN
F 3 "" H 5500 700 60  0000 C CNN
	1    5500 700 
	1    0    0    1   
$EndComp
$Comp
L CP1_Small C206
U 1 1 5611CCC2
P 10950 5150
F 0 "C206" H 11000 5200 50  0000 L CNN
F 1 "0.1µ" H 11000 5050 50  0000 L CNN
F 2 "" H 10950 5150 60  0001 C CNN
F 3 "" H 10950 5150 60  0000 C CNN
	1    10950 5150
	1    0    0    -1  
$EndComp
$Comp
L CP1_Small C207
U 1 1 5611CDDE
P 10250 5150
F 0 "C207" H 10200 5200 50  0000 R CNN
F 1 "0.1" H 10200 5050 50  0000 R CNN
F 2 "" H 10250 5150 60  0001 C CNN
F 3 "" H 10250 5150 60  0000 C CNN
	1    10250 5150
	1    0    0    -1  
$EndComp
$Comp
L INDUCTOR_SMALL L206
U 1 1 5611CF1B
P 10600 5050
F 0 "L206" H 10600 5150 50  0000 C CNN
F 1 "6.8" H 10600 5000 50  0000 C CNN
F 2 "Resistors_ThroughHole:Resistor_Horizontal_RM15mm" H 10600 5050 60  0001 C CNN
F 3 "" H 10600 5050 60  0000 C CNN
	1    10600 5050
	1    0    0    -1  
$EndComp
$Comp
L GND #PWR084
U 1 1 5611DB8F
P 10950 5300
F 0 "#PWR084" H 10950 5050 50  0001 C CNN
F 1 "GND" H 10950 5150 50  0000 C CNN
F 2 "" H 10950 5300 60  0000 C CNN
F 3 "" H 10950 5300 60  0000 C CNN
	1    10950 5300
	1    0    0    -1  
$EndComp
$Comp
L GND #PWR085
U 1 1 5611DC2D
P 10250 5300
F 0 "#PWR085" H 10250 5050 50  0001 C CNN
F 1 "GND" H 10250 5150 50  0000 C CNN
F 2 "" H 10250 5300 60  0000 C CNN
F 3 "" H 10250 5300 60  0000 C CNN
	1    10250 5300
	1    0    0    -1  
$EndComp
$Comp
L GND #PWR086
U 1 1 5611E5D1
P 10550 6150
F 0 "#PWR086" H 10550 5900 50  0001 C CNN
F 1 "GND" H 10550 6000 50  0000 C CNN
F 2 "" H 10550 6150 60  0000 C CNN
F 3 "" H 10550 6150 60  0000 C CNN
	1    10550 6150
	1    0    0    -1  
$EndComp
Text HLabel 1300 5850 0    60   Input ~ 0
C503
$Comp
L CP1_Small C205
U 1 1 561371E3
P 2400 5950
F 0 "C205" H 2450 6000 50  0000 L CNN
F 1 "0.001" H 2450 5850 50  0000 L CNN
F 2 "" H 2400 5950 60  0001 C CNN
F 3 "" H 2400 5950 60  0000 C CNN
	1    2400 5950
	1    0    0    -1  
$EndComp
$Comp
L CP1_Small C208
U 1 1 561371E9
P 1700 5950
F 0 "C208" H 1650 6000 50  0000 R CNN
F 1 "0.01" H 1650 5850 50  0000 R CNN
F 2 "" H 1700 5950 60  0001 C CNN
F 3 "" H 1700 5950 60  0000 C CNN
	1    1700 5950
	1    0    0    -1  
$EndComp
$Comp
L INDUCTOR_SMALL L201
U 1 1 561371EF
P 2050 5850
F 0 "L201" H 2050 5950 50  0000 C CNN
F 1 "6.8" H 2050 5800 50  0000 C CNN
F 2 "Resistors_ThroughHole:Resistor_Horizontal_RM15mm" H 2050 5850 60  0001 C CNN
F 3 "" H 2050 5850 60  0000 C CNN
	1    2050 5850
	1    0    0    -1  
$EndComp
$Comp
L GND #PWR087
U 1 1 561371F8
P 2400 6100
F 0 "#PWR087" H 2400 5850 50  0001 C CNN
F 1 "GND" H 2400 5950 50  0000 C CNN
F 2 "" H 2400 6100 60  0000 C CNN
F 3 "" H 2400 6100 60  0000 C CNN
	1    2400 6100
	1    0    0    -1  
$EndComp
$Comp
L GND #PWR088
U 1 1 561371FE
P 1700 6100
F 0 "#PWR088" H 1700 5850 50  0001 C CNN
F 1 "GND" H 1700 5950 50  0000 C CNN
F 2 "" H 1700 6100 60  0000 C CNN
F 3 "" H 1700 6100 60  0000 C CNN
	1    1700 6100
	1    0    0    -1  
$EndComp
$Comp
L R_Small R210
U 1 1 561388AF
P 9800 6200
F 0 "R210" H 9830 6220 50  0000 L CNN
F 1 "560" H 9830 6160 50  0000 L CNN
F 2 "Resistors_ThroughHole:Resistor_Horizontal_RM10mm" H 9800 6200 60  0001 C CNN
F 3 "" H 9800 6200 60  0000 C CNN
	1    9800 6200
	-1   0    0    -1  
$EndComp
$Comp
L R_Small R211
U 1 1 56138934
P 10000 6200
F 0 "R211" H 10030 6220 50  0000 L CNN
F 1 "560" H 10030 6160 50  0000 L CNN
F 2 "Resistors_ThroughHole:Resistor_Horizontal_RM10mm" H 10000 6200 60  0001 C CNN
F 3 "" H 10000 6200 60  0000 C CNN
	1    10000 6200
	1    0    0    -1  
$EndComp
$Comp
L GND #PWR089
U 1 1 56138B34
P 9800 6300
F 0 "#PWR089" H 9800 6050 50  0001 C CNN
F 1 "GND" H 9800 6150 50  0000 C CNN
F 2 "" H 9800 6300 60  0000 C CNN
F 3 "" H 9800 6300 60  0000 C CNN
	1    9800 6300
	1    0    0    -1  
$EndComp
$Comp
L XTAL_2-TERMINAL_RevE_Date15jun2010 Y100
U 1 1 56139889
P 2300 3150
F 0 "Y100" H 2300 3300 30  0000 C CNN
F 1 "10.7MHz" H 2300 3000 30  0000 C CNN
F 2 "Crystals:HC-18UV" H 2300 3150 60  0001 C CNN
F 3 "" H 2300 3150 60  0000 C CNN
	1    2300 3150
	1    0    0    -1  
$EndComp
$Comp
L R R101
U 1 1 56139AA0
P 2000 3450
F 0 "R101" V 2080 3450 50  0000 C CNN
F 1 "470k" V 2000 3450 50  0000 C CNN
F 2 "Resistors_ThroughHole:Resistor_Horizontal_RM10mm" V 1930 3450 30  0001 C CNN
F 3 "" H 2000 3450 30  0000 C CNN
	1    2000 3450
	0    1    1    0   
$EndComp
$Comp
L INDUCTANCE_Adjustable_RevE_Date03Aug2010 L100
U 1 1 5613A503
P 1800 3150
F 0 "L100" H 1800 3250 30  0000 C CNN
F 1 "2- 4.5µH" H 1800 3000 30  0000 C CNN
F 2 "" H 1800 3150 60  0001 C CNN
F 3 "" H 1800 3150 60  0000 C CNN
	1    1800 3150
	1    0    0    -1  
$EndComp
$Comp
L CP1_Small C101
U 1 1 5613B760
P 2600 3400
F 0 "C101" H 2610 3470 50  0000 L CNN
F 1 "12p" H 2610 3320 50  0000 L CNN
F 2 "" H 2600 3400 60  0001 C CNN
F 3 "" H 2600 3400 60  0000 C CNN
	1    2600 3400
	1    0    0    -1  
$EndComp
$Comp
L CP1_Small C100
U 1 1 5613B7E8
P 1400 3400
F 0 "C100" H 1350 3450 50  0000 R CNN
F 1 "58µ" H 1350 3300 50  0000 R CNN
F 2 "" H 1400 3400 60  0001 C CNN
F 3 "" H 1400 3400 60  0000 C CNN
	1    1400 3400
	1    0    0    -1  
$EndComp
$Comp
L GND #PWR090
U 1 1 5613BF98
P 2600 3500
F 0 "#PWR090" H 2600 3250 50  0001 C CNN
F 1 "GND" H 2600 3350 50  0000 C CNN
F 2 "" H 2600 3500 60  0000 C CNN
F 3 "" H 2600 3500 60  0000 C CNN
	1    2600 3500
	1    0    0    -1  
$EndComp
$Comp
L GND #PWR091
U 1 1 5613C01A
P 1400 3500
F 0 "#PWR091" H 1400 3250 50  0001 C CNN
F 1 "GND" H 1400 3350 50  0000 C CNN
F 2 "" H 1400 3500 60  0000 C CNN
F 3 "" H 1400 3500 60  0000 C CNN
	1    1400 3500
	1    0    0    -1  
$EndComp
$Comp
L CP1_Small C104
U 1 1 5613D9B8
P 4250 1000
F 0 "C104" H 4300 1050 50  0000 L CNN
F 1 "0.01" H 4300 900 50  0000 L CNN
F 2 "" H 4250 1000 60  0001 C CNN
F 3 "" H 4250 1000 60  0000 C CNN
	1    4250 1000
	1    0    0    1   
$EndComp
$Comp
L CP1_Small C103
U 1 1 5613D9BE
P 3550 1000
F 0 "C103" H 3500 1050 50  0000 R CNN
F 1 "100" H 3500 900 50  0000 R CNN
F 2 "" H 3550 1000 60  0001 C CNN
F 3 "" H 3550 1000 60  0000 C CNN
	1    3550 1000
	1    0    0    1   
$EndComp
$Comp
L INDUCTOR_SMALL L101
U 1 1 5613D9C4
P 3900 1150
F 0 "L101" H 3900 1250 50  0000 C CNN
F 1 "6.8" H 3900 1100 50  0000 C CNN
F 2 "Resistors_ThroughHole:Resistor_Horizontal_RM15mm" H 3900 1150 60  0001 C CNN
F 3 "" H 3900 1150 60  0000 C CNN
	1    3900 1150
	1    0    0    1   
$EndComp
$Comp
L GND #PWR092
U 1 1 5613D9D2
P 3550 850
F 0 "#PWR092" H 3550 600 50  0001 C CNN
F 1 "GND" H 3550 700 50  0000 C CNN
F 2 "" H 3550 850 60  0000 C CNN
F 3 "" H 3550 850 60  0000 C CNN
	1    3550 850 
	1    0    0    1   
$EndComp
$Comp
L CP1_Small C102
U 1 1 5613E8FB
P 3300 1000
F 0 "C102" H 3310 1070 50  0000 L CNN
F 1 "0.001" H 3310 920 50  0000 L CNN
F 2 "" H 3300 1000 60  0001 C CNN
F 3 "" H 3300 1000 60  0000 C CNN
	1    3300 1000
	-1   0    0    1   
$EndComp
$Comp
L R_Small R102
U 1 1 5613F9FF
P 3250 1250
F 0 "R102" V 3350 1250 50  0000 C CNN
F 1 "470" V 3200 1050 50  0000 L CNN
F 2 "Resistors_ThroughHole:Resistor_Horizontal_RM10mm" H 3250 1250 60  0001 C CNN
F 3 "" H 3250 1250 60  0000 C CNN
	1    3250 1250
	0    1    1    0   
$EndComp
$Comp
L INDUCTOR_SMALL L207
U 1 1 56140573
P 2450 1600
F 0 "L207" H 2450 1700 50  0000 C CNN
F 1 "5.8" H 2450 1550 50  0000 C CNN
F 2 "Resistors_ThroughHole:Resistor_Horizontal_RM15mm" H 2450 1600 60  0001 C CNN
F 3 "" H 2450 1600 60  0000 C CNN
	1    2450 1600
	1    0    0    -1  
$EndComp
$Comp
L INDUCTOR_SMALL L202
U 1 1 5613AFDA
P 2050 3800
F 0 "L202" H 2050 3900 50  0000 C CNN
F 1 "27µ" H 2050 3750 50  0000 C CNN
F 2 "Resistors_ThroughHole:Resistor_Horizontal_RM15mm" H 2050 3800 60  0001 C CNN
F 3 "" H 2050 3800 60  0000 C CNN
	1    2050 3800
	1    0    0    -1  
$EndComp
$Comp
L CP1_Small C200
U 1 1 5613B0E2
P 1400 4000
F 0 "C200" H 1410 4070 50  0000 L CNN
F 1 "82p" H 1410 3920 50  0000 L CNN
F 2 "" H 1400 4000 60  0001 C CNN
F 3 "" H 1400 4000 60  0000 C CNN
	1    1400 4000
	1    0    0    -1  
$EndComp
$Comp
L GND #PWR093
U 1 1 5613B3EA
P 1400 4200
F 0 "#PWR093" H 1400 3950 50  0001 C CNN
F 1 "GND" H 1400 4050 50  0000 C CNN
F 2 "" H 1400 4200 60  0000 C CNN
F 3 "" H 1400 4200 60  0000 C CNN
	1    1400 4200
	1    0    0    -1  
$EndComp
$Comp
L INDUCTOR_SMALL L203
U 1 1 5613B8E9
P 1700 4150
F 0 "L203" H 1700 4250 50  0000 C CNN
F 1 "8.2µ" H 1700 4100 50  0000 C CNN
F 2 "Resistors_ThroughHole:Resistor_Horizontal_RM15mm" H 1700 4150 60  0001 C CNN
F 3 "" H 1700 4150 60  0000 C CNN
	1    1700 4150
	0    1    1    0   
$EndComp
$Comp
L R_Small R200
U 1 1 5613BC7B
P 1400 4800
F 0 "R200" H 1430 4820 50  0000 L CNN
F 1 "560" H 1430 4760 50  0000 L CNN
F 2 "Resistors_ThroughHole:Resistor_Horizontal_RM10mm" H 1400 4800 60  0001 C CNN
F 3 "" H 1400 4800 60  0000 C CNN
	1    1400 4800
	1    0    0    -1  
$EndComp
$Comp
L GND #PWR094
U 1 1 5613BD6E
P 1400 5000
F 0 "#PWR094" H 1400 4750 50  0001 C CNN
F 1 "GND" H 1400 4850 50  0000 C CNN
F 2 "" H 1400 5000 60  0000 C CNN
F 3 "" H 1400 5000 60  0000 C CNN
	1    1400 5000
	1    0    0    -1  
$EndComp
$Comp
L CP1_Small C201
U 1 1 5613C7AE
P 1900 4550
F 0 "C201" H 1910 4620 50  0000 L CNN
F 1 "10µ" H 1910 4470 50  0000 L CNN
F 2 "" H 1900 4550 60  0001 C CNN
F 3 "" H 1900 4550 60  0000 C CNN
	1    1900 4550
	0    -1   1    0   
$EndComp
$Comp
L R_Small R201
U 1 1 5613CBE1
P 2100 4800
F 0 "R201" H 2130 4820 50  0000 L CNN
F 1 "56k" H 2130 4760 50  0000 L CNN
F 2 "Resistors_ThroughHole:Resistor_Horizontal_RM10mm" H 2100 4800 60  0001 C CNN
F 3 "" H 2100 4800 60  0000 C CNN
	1    2100 4800
	1    0    0    -1  
$EndComp
$Comp
L R_Small R202
U 1 1 5613CCCC
P 2300 4000
F 0 "R202" H 2330 4020 50  0000 L CNN
F 1 "2.2k" H 2330 3960 50  0000 L CNN
F 2 "Resistors_ThroughHole:Resistor_Horizontal_RM10mm" H 2300 4000 60  0001 C CNN
F 3 "" H 2300 4000 60  0000 C CNN
	1    2300 4000
	1    0    0    -1  
$EndComp
$Comp
L D D200
U 1 1 5613D2A4
P 2100 4400
F 0 "D200" H 2100 4500 50  0000 C CNN
F 1 "1N4148" H 2100 4300 50  0000 C CNN
F 2 "Diodes_ThroughHole:Diode_DO-35_SOD27_Horizontal_RM10" H 2100 4400 60  0001 C CNN
F 3 "" H 2100 4400 60  0000 C CNN
	1    2100 4400
	0    -1   -1   0   
$EndComp
$Comp
L D D201
U 1 1 5613D7AB
P 2500 4400
F 0 "D201" H 2500 4500 50  0000 C CNN
F 1 "1N4148" H 2500 4300 50  0000 C CNN
F 2 "Diodes_ThroughHole:Diode_DO-35_SOD27_Horizontal_RM10" H 2500 4400 60  0001 C CNN
F 3 "" H 2500 4400 60  0000 C CNN
	1    2500 4400
	0    -1   -1   0   
$EndComp
$Comp
L R_Small R203
U 1 1 5613E55E
P 2500 4800
F 0 "R203" H 2530 4820 50  0000 L CNN
F 1 "1k" H 2530 4760 50  0000 L CNN
F 2 "Resistors_ThroughHole:Resistor_Horizontal_RM10mm" H 2500 4800 60  0001 C CNN
F 3 "" H 2500 4800 60  0000 C CNN
	1    2500 4800
	1    0    0    -1  
$EndComp
$Comp
L CP1_Small C202
U 1 1 56141212
P 2700 4000
F 0 "C202" H 2710 4070 50  0000 L CNN
F 1 "0.01" H 2710 3920 50  0000 L CNN
F 2 "" H 2700 4000 60  0001 C CNN
F 3 "" H 2700 4000 60  0000 C CNN
	1    2700 4000
	1    0    0    -1  
$EndComp
$Comp
L GND #PWR095
U 1 1 56141305
P 2700 4150
F 0 "#PWR095" H 2700 3900 50  0001 C CNN
F 1 "GND" H 2700 4000 50  0000 C CNN
F 2 "" H 2700 4150 60  0000 C CNN
F 3 "" H 2700 4150 60  0000 C CNN
	1    2700 4150
	1    0    0    -1  
$EndComp
$Comp
L R_Small R204
U 1 1 5614195E
P 2800 4800
F 0 "R204" H 2830 4820 50  0000 L CNN
F 1 "47" H 2830 4760 50  0000 L CNN
F 2 "Resistors_ThroughHole:Resistor_Horizontal_RM10mm" H 2800 4800 60  0001 C CNN
F 3 "" H 2800 4800 60  0000 C CNN
	1    2800 4800
	1    0    0    -1  
$EndComp
$Comp
L GND #PWR096
U 1 1 56141E5C
P 2800 4950
F 0 "#PWR096" H 2800 4700 50  0001 C CNN
F 1 "GND" H 2800 4800 50  0000 C CNN
F 2 "" H 2800 4950 60  0000 C CNN
F 3 "" H 2800 4950 60  0000 C CNN
	1    2800 4950
	1    0    0    -1  
$EndComp
$Comp
L R_Small R207
U 1 1 56143C99
P 3450 4000
F 0 "R207" H 3480 4020 50  0000 L CNN
F 1 "47" H 3480 3960 50  0000 L CNN
F 2 "Resistors_ThroughHole:Resistor_Horizontal_RM10mm" H 3450 4000 60  0001 C CNN
F 3 "" H 3450 4000 60  0000 C CNN
	1    3450 4000
	1    0    0    -1  
$EndComp
$Comp
L R_Small R205
U 1 1 56144626
P 3100 4150
F 0 "R205" H 3130 4170 50  0000 L CNN
F 1 "1k" H 3130 4110 50  0000 L CNN
F 2 "Resistors_ThroughHole:Resistor_Horizontal_RM10mm" H 3100 4150 60  0001 C CNN
F 3 "" H 3100 4150 60  0000 C CNN
	1    3100 4150
	1    0    0    -1  
$EndComp
$Comp
L R_Small R206
U 1 1 56144C28
P 3100 4900
F 0 "R206" H 3130 4920 50  0000 L CNN
F 1 "560" H 3130 4860 50  0000 L CNN
F 2 "Resistors_ThroughHole:Resistor_Horizontal_RM10mm" H 3100 4900 60  0001 C CNN
F 3 "" H 3100 4900 60  0000 C CNN
	1    3100 4900
	1    0    0    -1  
$EndComp
$Comp
L GND #PWR097
U 1 1 5614523A
P 3100 5450
F 0 "#PWR097" H 3100 5200 50  0001 C CNN
F 1 "GND" H 3100 5300 50  0000 C CNN
F 2 "" H 3100 5450 60  0000 C CNN
F 3 "" H 3100 5450 60  0000 C CNN
	1    3100 5450
	1    0    0    -1  
$EndComp
$Comp
L CP1_Small C203
U 1 1 5614533B
P 3100 5300
F 0 "C203" H 3110 5370 50  0000 L CNN
F 1 "0.01µ" H 3110 5220 50  0000 L CNN
F 2 "" H 3100 5300 60  0001 C CNN
F 3 "" H 3100 5300 60  0000 C CNN
	1    3100 5300
	1    0    0    -1  
$EndComp
$Comp
L R_Small R208
U 1 1 5614A993
P 3450 4750
F 0 "R208" H 3480 4770 50  0000 L CNN
F 1 "560" H 3480 4710 50  0000 L CNN
F 2 "Resistors_ThroughHole:Resistor_Horizontal_RM10mm" H 3450 4750 60  0001 C CNN
F 3 "" H 3450 4750 60  0000 C CNN
	1    3450 4750
	1    0    0    -1  
$EndComp
$Comp
L R_Small R209
U 1 1 5614ABA0
P 3800 4600
F 0 "R209" H 3830 4620 50  0000 L CNN
F 1 "18" H 3830 4560 50  0000 L CNN
F 2 "Resistors_ThroughHole:Resistor_Horizontal_RM10mm" H 3800 4600 60  0001 C CNN
F 3 "" H 3800 4600 60  0000 C CNN
	1    3800 4600
	0    -1   -1   0   
$EndComp
Wire Wire Line
	3100 5000 3100 5200
Wire Wire Line
	9550 5100 2300 5100
Wire Wire Line
	1300 1850 3000 1850
Wire Wire Line
	1300 1950 3000 1950
Wire Wire Line
	1300 2050 3000 2050
Wire Wire Line
	1300 2150 3000 2150
Wire Wire Line
	1300 2250 3000 2250
Wire Wire Line
	1300 2350 3000 2350
Wire Wire Line
	1300 2450 3000 2450
Wire Wire Line
	1300 2550 3000 2550
Wire Wire Line
	1300 2700 3000 2700
Wire Wire Line
	1300 1500 3000 1500
Wire Wire Line
	1300 1700 3000 1700
Wire Wire Line
	2950 1150 2950 1600
Wire Wire Line
	2950 1600 3000 1600
Wire Wire Line
	1300 1250 1750 1250
Wire Wire Line
	1300 1050 1750 1050
Wire Wire Line
	1300 2800 3000 2800
Wire Wire Line
	1300 2900 3000 2900
Wire Bus Line
	4350 1250 4350 4950
Wire Bus Line
	4350 1250 8100 1250
Wire Bus Line
	5600 1250 5600 2400
Wire Wire Line
	4100 1500 4250 1500
Wire Wire Line
	4100 1650 4250 1650
Wire Wire Line
	4100 1750 4250 1750
Wire Wire Line
	4100 1900 4250 1900
Wire Wire Line
	4100 2000 4250 2000
Wire Wire Line
	4100 2100 4250 2100
Wire Wire Line
	4100 2200 4250 2200
Wire Wire Line
	4100 2300 4250 2300
Wire Wire Line
	4100 2400 4250 2400
Wire Wire Line
	4100 2500 4250 2500
Wire Wire Line
	5450 1150 5450 1500
Wire Wire Line
	5500 1000 5500 1600
Wire Wire Line
	5400 1700 5550 1700
Wire Wire Line
	5550 1700 5550 1050
Wire Wire Line
	5500 1600 5400 1600
Wire Wire Line
	5450 1500 5400 1500
Wire Wire Line
	4450 1500 4600 1500
Wire Wire Line
	4450 1650 4600 1650
Wire Wire Line
	4450 1750 4600 1750
Wire Wire Line
	4450 1900 4600 1900
Wire Wire Line
	4450 2000 4600 2000
Wire Wire Line
	4450 2100 4600 2100
Wire Wire Line
	4450 2200 4600 2200
Wire Wire Line
	4450 2300 4600 2300
Wire Wire Line
	4450 2400 4600 2400
Wire Wire Line
	4450 2500 4600 2500
Wire Wire Line
	5700 1500 5850 1500
Wire Wire Line
	5700 1650 5850 1650
Wire Wire Line
	5700 1750 5850 1750
Wire Wire Line
	5700 1900 5850 1900
Wire Wire Line
	5700 2000 5850 2000
Wire Wire Line
	5700 2100 5850 2100
Wire Wire Line
	5700 2200 5850 2200
Wire Wire Line
	5700 2300 5850 2300
Wire Wire Line
	5700 2400 5850 2400
Wire Wire Line
	5700 2500 5850 2500
Wire Wire Line
	6650 1500 6700 1500
Wire Wire Line
	6700 1500 6700 1150
Wire Wire Line
	6750 1600 6650 1600
Wire Wire Line
	6750 1000 6750 1600
Wire Wire Line
	6650 1700 6800 1700
Wire Wire Line
	6800 1700 6800 1050
Wire Bus Line
	6850 1250 6850 2400
Wire Bus Line
	8100 1250 8100 2400
Wire Wire Line
	6950 1500 7100 1500
Wire Wire Line
	6950 1650 7100 1650
Wire Wire Line
	6950 1750 7100 1750
Wire Wire Line
	6950 1900 7100 1900
Wire Wire Line
	6950 2000 7100 2000
Wire Wire Line
	6950 2100 7100 2100
Wire Wire Line
	6950 2200 7100 2200
Wire Wire Line
	6950 2300 7100 2300
Wire Wire Line
	6950 2400 7100 2400
Wire Wire Line
	6950 2500 7100 2500
Wire Wire Line
	8200 1500 8350 1500
Wire Wire Line
	8200 1650 8350 1650
Wire Wire Line
	8200 1750 8350 1750
Wire Wire Line
	8200 1900 8350 1900
Wire Wire Line
	8200 2000 8350 2000
Wire Wire Line
	8200 2100 8350 2100
Wire Wire Line
	8200 2200 8350 2200
Wire Wire Line
	8200 2300 8350 2300
Wire Wire Line
	8200 2400 8350 2400
Wire Wire Line
	8200 2500 8350 2500
Wire Wire Line
	7900 1500 7950 1500
Wire Wire Line
	7950 1500 7950 1150
Wire Wire Line
	8000 1600 7900 1600
Wire Wire Line
	8000 1000 8000 1600
Wire Wire Line
	7900 1700 8050 1700
Wire Wire Line
	8050 1700 8050 1050
Wire Wire Line
	9150 1500 9200 1500
Wire Wire Line
	9200 1500 9200 1150
Wire Wire Line
	9250 1600 9150 1600
Wire Wire Line
	9250 1000 9250 1600
Wire Wire Line
	9150 1700 9300 1700
Wire Wire Line
	9300 1700 9300 1050
Wire Wire Line
	5600 2650 5600 2800
Wire Wire Line
	5600 2800 4500 2800
Wire Wire Line
	4500 2800 4500 2750
Wire Wire Line
	4500 2750 4100 2750
Wire Wire Line
	4600 2650 4550 2650
Wire Wire Line
	4550 2650 4550 2600
Wire Wire Line
	4550 2600 4100 2600
Wire Wire Line
	5850 2650 5800 2650
Wire Wire Line
	5800 2650 5800 2500
Connection ~ 5800 2500
Wire Wire Line
	7100 2650 7050 2650
Wire Wire Line
	7050 2650 7050 2400
Connection ~ 7050 2400
Wire Wire Line
	8350 2650 8300 2650
Wire Wire Line
	8300 2650 8300 2300
Connection ~ 8300 2300
Wire Wire Line
	4100 2850 6900 2850
Wire Wire Line
	6900 2850 6900 2650
Wire Wire Line
	6900 2650 6850 2650
Wire Wire Line
	8100 2650 8150 2650
Wire Wire Line
	8150 2650 8150 2950
Wire Wire Line
	8150 2950 4100 2950
Wire Wire Line
	4100 3050 9400 3050
Wire Wire Line
	9400 3050 9400 2650
Wire Wire Line
	9400 2650 9350 2650
Wire Wire Line
	5600 3550 5650 3550
Wire Wire Line
	5650 3550 5650 3400
Wire Wire Line
	5650 3400 4500 3400
Wire Wire Line
	4500 3400 4500 3450
Wire Wire Line
	4500 3450 4100 3450
Wire Wire Line
	6850 3550 6900 3550
Wire Wire Line
	6900 3550 6900 3350
Wire Wire Line
	6900 3350 4100 3350
Wire Wire Line
	8100 3550 8150 3550
Wire Wire Line
	8150 3550 8150 3250
Wire Wire Line
	8150 3250 4100 3250
Wire Wire Line
	4100 3150 9400 3150
Wire Wire Line
	9400 3150 9400 3550
Wire Wire Line
	9400 3550 9350 3550
Wire Wire Line
	4600 3550 4550 3550
Wire Wire Line
	4550 3550 4550 4300
Wire Wire Line
	5850 3550 5750 3550
Wire Wire Line
	5750 3550 5750 4200
Wire Wire Line
	7100 3550 7050 3550
Wire Wire Line
	7050 3550 7050 4100
Wire Wire Line
	8350 3550 8300 3550
Wire Wire Line
	8300 3550 8300 4000
Wire Bus Line
	4350 4950 8100 4950
Wire Bus Line
	8100 4950 8100 3800
Wire Bus Line
	6850 3800 6850 4950
Wire Bus Line
	5600 3800 5600 4950
Wire Wire Line
	4450 3700 4600 3700
Wire Wire Line
	4450 3800 4600 3800
Wire Wire Line
	4450 3900 4600 3900
Wire Wire Line
	4450 4000 4600 4000
Wire Wire Line
	4450 4100 4600 4100
Wire Wire Line
	4450 4200 4600 4200
Wire Wire Line
	4450 4300 4600 4300
Wire Wire Line
	4450 4450 4600 4450
Wire Wire Line
	4450 4550 4600 4550
Wire Wire Line
	4450 4700 4600 4700
Wire Wire Line
	5700 3700 5850 3700
Wire Wire Line
	5700 3800 5850 3800
Wire Wire Line
	5700 3900 5850 3900
Wire Wire Line
	5700 4000 5850 4000
Wire Wire Line
	5700 4100 5850 4100
Wire Wire Line
	5700 4200 5850 4200
Wire Wire Line
	5700 4300 5850 4300
Wire Wire Line
	5700 4450 5850 4450
Wire Wire Line
	5700 4550 5850 4550
Wire Wire Line
	5700 4700 5850 4700
Wire Wire Line
	6950 3700 7100 3700
Wire Wire Line
	6950 3800 7100 3800
Wire Wire Line
	6950 3900 7100 3900
Wire Wire Line
	6950 4000 7100 4000
Wire Wire Line
	6950 4100 7100 4100
Wire Wire Line
	6950 4200 7100 4200
Wire Wire Line
	6950 4300 7100 4300
Wire Wire Line
	8200 3700 8350 3700
Wire Wire Line
	8200 3800 8350 3800
Wire Wire Line
	8200 3900 8350 3900
Wire Wire Line
	8200 4000 8350 4000
Wire Wire Line
	8200 4100 8350 4100
Wire Wire Line
	8200 4200 8350 4200
Wire Wire Line
	8200 4300 8350 4300
Wire Wire Line
	6950 4450 7100 4450
Wire Wire Line
	6950 4550 7100 4550
Wire Wire Line
	8200 4450 8350 4450
Wire Wire Line
	8200 4550 8350 4550
Wire Wire Line
	8200 4700 8350 4700
Wire Wire Line
	6950 4700 7100 4700
Connection ~ 8300 4000
Connection ~ 7050 4100
Connection ~ 5750 4200
Connection ~ 4550 4300
Wire Wire Line
	5400 4700 5450 4700
Wire Wire Line
	5450 4700 5450 5050
Wire Wire Line
	5400 4600 5500 4600
Wire Wire Line
	5500 4600 5500 5200
Wire Wire Line
	5400 4500 5550 4500
Wire Wire Line
	6650 4700 6700 4700
Wire Wire Line
	6700 4700 6700 5050
Wire Wire Line
	6650 4600 6750 4600
Wire Wire Line
	6750 4600 6750 5200
Wire Wire Line
	6650 4500 6800 4500
Wire Wire Line
	6800 4500 6800 5150
Wire Wire Line
	7900 4700 7950 4700
Wire Wire Line
	7950 4700 7950 5050
Wire Wire Line
	7900 4600 8000 4600
Wire Wire Line
	8000 4600 8000 5200
Wire Wire Line
	7900 4500 8050 4500
Wire Wire Line
	8050 4500 8050 5150
Wire Wire Line
	9150 4700 9200 4700
Wire Wire Line
	9200 4700 9200 5050
Wire Wire Line
	9150 4600 9250 4600
Wire Wire Line
	9250 4600 9250 5200
Wire Wire Line
	9150 4500 9300 4500
Wire Wire Line
	9300 4500 9300 5150
Wire Wire Line
	3000 3450 2950 3450
Wire Wire Line
	2950 3450 2950 3750
Wire Wire Line
	2950 3750 4200 3750
Wire Wire Line
	4200 3750 4200 5750
Wire Wire Line
	4200 5750 10650 5750
Wire Wire Line
	10350 1750 10350 2200
Wire Wire Line
	10650 1750 10650 2200
Wire Wire Line
	10950 1750 10950 2200
Wire Wire Line
	10250 1950 10350 1950
Connection ~ 10350 1950
Wire Wire Line
	10250 2150 10950 2150
Connection ~ 10950 2150
Wire Wire Line
	10050 1950 9950 1950
Wire Wire Line
	9950 1950 9950 3400
Wire Wire Line
	10050 2150 9950 2150
Connection ~ 9950 2150
Wire Wire Line
	10050 2800 9950 2800
Connection ~ 9950 2800
Wire Wire Line
	10050 3000 9950 3000
Connection ~ 9950 3000
Wire Wire Line
	10050 3250 9950 3250
Connection ~ 9950 3250
Wire Wire Line
	10350 2700 10350 3950
Wire Wire Line
	10650 2700 10650 4000
Wire Wire Line
	10950 2700 10950 5050
Wire Wire Line
	10250 2800 10350 2800
Connection ~ 10350 2800
Wire Wire Line
	10250 3000 10650 3000
Connection ~ 10650 3000
Wire Wire Line
	10250 3250 10950 3250
Connection ~ 10950 3250
Wire Wire Line
	4150 1150 9500 1150
Connection ~ 6700 1150
Connection ~ 7950 1150
Connection ~ 9200 1150
Wire Wire Line
	5500 1100 9550 1100
Connection ~ 6750 1100
Connection ~ 8000 1100
Connection ~ 9250 1100
Wire Wire Line
	5550 1050 9600 1050
Connection ~ 6800 1050
Connection ~ 8050 1050
Connection ~ 9300 1050
Wire Wire Line
	9500 5050 4250 5050
Connection ~ 6700 5050
Connection ~ 7950 5050
Connection ~ 9200 5050
Connection ~ 6750 5100
Connection ~ 8000 5100
Connection ~ 9250 5100
Wire Wire Line
	9600 5150 5550 5150
Connection ~ 6800 5150
Connection ~ 8050 5150
Connection ~ 9300 5150
Wire Wire Line
	5300 5400 5700 5400
Connection ~ 5500 5400
Connection ~ 5500 5100
Wire Wire Line
	5700 5200 5700 5150
Connection ~ 5700 5150
Wire Wire Line
	5300 5050 5300 5200
Connection ~ 5450 5050
Wire Wire Line
	5500 5400 5500 5500
Wire Wire Line
	6550 5400 6950 5400
Connection ~ 6750 5400
Wire Wire Line
	6750 5400 6750 5500
Wire Wire Line
	7800 5400 8200 5400
Connection ~ 8000 5400
Wire Wire Line
	8000 5400 8000 5500
Wire Wire Line
	9050 5400 9450 5400
Connection ~ 9250 5400
Wire Wire Line
	9250 5400 9250 5500
Wire Wire Line
	9450 5150 9450 5200
Connection ~ 9450 5150
Wire Wire Line
	9050 5200 9050 5050
Connection ~ 9050 5050
Wire Wire Line
	8200 5200 8200 5150
Connection ~ 8200 5150
Wire Wire Line
	7800 5200 7800 5050
Connection ~ 7800 5050
Wire Wire Line
	6950 5200 6950 5150
Connection ~ 6950 5150
Wire Wire Line
	6550 5200 6550 5050
Connection ~ 6550 5050
Wire Wire Line
	9050 800  9450 800 
Connection ~ 9250 800 
Wire Wire Line
	9250 800  9250 700 
Wire Wire Line
	7800 800  8200 800 
Connection ~ 8000 800 
Wire Wire Line
	8000 800  8000 700 
Wire Wire Line
	6550 800  6950 800 
Connection ~ 6750 800 
Wire Wire Line
	6750 800  6750 700 
Wire Wire Line
	5300 800  5700 800 
Connection ~ 5500 800 
Wire Wire Line
	5500 800  5500 700 
Wire Wire Line
	5300 1000 5300 1150
Connection ~ 5450 1150
Connection ~ 5500 1100
Wire Wire Line
	5700 1000 5700 1050
Connection ~ 5700 1050
Wire Wire Line
	6550 1000 6550 1150
Connection ~ 6550 1150
Wire Wire Line
	6950 1000 6950 1050
Connection ~ 6950 1050
Wire Wire Line
	7800 1000 7800 1150
Connection ~ 7800 1150
Wire Wire Line
	8200 1000 8200 1050
Connection ~ 8200 1050
Wire Wire Line
	9050 1000 9050 1150
Connection ~ 9050 1150
Wire Wire Line
	9450 1000 9450 1050
Connection ~ 9450 1050
Wire Wire Line
	9500 1150 9500 5050
Wire Wire Line
	9550 1100 9550 5100
Wire Wire Line
	9600 1050 9600 5150
Wire Wire Line
	10350 3950 9550 3950
Connection ~ 9550 3950
Wire Wire Line
	10650 4000 9500 4000
Connection ~ 9500 4000
Wire Wire Line
	10950 4050 9600 4050
Connection ~ 9600 4050
Connection ~ 10950 4050
Wire Wire Line
	10950 5050 10850 5050
Wire Wire Line
	10350 5050 10250 5050
Wire Wire Line
	10350 5050 10350 5650
Wire Wire Line
	10350 5650 10650 5650
Wire Wire Line
	10950 5250 10950 5300
Wire Wire Line
	10250 5250 10250 5300
Wire Wire Line
	10550 6150 10650 6150
Wire Wire Line
	2300 5850 10650 5850
Wire Wire Line
	1300 5850 1800 5850
Wire Wire Line
	2400 6050 2400 6100
Wire Wire Line
	1700 6050 1700 6100
Connection ~ 1700 5850
Connection ~ 2400 5850
Wire Wire Line
	3000 3250 2900 3250
Wire Wire Line
	2900 3250 2900 3800
Wire Wire Line
	2900 3800 4150 3800
Wire Wire Line
	4150 3800 4150 6050
Wire Wire Line
	4150 6050 10650 6050
Wire Wire Line
	9800 5750 9800 6100
Wire Wire Line
	9800 6300 10000 6300
Wire Wire Line
	2450 3150 2500 3150
Wire Wire Line
	2500 3150 2500 3450
Wire Wire Line
	2500 3450 2150 3450
Wire Wire Line
	2150 3150 2050 3150
Wire Wire Line
	1500 3150 1500 3450
Wire Wire Line
	1500 3450 1850 3450
Wire Wire Line
	1550 3150 1500 3150
Wire Wire Line
	2600 3300 2500 3300
Wire Wire Line
	2600 2600 2600 3300
Wire Wire Line
	2600 3100 3000 3100
Connection ~ 2500 3300
Wire Wire Line
	3000 3000 1400 3000
Wire Wire Line
	1400 3000 1400 3300
Wire Wire Line
	1400 3300 1500 3300
Connection ~ 1500 3300
Connection ~ 2600 3300
Wire Wire Line
	3000 3350 2850 3350
Wire Wire Line
	2850 3350 2850 3800
Wire Wire Line
	2850 3800 2300 3800
Wire Wire Line
	3300 1150 3650 1150
Wire Wire Line
	4250 850  4250 900 
Wire Wire Line
	3550 900  3550 850 
Connection ~ 3550 1150
Connection ~ 4250 1150
Connection ~ 5300 1150
Wire Wire Line
	3550 1100 3550 1400
Wire Wire Line
	3300 900  3300 850 
Wire Wire Line
	3300 850  4250 850 
Connection ~ 3550 850 
Wire Wire Line
	4250 1100 4250 1150
Wire Wire Line
	3300 1100 3300 1150
Wire Wire Line
	3350 1250 3550 1250
Connection ~ 3550 1250
Wire Wire Line
	3150 1250 2800 1250
Wire Wire Line
	2800 1250 2800 1600
Wire Wire Line
	2800 1600 2700 1600
Wire Wire Line
	2200 1600 2100 1600
Wire Wire Line
	2100 1600 2100 2600
Wire Wire Line
	2100 2600 2600 2600
Connection ~ 2600 3100
Wire Wire Line
	1400 3900 1400 3800
Wire Wire Line
	1400 3800 1800 3800
Wire Wire Line
	1400 4100 1400 4200
Wire Wire Line
	1700 3800 1700 3900
Connection ~ 1700 3800
Wire Wire Line
	1400 4900 1400 5000
Wire Wire Line
	1400 4700 1400 4550
Wire Wire Line
	1400 4550 1800 4550
Connection ~ 1700 4550
Wire Wire Line
	1700 4400 1700 4550
Wire Wire Line
	2000 4550 2800 4550
Wire Wire Line
	2100 4550 2100 4700
Wire Wire Line
	2100 4200 2500 4200
Connection ~ 2300 4200
Connection ~ 2100 4550
Wire Wire Line
	2500 4550 2500 4700
Wire Wire Line
	2100 4950 2500 4950
Wire Wire Line
	2300 5100 2300 4950
Connection ~ 2300 4950
Wire Wire Line
	4250 5050 4250 3850
Wire Wire Line
	4250 3850 2300 3850
Wire Wire Line
	2300 3850 2300 3900
Connection ~ 5300 5050
Wire Wire Line
	2100 4900 2100 4950
Wire Wire Line
	2500 4950 2500 4900
Wire Wire Line
	2300 4100 2300 4200
Wire Wire Line
	2700 3900 2700 3850
Connection ~ 2700 3850
Wire Wire Line
	2700 4100 2700 4150
Wire Wire Line
	2500 4600 2800 4600
Wire Wire Line
	2800 4600 2800 4700
Connection ~ 2500 4600
Wire Wire Line
	2800 4900 2800 4950
Wire Wire Line
	3450 4100 3450 4150
Wire Wire Line
	3100 4350 3150 4350
Wire Wire Line
	3450 3900 3450 3850
Connection ~ 3450 3850
Wire Wire Line
	3100 4050 3100 3850
Connection ~ 3100 3850
Wire Wire Line
	3100 4250 3100 4350
Wire Wire Line
	3100 4800 3100 4750
Connection ~ 3100 5100
Wire Wire Line
	2100 4200 2100 4250
Wire Wire Line
	2500 4200 2500 4250
Wire Wire Line
	3100 5450 3100 5400
Wire Wire Line
	3450 4550 3450 4650
Wire Wire Line
	3450 4600 3700 4600
Connection ~ 3450 4600
Wire Wire Line
	3450 4850 3450 5100
Connection ~ 3450 5100
Wire Wire Line
	10650 5950 4100 5950
Wire Wire Line
	4100 5950 4100 4600
Wire Wire Line
	4100 4600 3900 4600
Wire Wire Line
	5550 5150 5550 4500
Connection ~ 9800 5750
Wire Wire Line
	10000 6100 10000 6050
Connection ~ 10000 6050
$Comp
L PN2222A Q201
U 1 1 5615521B
P 3350 4350
F 0 "Q201" H 3550 4425 50  0000 L CNN
F 1 "PN2222A" H 3550 4350 50  0000 L CNN
F 2 "Housings_TO-92:TO-92_Inline_Narrow_Oval" H 3550 4275 50  0001 L CIN
F 3 "" H 3350 4350 50  0000 L CNN
	1    3350 4350
	1    0    0    -1  
$EndComp
$Comp
L MMBT3906 Q200
U 1 1 56155BC8
P 3000 4550
F 0 "Q200" H 3200 4625 50  0000 L CNN
F 1 "2N3906" H 3200 4550 50  0000 L CNN
F 2 "Housings_TO-92:TO-92_Inline_Narrow_Oval" H 3200 4475 50  0001 L CIN
F 3 "" H 3000 4550 50  0000 L CNN
	1    3000 4550
	1    0    0    1   
$EndComp
$Comp
L -5V #PWR098
U 1 1 56146E8D
P 10350 1750
F 0 "#PWR098" H 10350 1850 50  0001 C CNN
F 1 "-5V" H 10350 1900 50  0000 C CNN
F 2 "" H 10350 1750 60  0000 C CNN
F 3 "" H 10350 1750 60  0000 C CNN
	1    10350 1750
	1    0    0    -1  
$EndComp
$EndSCHEMATC
