EESchema Schematic File Version 2
LIBS:74ls30
LIBS:SN74LS25
LIBS:74xx
LIBS:power
LIBS:device
LIBS:switches
LIBS:relays
LIBS:transistors
LIBS:conn
LIBS:linear
LIBS:regul
LIBS:memory
LIBS:analog_switches
LIBS:motorola
LIBS:texas
LIBS:intel
LIBS:interface
LIBS:philips
LIBS:contrib
LIBS:valves
LIBS:EPROMer512-cache
EELAYER 25 0
EELAYER END
$Descr A4 11693 8268
encoding utf-8
Sheet 1 1
Title "EPROMer 512"
Date "2018-05-07"
Rev "1.1"
Comp "© 1988-2018, entwickelt von Jürgen Reimer und Henrik Wedekind"
Comment1 "Diese Schaltung Enthält alle Modifikationen und Korrekturen des ersten PCB-Prototyps"
Comment2 "Programmierbare EPROMs: 2732, 2764, 27128, 27256, 27512"
Comment3 "EPROM Programmiergerät für den Modulschacht des TI-99/4A."
Comment4 ""
$EndDescr
$Comp
L 74LS30 U6
U 1 1 5AE70CE7
P 1450 5050
F 0 "U6" H 1450 5150 50  0000 C CNN
F 1 "74LS30" H 1450 4950 50  0000 C CNN
F 2 "Housings_DIP:DIP-14_W7.62mm" H 1450 5050 50  0001 C CNN
F 3 "" H 1450 5050 50  0001 C CNN
	1    1450 5050
	1    0    0    -1  
$EndComp
$Comp
L 74LS139 U7
U 1 1 5AE70D26
P 3250 2950
F 0 "U7" H 3250 3050 50  0000 C CNN
F 1 "74LS139" H 3250 2850 50  0000 C CNN
F 2 "Housings_DIP:DIP-16_W7.62mm" H 3250 2950 50  0001 C CNN
F 3 "" H 3250 2950 50  0001 C CNN
F 4 "Addressdecoder Readonly" H 3250 2950 60  0001 C CNN "Description"
	1    3250 2950
	1    0    0    -1  
$EndComp
$Comp
L 74LS139 U7
U 2 1 5AE70DAB
P 3250 2150
F 0 "U7" H 3250 2250 50  0000 C CNN
F 1 "74LS139" H 3250 2050 50  0000 C CNN
F 2 "Housings_DIP:DIP-16_W7.62mm" H 3250 2150 50  0001 C CNN
F 3 "" H 3250 2150 50  0001 C CNN
F 4 "Addressdecoder Readonly" H 3250 2150 60  0001 C CNN "Description"
	2    3250 2150
	1    0    0    1   
$EndComp
$Comp
L 74LS373 U2
U 1 1 5AE70DD4
P 7700 2550
F 0 "U2" H 7700 2550 50  0000 C CNN
F 1 "74LS373" H 7750 2200 50  0000 C CNN
F 2 "Housings_DIP:DIP-20_W7.62mm" H 7700 2550 50  0001 C CNN
F 3 "" H 7700 2550 50  0001 C CNN
F 4 "Address-Latch 2 (E_A15-E_A08)" H 7700 2550 60  0001 C CNN "Description"
	1    7700 2550
	1    0    0    -1  
$EndComp
$Comp
L 74LS373 U1
U 1 1 5AE70E2F
P 7700 1250
F 0 "U1" H 7700 1250 50  0000 C CNN
F 1 "74LS373" H 7750 900 50  0000 C CNN
F 2 "Housings_DIP:DIP-20_W7.62mm" H 7700 1250 50  0001 C CNN
F 3 "" H 7700 1250 50  0001 C CNN
F 4 "Address-Latch 1 (E_A00-E_A07)" H 7700 1250 60  0001 C CNN "Description"
	1    7700 1250
	1    0    0    -1  
$EndComp
$Comp
L 74LS373 U4
U 1 1 5AE70E88
P 7700 4000
F 0 "U4" H 7700 4000 50  0000 C CNN
F 1 "74LS373" H 7750 3650 50  0000 C CNN
F 2 "Housings_DIP:DIP-20_W7.62mm" H 7700 4000 50  0001 C CNN
F 3 "" H 7700 4000 50  0001 C CNN
F 4 "Steuer-Latch" H 7700 4000 60  0001 C CNN "Description"
	1    7700 4000
	1    0    0    -1  
$EndComp
$Comp
L 74LS373 U3
U 1 1 5AE70EC3
P 8000 5700
F 0 "U3" H 8000 5700 50  0000 C CNN
F 1 "74LS373" H 8050 5350 50  0000 C CNN
F 2 "Housings_DIP:DIP-20_W7.62mm" H 8000 5700 50  0001 C CNN
F 3 "" H 8000 5700 50  0001 C CNN
F 4 "Data-Latch" H 8000 5700 60  0001 C CNN "Description"
	1    8000 5700
	1    0    0    -1  
$EndComp
$Comp
L 74LS244 U10
U 1 1 5AE710C8
P 5700 5700
F 0 "U10" H 5750 5500 50  0000 C CNN
F 1 "74LS244" H 5800 5300 50  0000 C CNN
F 2 "Housings_DIP:DIP-20_W7.62mm" H 5700 5700 50  0001 C CNN
F 3 "" H 5700 5700 50  0001 C CNN
	1    5700 5700
	-1   0    0    -1  
$EndComp
$Comp
L 74LS04 U9
U 1 1 5AE7110D
P 1600 4250
F 0 "U9" H 1795 4365 50  0000 C CNN
F 1 "74LS04" H 1790 4125 50  0000 C CNN
F 2 "Housings_DIP:DIP-14_W7.62mm" H 1600 4250 50  0001 C CNN
F 3 "" H 1600 4250 50  0001 C CNN
	1    1600 4250
	1    0    0    -1  
$EndComp
$Comp
L 74LS04 U9
U 2 1 5AE711A8
P 1600 750
F 0 "U9" H 1795 865 50  0000 C CNN
F 1 "74LS04" H 1790 625 50  0000 C CNN
F 2 "Housings_DIP:DIP-14_W7.62mm" H 1600 750 50  0001 C CNN
F 3 "" H 1600 750 50  0001 C CNN
	2    1600 750 
	1    0    0    -1  
$EndComp
$Comp
L 74LS04 U9
U 3 1 5AE711F7
P 6150 4650
F 0 "U9" H 6345 4765 50  0000 C CNN
F 1 "74LS04" H 6340 4525 50  0000 C CNN
F 2 "Housings_DIP:DIP-14_W7.62mm" H 6150 4650 50  0001 C CNN
F 3 "" H 6150 4650 50  0001 C CNN
	3    6150 4650
	1    0    0    -1  
$EndComp
$Comp
L 74LS04 U9
U 4 1 5AE71262
P 6150 3450
F 0 "U9" H 6345 3565 50  0000 C CNN
F 1 "74LS04" H 6340 3325 50  0000 C CNN
F 2 "Housings_DIP:DIP-14_W7.62mm" H 6150 3450 50  0001 C CNN
F 3 "" H 6150 3450 50  0001 C CNN
	4    6150 3450
	1    0    0    -1  
$EndComp
$Comp
L 74LS04 U9
U 5 1 5AE71297
P 2850 1550
F 0 "U9" H 3045 1665 50  0000 C CNN
F 1 "74LS04" H 3040 1425 50  0000 C CNN
F 2 "Housings_DIP:DIP-14_W7.62mm" H 2850 1550 50  0001 C CNN
F 3 "" H 2850 1550 50  0001 C CNN
	5    2850 1550
	-1   0    0    -1  
$EndComp
$Comp
L 74LS04 U9
U 6 1 5AE712CC
P 2850 3550
F 0 "U9" H 3045 3665 50  0000 C CNN
F 1 "74LS04" H 3040 3425 50  0000 C CNN
F 2 "Housings_DIP:DIP-14_W7.62mm" H 2850 3550 50  0001 C CNN
F 3 "" H 2850 3550 50  0001 C CNN
	6    2850 3550
	-1   0    0    -1  
$EndComp
$Comp
L 74LS25 U8
U 1 1 5AE74EF6
P 2700 1000
F 0 "U8" H 2700 1050 60  0000 C CNN
F 1 "74LS25" H 2700 950 60  0000 C CNN
F 2 "Housings_DIP:DIP-14_W7.62mm" H 2700 1390 60  0001 C CNN
F 3 "" H 2900 900 60  0000 C CNN
	1    2700 1000
	1    0    0    1   
$EndComp
$Comp
L 74LS25 U8
U 2 1 5AE74F4D
P 2700 4100
F 0 "U8" H 2700 4150 60  0000 C CNN
F 1 "74LS25" H 2700 4050 60  0000 C CNN
F 2 "Housings_DIP:DIP-14_W7.62mm" H 2700 4490 60  0001 C CNN
F 3 "" H 2900 4000 60  0000 C CNN
	2    2700 4100
	1    0    0    1   
$EndComp
Text GLabel 800  4250 0    60   Input ~ 0
DBIN
Text GLabel 800  2700 0    60   Input ~ 0
A11
Text GLabel 800  4700 0    60   Input ~ 0
A3
Text GLabel 800  4800 0    60   Input ~ 0
A4
Text GLabel 800  4900 0    60   Input ~ 0
A8
Text GLabel 800  5000 0    60   Input ~ 0
A5
Text GLabel 800  5100 0    60   Input ~ 0
A9
Text GLabel 800  5200 0    60   Input ~ 0
A10
Text GLabel 800  5300 0    60   Input ~ 0
A6
Text GLabel 800  5400 0    60   Input ~ 0
A7
Text GLabel 800  5550 0    60   Input ~ 0
~ROMG
Text GLabel 800  950  0    60   Input ~ 0
~WE
Text GLabel 800  2600 0    60   Input ~ 0
A12
Text GLabel 800  2500 0    60   Input ~ 0
A13
$Comp
L VCC #PWR01
U 1 1 5AE76BDA
P 2150 1250
F 0 "#PWR01" H 2150 1100 50  0001 C CNN
F 1 "VCC" H 2150 1400 50  0000 C CNN
F 2 "" H 2150 1250 50  0001 C CNN
F 3 "" H 2150 1250 50  0001 C CNN
	1    2150 1250
	1    0    0    -1  
$EndComp
$Comp
L VCC #PWR02
U 1 1 5AE76C0E
P 2150 3850
F 0 "#PWR02" H 2150 3700 50  0001 C CNN
F 1 "VCC" H 2150 4000 50  0000 C CNN
F 2 "" H 2150 3850 50  0001 C CNN
F 3 "" H 2150 3850 50  0001 C CNN
	1    2150 3850
	1    0    0    -1  
$EndComp
Text GLabel 3400 7250 0    60   Input ~ 0
A15
Text GLabel 3400 7150 0    60   Input ~ 0
A14
Text GLabel 3400 7050 0    60   Input ~ 0
A13
Text GLabel 3400 6950 0    60   Input ~ 0
A12
Text GLabel 3400 6850 0    60   Input ~ 0
A11
Text GLabel 3400 6750 0    60   Input ~ 0
A10
Text GLabel 3400 6650 0    60   Input ~ 0
A9
Text GLabel 3400 6550 0    60   Input ~ 0
A8
Text GLabel 3400 6450 0    60   Input ~ 0
A7
Text GLabel 3400 6350 0    60   Input ~ 0
A6
Text GLabel 3400 6250 0    60   Input ~ 0
A5
Text GLabel 3400 6150 0    60   Input ~ 0
A4
Text GLabel 3400 6050 0    60   Input ~ 0
A3
Text GLabel 5000 5600 0    60   BiDi ~ 0
D0
Text GLabel 5000 5500 0    60   BiDi ~ 0
D1
Text GLabel 5000 5700 0    60   BiDi ~ 0
D2
Text GLabel 5000 5800 0    60   BiDi ~ 0
D3
Text GLabel 5000 5400 0    60   BiDi ~ 0
D4
Text GLabel 5000 5200 0    60   BiDi ~ 0
D5
Text GLabel 5000 5900 0    60   BiDi ~ 0
D6
Text GLabel 5000 5300 0    60   BiDi ~ 0
D7
$Comp
L Conn_02x14_Counter_Clockwise J1
U 1 1 5AE7CDD9
P 10150 1750
F 0 "J1" H 10200 2450 50  0000 C CNN
F 1 "TEXTOOL Socket" H 10200 950 50  0000 C CNN
F 2 "Sockets:28tex600" H 10150 1750 50  0001 C CNN
F 3 "" H 10150 1750 50  0001 C CNN
	1    10150 1750
	1    0    0    -1  
$EndComp
$Comp
L VCC #PWR03
U 1 1 5AE7DC67
P 3300 5750
F 0 "#PWR03" H 3300 5600 50  0001 C CNN
F 1 "VCC" H 3300 5900 50  0000 C CNN
F 2 "" H 3300 5750 50  0001 C CNN
F 3 "" H 3300 5750 50  0001 C CNN
	1    3300 5750
	1    0    0    -1  
$EndComp
$Comp
L 74LS00 U11
U 4 1 5AE7E10B
P 2700 4950
F 0 "U11" H 2700 5000 50  0000 C CNN
F 1 "74LS00" H 2700 4850 50  0000 C CNN
F 2 "Housings_DIP:DIP-14_W7.62mm" H 2700 4950 50  0001 C CNN
F 3 "" H 2700 4950 50  0001 C CNN
	4    2700 4950
	1    0    0    -1  
$EndComp
Text Label 4100 2650 0    60   ~ 0
>7FE0
Text Label 4100 3050 0    60   ~ 0
>7FE4
Text Label 4100 2850 0    60   ~ 0
>7FE8
Text Label 4100 3250 0    60   ~ 0
>7FEC
Text Label 4100 2450 0    60   ~ 0
>7FF0
Text Label 4100 2050 0    60   ~ 0
>7FF4
Text Label 4100 2250 0    60   ~ 0
>7FF8
Text Label 4100 1850 0    60   ~ 0
>7FFC
$Comp
L 74LS00 U11
U 3 1 5AE80F90
P 6300 1650
F 0 "U11" H 6300 1700 50  0000 C CNN
F 1 "74LS00" H 6300 1550 50  0000 C CNN
F 2 "Housings_DIP:DIP-14_W7.62mm" H 6300 1650 50  0001 C CNN
F 3 "" H 6300 1650 50  0001 C CNN
	3    6300 1650
	1    0    0    -1  
$EndComp
$Comp
L 74LS00 U11
U 2 1 5AE81006
P 6300 2950
F 0 "U11" H 6300 3000 50  0000 C CNN
F 1 "74LS00" H 6300 2850 50  0000 C CNN
F 2 "Housings_DIP:DIP-14_W7.62mm" H 6300 2950 50  0001 C CNN
F 3 "" H 6300 2950 50  0001 C CNN
	2    6300 2950
	1    0    0    -1  
$EndComp
$Comp
L 74LS00 U11
U 1 1 5AE81045
P 9900 2900
F 0 "U11" H 9900 2950 50  0000 C CNN
F 1 "74LS00" H 9900 2800 50  0000 C CNN
F 2 "Housings_DIP:DIP-14_W7.62mm" H 9900 2900 50  0001 C CNN
F 3 "" H 9900 2900 50  0001 C CNN
	1    9900 2900
	1    0    0    -1  
$EndComp
NoConn ~ 4100 2650
NoConn ~ 4100 2850
NoConn ~ 4100 3050
$Comp
L Conn_02x18_Odd_Even J2
U 1 1 5AE886BA
P 1800 6600
F 0 "J2" H 1850 7500 50  0000 C CNN
F 1 "GROM Port" H 1850 5600 50  0000 C CNN
F 2 "TI99_Connectors:CART_BUS_SHORT" H 1800 6600 50  0001 C CNN
F 3 "" H 1800 6600 50  0001 C CNN
	1    1800 6600
	1    0    0    -1  
$EndComp
Text GLabel 2100 6400 2    60   Input ~ 0
A11
Text GLabel 2100 6300 2    60   Input ~ 0
A12
Text GLabel 2100 6200 2    60   Input ~ 0
A13
Text GLabel 2100 6100 2    60   Input ~ 0
A15
$Comp
L GND #PWR04
U 1 1 5AE888DD
P 2400 5850
F 0 "#PWR04" H 2400 5600 50  0001 C CNN
F 1 "GND" H 2400 5700 50  0000 C CNN
F 2 "" H 2400 5850 50  0001 C CNN
F 3 "" H 2400 5850 50  0001 C CNN
	1    2400 5850
	1    0    0    -1  
$EndComp
Text GLabel 2100 6500 2    60   Input ~ 0
A10
Text GLabel 2100 6600 2    60   Input ~ 0
A9
Text GLabel 2100 6700 2    60   Input ~ 0
A8
Text GLabel 2100 6800 2    60   Input ~ 0
A7
Text GLabel 2100 6900 2    60   Input ~ 0
A3
Text GLabel 2100 7000 2    60   Input ~ 0
A6
Text GLabel 2100 7100 2    60   Input ~ 0
A5
Text GLabel 2100 7200 2    60   Input ~ 0
A4
Text GLabel 2100 7300 2    60   Input ~ 0
~WE
Text GLabel 2100 7400 2    60   Input ~ 0
~ROMG
$Comp
L GND #PWR05
U 1 1 5AE88E55
P 1500 7550
F 0 "#PWR05" H 1500 7300 50  0001 C CNN
F 1 "GND" H 1500 7400 50  0000 C CNN
F 2 "" H 1500 7550 50  0001 C CNN
F 3 "" H 1500 7550 50  0001 C CNN
	1    1500 7550
	1    0    0    -1  
$EndComp
$Comp
L -5V #PWR2
U 1 1 5AE89065
P 1200 7150
F 0 "#PWR2" H 1200 7250 50  0001 C CNN
F 1 "-5V" H 1200 7300 50  0000 C CNN
F 2 "" H 1200 7150 50  0001 C CNN
F 3 "" H 1200 7150 50  0001 C CNN
	1    1200 7150
	1    0    0    -1  
$EndComp
Text GLabel 1600 7000 0    60   Input ~ 0
DBIN
Text GLabel 1600 6900 0    60   Input ~ 0
A14
Text GLabel 1600 6600 0    60   BiDi ~ 0
D0
Text GLabel 1600 6500 0    60   BiDi ~ 0
D1
Text GLabel 1600 6400 0    60   BiDi ~ 0
D2
Text GLabel 1600 6300 0    60   BiDi ~ 0
D3
Text GLabel 1600 6200 0    60   BiDi ~ 0
D4
Text GLabel 1600 6100 0    60   BiDi ~ 0
D5
Text GLabel 1600 6000 0    60   BiDi ~ 0
D6
Text GLabel 1600 5900 0    60   BiDi ~ 0
D7
$Comp
L Conn_02x11_Odd_Even J3
U 1 1 5AE8A09F
P 10150 3800
F 0 "J3" H 10200 4400 50  0000 C CNN
F 1 "Brücken Stecker" H 10200 3200 50  0000 C CNN
F 2 "TI99_Connectors:CONFIG_CONN" H 10150 3800 50  0001 C CNN
F 3 "" H 10150 3800 50  0001 C CNN
	1    10150 3800
	1    0    0    -1  
$EndComp
Text GLabel 7000 2750 0    60   BiDi ~ 0
D0
Text GLabel 7000 2650 0    60   BiDi ~ 0
D1
Text GLabel 7000 2550 0    60   BiDi ~ 0
D2
Text GLabel 7000 2450 0    60   BiDi ~ 0
D3
Text GLabel 7000 2350 0    60   BiDi ~ 0
D4
Text GLabel 7000 2250 0    60   BiDi ~ 0
D5
Text GLabel 7000 2150 0    60   BiDi ~ 0
D6
Text GLabel 7000 750  0    60   BiDi ~ 0
D7
Text GLabel 7000 2050 0    60   BiDi ~ 0
D7
Text GLabel 7000 3500 0    60   BiDi ~ 0
D7
Text GLabel 7000 850  0    60   BiDi ~ 0
D6
Text GLabel 7000 3600 0    60   BiDi ~ 0
D6
Text GLabel 7000 950  0    60   BiDi ~ 0
D5
Text GLabel 7000 3700 0    60   BiDi ~ 0
D5
Text GLabel 7000 1050 0    60   BiDi ~ 0
D4
Text GLabel 7000 3800 0    60   BiDi ~ 0
D4
Text GLabel 7000 1150 0    60   BiDi ~ 0
D3
Text GLabel 7000 3900 0    60   BiDi ~ 0
D3
Text GLabel 7000 1250 0    60   BiDi ~ 0
D2
Text GLabel 7000 4000 0    60   BiDi ~ 0
D2
Text GLabel 7000 1350 0    60   BiDi ~ 0
D1
Text GLabel 7000 4100 0    60   BiDi ~ 0
D1
Text GLabel 7000 1450 0    60   BiDi ~ 0
D0
Text GLabel 7000 4200 0    60   BiDi ~ 0
D0
Text GLabel 7300 5200 0    60   BiDi ~ 0
D7
Text GLabel 7300 5300 0    60   BiDi ~ 0
D6
Text GLabel 7300 5400 0    60   BiDi ~ 0
D5
Text GLabel 7300 5500 0    60   BiDi ~ 0
D4
Text GLabel 7300 5600 0    60   BiDi ~ 0
D3
Text GLabel 7300 5700 0    60   BiDi ~ 0
D2
Text GLabel 7300 5800 0    60   BiDi ~ 0
D1
Text GLabel 7300 5900 0    60   BiDi ~ 0
D0
Text GLabel 4800 6550 2    60   BiDi ~ 0
D0
Text GLabel 4800 7250 2    60   BiDi ~ 0
D7
Text GLabel 4800 7150 2    60   BiDi ~ 0
D6
Text GLabel 4800 7050 2    60   BiDi ~ 0
D5
Text GLabel 4800 6950 2    60   BiDi ~ 0
D4
Text GLabel 4800 6850 2    60   BiDi ~ 0
D3
Text GLabel 4800 6750 2    60   BiDi ~ 0
D2
Text GLabel 4800 6650 2    60   BiDi ~ 0
D1
$Comp
L GND #PWR06
U 1 1 5AE98070
P 10450 3300
F 0 "#PWR06" H 10450 3050 50  0001 C CNN
F 1 "GND" H 10450 3150 50  0000 C CNN
F 2 "" H 10450 3300 50  0001 C CNN
F 3 "" H 10450 3300 50  0001 C CNN
	1    10450 3300
	0    -1   -1   0   
$EndComp
$Comp
L VCC #PWR07
U 1 1 5AE980B4
P 9950 4300
F 0 "#PWR07" H 9950 4150 50  0001 C CNN
F 1 "VCC" H 9950 4450 50  0000 C CNN
F 2 "" H 9950 4300 50  0001 C CNN
F 3 "" H 9950 4300 50  0001 C CNN
	1    9950 4300
	0    -1   -1   0   
$EndComp
$Comp
L VPP #PWR08
U 1 1 5AE9817C
P 10750 4750
F 0 "#PWR08" H 10750 4600 50  0001 C CNN
F 1 "VPP" H 10750 4900 50  0000 C CNN
F 2 "" H 10750 4750 50  0001 C CNN
F 3 "" H 10750 4750 50  0001 C CNN
	1    10750 4750
	1    0    0    -1  
$EndComp
NoConn ~ 9950 4200
NoConn ~ 10450 4000
NoConn ~ 10450 4100
$Comp
L GND #PWR09
U 1 1 5AE9822A
P 10450 4300
F 0 "#PWR09" H 10450 4050 50  0001 C CNN
F 1 "GND" H 10450 4150 50  0000 C CNN
F 2 "" H 10450 4300 50  0001 C CNN
F 3 "" H 10450 4300 50  0001 C CNN
	1    10450 4300
	0    -1   -1   0   
$EndComp
Text GLabel 10450 3700 2    60   Output ~ 0
~E_OE
Text GLabel 10500 2900 2    60   Output ~ 0
~E_OE
Text GLabel 8400 3700 2    60   Output ~ 0
~E_CE
Text GLabel 10450 3800 2    60   Output ~ 0
~E_CE
Text GLabel 10450 3900 2    60   Output ~ 0
~PGM
Text GLabel 8400 3800 2    60   Output ~ 0
~PGM
Text GLabel 9950 3300 0    60   Output ~ 0
E_A15
Text GLabel 9950 3400 0    60   Output ~ 0
E_A14
Text GLabel 9950 3500 0    60   Output ~ 0
E_A13
Text GLabel 9950 3600 0    60   Output ~ 0
E_A11
Text GLabel 9950 3700 0    60   Input ~ 0
E_P26
Text GLabel 9950 3800 0    60   Input ~ 0
E_P23
Text GLabel 9950 4000 0    60   Input ~ 0
E_P20
Text GLabel 10450 3400 2    60   Input ~ 0
E_P28
Text GLabel 10450 3500 2    60   Input ~ 0
E_P27
Text GLabel 10450 3600 2    60   Input ~ 0
E_P01
Text Label 10450 4000 0    60   Italic 0
(12V5)
Text Label 10450 4100 0    60   Italic 0
(25V)
Text GLabel 10450 1150 2    60   Input ~ 0
E_P28
Text GLabel 10450 1250 2    60   Input ~ 0
E_P27
Text GLabel 9950 1150 0    60   Input ~ 0
E_P01
Text GLabel 10450 1350 2    60   Input ~ 0
E_P26
Text GLabel 10450 1650 2    60   Input ~ 0
E_P23
Text GLabel 10450 1950 2    60   Input ~ 0
E_P20
Text GLabel 8400 1450 2    60   Output ~ 0
E_A15
Text GLabel 8400 1350 2    60   Output ~ 0
E_A14
Text GLabel 8400 1250 2    60   Output ~ 0
E_A13
Text GLabel 8400 1050 2    60   Output ~ 0
E_A11
Text Label 8400 2050 0    60   ~ 0
E_A00
Text Label 8400 2750 0    60   ~ 0
E_A07
Text Label 8400 750  0    60   ~ 0
E_A08
$Comp
L GND #PWR010
U 1 1 5AE9F813
P 9950 2450
F 0 "#PWR010" H 9950 2200 50  0001 C CNN
F 1 "GND" H 9950 2300 50  0000 C CNN
F 2 "" H 9950 2450 50  0001 C CNN
F 3 "" H 9950 2450 50  0001 C CNN
	1    9950 2450
	0    1    1    0   
$EndComp
Text GLabel 8700 5200 2    60   BiDi ~ 0
E_D0
Text GLabel 6400 5300 2    60   BiDi ~ 0
E_D0
Text GLabel 9950 2150 0    60   BiDi ~ 0
E_D0
Text GLabel 9950 2250 0    60   BiDi ~ 0
E_D1
Text GLabel 9950 2350 0    60   BiDi ~ 0
E_D2
Text GLabel 10450 2450 2    60   BiDi ~ 0
E_D3
Text GLabel 10450 2350 2    60   BiDi ~ 0
E_D4
Text GLabel 10450 2250 2    60   BiDi ~ 0
E_D5
Text GLabel 10450 2150 2    60   BiDi ~ 0
E_D6
Text GLabel 10450 2050 2    60   BiDi ~ 0
E_D7
Text GLabel 8700 5300 2    60   BiDi ~ 0
E_D1
Text GLabel 8700 5400 2    60   BiDi ~ 0
E_D2
Text GLabel 8700 5500 2    60   BiDi ~ 0
E_D3
Text GLabel 8700 5600 2    60   BiDi ~ 0
E_D4
Text GLabel 8700 5700 2    60   BiDi ~ 0
E_D5
Text GLabel 8700 5800 2    60   BiDi ~ 0
E_D6
Text GLabel 8700 5900 2    60   BiDi ~ 0
E_D7
Text GLabel 6400 5900 2    60   BiDi ~ 0
E_D1
Text GLabel 6400 5200 2    60   BiDi ~ 0
E_D2
Text GLabel 6400 5400 2    60   BiDi ~ 0
E_D3
Text GLabel 6400 5800 2    60   BiDi ~ 0
E_D4
Text GLabel 6400 5700 2    60   BiDi ~ 0
E_D5
Text GLabel 6400 5500 2    60   BiDi ~ 0
E_D6
Text GLabel 6400 5600 2    60   BiDi ~ 0
E_D7
$Comp
L GND #PWR011
U 1 1 5AEA4DFC
P 7000 4500
F 0 "#PWR011" H 7000 4250 50  0001 C CNN
F 1 "GND" H 7000 4350 50  0000 C CNN
F 2 "" H 7000 4500 50  0001 C CNN
F 3 "" H 7000 4500 50  0001 C CNN
	1    7000 4500
	0    1    1    0   
$EndComp
$Comp
L R_Small R1
U 1 1 5AEA4E9F
P 9150 5700
F 0 "R1" H 9180 5720 50  0000 L CNN
F 1 "4k7" H 9180 5660 50  0000 L CNN
F 2 "Epromer_Resistors:R9" H 9150 5700 50  0001 C CNN
F 3 "" H 9150 5700 50  0001 C CNN
	1    9150 5700
	1    0    0    -1  
$EndComp
$Comp
L R_Small R2
U 1 1 5AEA4EE6
P 9150 6050
F 0 "R2" H 9180 6070 50  0000 L CNN
F 1 "4k7" H 9180 6010 50  0000 L CNN
F 2 "Epromer_Resistors:R5" H 9150 6050 50  0001 C CNN
F 3 "" H 9150 6050 50  0001 C CNN
	1    9150 6050
	1    0    0    -1  
$EndComp
$Comp
L GND #PWR012
U 1 1 5AEA4F4F
P 9150 6200
F 0 "#PWR012" H 9150 5950 50  0001 C CNN
F 1 "GND" H 9150 6050 50  0000 C CNN
F 2 "" H 9150 6200 50  0001 C CNN
F 3 "" H 9150 6200 50  0001 C CNN
	1    9150 6200
	1    0    0    -1  
$EndComp
$Comp
L GND #PWR013
U 1 1 5AEA5645
P 9500 6200
F 0 "#PWR013" H 9500 5950 50  0001 C CNN
F 1 "GND" H 9500 6050 50  0000 C CNN
F 2 "" H 9500 6200 50  0001 C CNN
F 3 "" H 9500 6200 50  0001 C CNN
	1    9500 6200
	1    0    0    -1  
$EndComp
$Comp
L R_Small R4
U 1 1 5AEA57B7
P 9500 5550
F 0 "R4" H 9530 5570 50  0000 L CNN
F 1 "4k7" H 9530 5510 50  0000 L CNN
F 2 "Epromer_Resistors:R4" H 9500 5550 50  0001 C CNN
F 3 "" H 9500 5550 50  0001 C CNN
	1    9500 5550
	1    0    0    -1  
$EndComp
$Comp
L LED D1
U 1 1 5AEA5994
P 9700 5400
F 0 "D1" H 9700 5500 50  0000 C CNN
F 1 "LED (rt)" H 9700 5300 50  0000 C CNN
F 2 "LEDs:LED_D4.0mm" H 9700 5400 50  0001 C CNN
F 3 "" H 9700 5400 50  0001 C CNN
	1    9700 5400
	1    0    0    1   
$EndComp
$Comp
L GND #PWR014
U 1 1 5AEA5BF3
P 10250 6200
F 0 "#PWR014" H 10250 5950 50  0001 C CNN
F 1 "GND" H 10250 6050 50  0000 C CNN
F 2 "" H 10250 6200 50  0001 C CNN
F 3 "" H 10250 6200 50  0001 C CNN
	1    10250 6200
	1    0    0    -1  
$EndComp
$Comp
L Q_NPN_CBE Q1
U 1 1 5AEA620E
P 9400 5900
F 0 "Q1" H 9600 5950 50  0000 L CNN
F 1 "NPN BC182" H 9600 5850 50  0000 L CNN
F 2 "TO_SOT_Packages_THT:TO-92_Inline_Narrow_Oval" H 9600 6000 50  0001 C CNN
F 3 "" H 9400 5900 50  0001 C CNN
	1    9400 5900
	1    0    0    -1  
$EndComp
$Comp
L Q_PNP_CBE Q2
U 1 1 5AEA6271
P 10150 5400
F 0 "Q2" H 10350 5450 50  0000 L CNN
F 1 "PNP BC212" H 10350 5350 50  0000 L CNN
F 2 "TO_SOT_Packages_THT:TO-92_Inline_Narrow_Oval" H 10350 5500 50  0001 C CNN
F 3 "" H 10150 5400 50  0001 C CNN
	1    10150 5400
	1    0    0    1   
$EndComp
$Comp
L LED D2
U 1 1 5AEA65B0
P 10900 5900
F 0 "D2" H 10900 6000 50  0000 C CNN
F 1 "LED (gn)" H 10900 5800 50  0000 C CNN
F 2 "LEDs:LED_D4.0mm" H 10900 5900 50  0001 C CNN
F 3 "" H 10900 5900 50  0001 C CNN
	1    10900 5900
	0    -1   -1   0   
$EndComp
$Comp
L R_Small R3
U 1 1 5AEA68B7
P 9900 5250
F 0 "R3" H 9930 5270 50  0000 L CNN
F 1 "4k7" H 9930 5210 50  0000 L CNN
F 2 "Discret:R1" H 9900 5250 50  0001 C CNN
F 3 "" H 9900 5250 50  0001 C CNN
	1    9900 5250
	1    0    0    -1  
$EndComp
$Comp
L GND #PWR015
U 1 1 5AEA7C46
P 10900 6200
F 0 "#PWR015" H 10900 5950 50  0001 C CNN
F 1 "GND" H 10900 6050 50  0000 C CNN
F 2 "" H 10900 6200 50  0001 C CNN
F 3 "" H 10900 6200 50  0001 C CNN
	1    10900 6200
	1    0    0    -1  
$EndComp
$Comp
L R_Small R5
U 1 1 5AEA7D95
P 10250 5900
F 0 "R5" H 10280 5920 50  0000 L CNN
F 1 "4k7" H 10280 5860 50  0000 L CNN
F 2 "Discret:R1" H 10250 5900 50  0001 C CNN
F 3 "" H 10250 5900 50  0001 C CNN
	1    10250 5900
	-1   0    0    1   
$EndComp
$Comp
L R_Small R6
U 1 1 5AEA7E32
P 10900 5400
F 0 "R6" H 10930 5420 50  0000 L CNN
F 1 "4k7" H 10930 5360 50  0000 L CNN
F 2 "Discret:R1" H 10900 5400 50  0001 C CNN
F 3 "" H 10900 5400 50  0001 C CNN
	1    10900 5400
	1    0    0    -1  
$EndComp
Text GLabel 10400 5700 2    60   Output ~ 0
E_VPP
Text GLabel 9950 4100 0    60   Output ~ 0
E_VPP
$Comp
L SW_SPST SW1
U 1 1 5AEA85EC
P 10500 4850
F 0 "SW1" H 10500 4975 50  0000 C CNN
F 1 "SW_SPST" H 10500 4750 50  0000 C CNN
F 2 "Epromer_Switches:VPP-Switch" H 10500 4850 50  0001 C CNN
F 3 "" H 10500 4850 50  0001 C CNN
	1    10500 4850
	1    0    0    -1  
$EndComp
$Comp
L 2764 U5
U 1 1 5AE787CE
P 4100 6350
F 0 "U5" H 3850 7350 50  0000 C CNN
F 1 "2764" H 4100 5350 50  0000 C CNN
F 2 "Housings_DIP:DIP-28_W15.24mm" H 4100 6350 50  0001 C CNN
F 3 "" H 4100 6350 50  0001 C CNN
	1    4100 6350
	1    0    0    1   
$EndComp
$Comp
L PWR_FLAG #FLG016
U 1 1 5AEAB982
P 11000 4750
F 0 "#FLG016" H 11000 4825 50  0001 C CNN
F 1 "PWR_FLAG" H 11000 4900 50  0000 C CNN
F 2 "" H 11000 4750 50  0001 C CNN
F 3 "" H 11000 4750 50  0001 C CNN
	1    11000 4750
	1    0    0    -1  
$EndComp
$Comp
L PWR_FLAG #FLG017
U 1 1 5AEABBC2
P 2400 5750
F 0 "#FLG017" H 2400 5825 50  0001 C CNN
F 1 "PWR_FLAG" H 2400 5900 50  0000 C CNN
F 2 "" H 2400 5750 50  0001 C CNN
F 3 "" H 2400 5750 50  0001 C CNN
	1    2400 5750
	1    0    0    -1  
$EndComp
$Comp
L GND #PWR018
U 1 1 5AEAC358
P 2200 7550
F 0 "#PWR018" H 2200 7300 50  0001 C CNN
F 1 "GND" H 2200 7400 50  0000 C CNN
F 2 "" H 2200 7550 50  0001 C CNN
F 3 "" H 2200 7550 50  0001 C CNN
	1    2200 7550
	1    0    0    -1  
$EndComp
NoConn ~ 2100 5900
NoConn ~ 2100 6000
NoConn ~ 1600 7400
NoConn ~ 1600 7300
NoConn ~ 1600 7100
NoConn ~ 1600 6800
$Comp
L VCC #PWR019
U 1 1 5AEAC9F1
P 1200 6600
F 0 "#PWR019" H 1200 6450 50  0001 C CNN
F 1 "VCC" H 1200 6750 50  0000 C CNN
F 2 "" H 1200 6600 50  0001 C CNN
F 3 "" H 1200 6600 50  0001 C CNN
	1    1200 6600
	1    0    0    -1  
$EndComp
$Comp
L R_Small R7
U 1 1 5AEAD165
P 900 6250
F 0 "R7" H 930 6270 50  0000 L CNN
F 1 "330" H 930 6210 50  0000 L CNN
F 2 "Discret:R4" H 900 6250 50  0001 C CNN
F 3 "" H 900 6250 50  0001 C CNN
	1    900  6250
	1    0    0    -1  
$EndComp
$Comp
L PWR_FLAG #FLG020
U 1 1 5AEAD969
P 1200 7250
F 0 "#FLG020" H 1200 7325 50  0001 C CNN
F 1 "PWR_FLAG" H 1200 7400 50  0000 C CNN
F 2 "" H 1200 7250 50  0001 C CNN
F 3 "" H 1200 7250 50  0001 C CNN
	1    1200 7250
	-1   0    0    1   
$EndComp
$Comp
L PWR_FLAG #FLG021
U 1 1 5AEB2631
P 1200 6750
F 0 "#FLG021" H 1200 6825 50  0001 C CNN
F 1 "PWR_FLAG" H 1200 6900 50  0000 C CNN
F 2 "" H 1200 6750 50  0001 C CNN
F 3 "" H 1200 6750 50  0001 C CNN
	1    1200 6750
	-1   0    0    1   
$EndComp
$Comp
L C_Small C1
U 1 1 5AEB3F2E
P 4600 1100
F 0 "C1" H 4610 1170 50  0000 L CNN
F 1 "100µ" H 4610 1020 50  0000 L CNN
F 2 "Capacitors_THT:C_Disc_D3.8mm_W2.6mm_P2.50mm" H 4600 1100 50  0001 C CNN
F 3 "" H 4600 1100 50  0001 C CNN
	1    4600 1100
	1    0    0    -1  
$EndComp
$Comp
L C_Small C2
U 1 1 5AEB3FAB
P 5500 1100
F 0 "C2" H 5510 1170 50  0000 L CNN
F 1 "100µ" H 5510 1020 50  0000 L CNN
F 2 "Capacitors_THT:C_Disc_D3.8mm_W2.6mm_P2.50mm" H 5500 1100 50  0001 C CNN
F 3 "" H 5500 1100 50  0001 C CNN
	1    5500 1100
	1    0    0    -1  
$EndComp
$Comp
L C_Small C3
U 1 1 5AEB400E
P 4900 1100
F 0 "C3" H 4910 1170 50  0000 L CNN
F 1 "100µ" H 4910 1020 50  0000 L CNN
F 2 "Capacitors_THT:C_Disc_D3.8mm_W2.6mm_P2.50mm" H 4900 1100 50  0001 C CNN
F 3 "" H 4900 1100 50  0001 C CNN
	1    4900 1100
	1    0    0    -1  
$EndComp
$Comp
L GND #PWR022
U 1 1 5AEB40F8
P 5350 1300
F 0 "#PWR022" H 5350 1050 50  0001 C CNN
F 1 "GND" H 5350 1150 50  0000 C CNN
F 2 "" H 5350 1300 50  0001 C CNN
F 3 "" H 5350 1300 50  0001 C CNN
	1    5350 1300
	1    0    0    -1  
$EndComp
$Comp
L VCC #PWR023
U 1 1 5AEB41A8
P 4450 900
F 0 "#PWR023" H 4450 750 50  0001 C CNN
F 1 "VCC" H 4450 1050 50  0000 C CNN
F 2 "" H 4450 900 50  0001 C CNN
F 3 "" H 4450 900 50  0001 C CNN
	1    4450 900 
	1    0    0    -1  
$EndComp
$Comp
L C_Small C4
U 1 1 5AEC6BF3
P 5200 1100
F 0 "C4" H 5210 1170 50  0000 L CNN
F 1 "100µ" H 5210 1020 50  0000 L CNN
F 2 "Capacitors_THT:C_Disc_D3.8mm_W2.6mm_P2.50mm" H 5200 1100 50  0001 C CNN
F 3 "" H 5200 1100 50  0001 C CNN
	1    5200 1100
	1    0    0    -1  
$EndComp
$Comp
L Conn_01x03 J4
U 1 1 5AEC7C98
P 8650 4100
F 0 "J4" H 8650 4200 50  0000 C CNN
F 1 "Conn_01x01" H 8650 4000 50  0000 C CNN
F 2 "Solder_Wire_Pads:SolderWirePad_3x_0-8mmDrill" H 8650 4100 50  0001 C CNN
F 3 "" H 8650 4100 50  0001 C CNN
	1    8650 4100
	1    0    0    -1  
$EndComp
NoConn ~ 10450 4200
Text Label 10450 4200 0    60   Italic 0
(5V6V)
Text Label 8400 4000 0    60   Italic 0
NC1
Text Label 8400 4100 0    60   Italic 0
NC2
Text Label 8400 4200 0    60   Italic 0
NC3
Text GLabel 10450 1750 2    60   Input ~ 0
E_P22
Text GLabel 9950 3900 0    60   Input ~ 0
E_P22
Wire Wire Line
	7000 6200 7300 6200
Wire Wire Line
	7000 4950 7000 6200
Wire Wire Line
	8750 4950 7000 4950
Wire Wire Line
	10250 4850 10300 4850
Wire Wire Line
	10750 4750 10750 4850
Wire Wire Line
	10750 4850 10700 4850
Wire Wire Line
	10900 5100 10900 5300
Connection ~ 10250 5700
Wire Wire Line
	10400 5700 10250 5700
Wire Wire Line
	10900 5500 10900 5750
Wire Wire Line
	10900 6050 10900 6200
Connection ~ 10250 5100
Wire Wire Line
	9500 5400 9550 5400
Wire Wire Line
	10250 5600 10250 5800
Wire Wire Line
	10250 6200 10250 6000
Wire Wire Line
	9500 5450 9500 5400
Wire Wire Line
	9500 5650 9500 5700
Wire Wire Line
	9500 6100 9500 6200
Wire Wire Line
	8950 3900 8400 3900
Wire Wire Line
	8950 4950 8950 3900
Connection ~ 9150 5900
Wire Wire Line
	9150 5900 9200 5900
Wire Wire Line
	9150 4950 8950 4950
Wire Wire Line
	9150 5600 9150 4950
Wire Wire Line
	9150 5800 9150 5950
Wire Wire Line
	9150 6150 9150 6200
Wire Wire Line
	8950 1150 8400 1150
Wire Wire Line
	8950 1250 8950 1150
Connection ~ 8750 3200
Wire Wire Line
	7000 3200 8750 3200
Wire Wire Line
	7000 3050 7000 3200
Wire Wire Line
	8750 3500 8400 3500
Wire Wire Line
	7000 1900 8750 1900
Wire Wire Line
	7000 1750 7000 1900
Wire Wire Line
	3350 4950 3300 4950
Wire Wire Line
	1150 4350 2150 4350
Wire Wire Line
	2100 4550 2100 4850
Wire Wire Line
	5300 3450 5700 3450
Wire Wire Line
	11050 1450 10450 1450
Wire Wire Line
	11050 750  11050 1450
Wire Wire Line
	8400 750  11050 750 
Wire Wire Line
	10950 1550 10450 1550
Wire Wire Line
	10950 850  10950 1550
Wire Wire Line
	8400 850  10950 850 
Wire Wire Line
	10850 950  8400 950 
Wire Wire Line
	10850 1850 10850 950 
Wire Wire Line
	10450 1850 10850 1850
Wire Wire Line
	8950 1250 9950 1250
Wire Wire Line
	8950 2750 8400 2750
Wire Wire Line
	8950 1350 8950 2750
Wire Wire Line
	9950 1350 8950 1350
Wire Wire Line
	9050 1450 9950 1450
Wire Wire Line
	9050 2650 9050 1450
Wire Wire Line
	8400 2650 9050 2650
Wire Wire Line
	9150 2550 8400 2550
Wire Wire Line
	9150 1550 9150 2550
Wire Wire Line
	9950 1550 9150 1550
Wire Wire Line
	9250 1650 9950 1650
Wire Wire Line
	9250 2450 9250 1650
Wire Wire Line
	8400 2450 9250 2450
Wire Wire Line
	9350 2350 8400 2350
Wire Wire Line
	9350 1750 9350 2350
Wire Wire Line
	9950 1750 9350 1750
Wire Wire Line
	9450 2250 8400 2250
Wire Wire Line
	9450 1850 9450 2250
Wire Wire Line
	9950 1850 9450 1850
Wire Wire Line
	9550 2150 8400 2150
Wire Wire Line
	9550 1950 9550 2150
Wire Wire Line
	9950 1950 9550 1950
Wire Wire Line
	9950 2050 8400 2050
Wire Wire Line
	3350 4100 3250 4100
Wire Wire Line
	3300 1000 3250 1000
Wire Wire Line
	2350 3200 2400 3200
Wire Wire Line
	2350 3550 2350 3200
Wire Wire Line
	2350 1550 2400 1550
Wire Wire Line
	2350 1900 2350 1550
Connection ~ 2050 5050
Connection ~ 2050 4050
Wire Wire Line
	2050 4050 2150 4050
Wire Wire Line
	2050 5050 2100 5050
Wire Wire Line
	3350 4950 3350 5450
Wire Wire Line
	2050 1050 2050 5050
Wire Wire Line
	2050 1050 2150 1050
Wire Wire Line
	2050 750  2150 750 
Wire Wire Line
	1950 4150 2150 4150
Wire Wire Line
	1950 850  1950 5550
Wire Wire Line
	1950 850  2150 850 
Connection ~ 1950 4150
Wire Wire Line
	800  2700 1150 2700
Wire Wire Line
	1150 750  1150 4350
Connection ~ 1150 2700
Wire Wire Line
	800  4250 1150 4250
Wire Wire Line
	800  5400 850  5400
Wire Wire Line
	850  5300 800  5300
Wire Wire Line
	800  5200 850  5200
Wire Wire Line
	850  5100 800  5100
Wire Wire Line
	800  5000 850  5000
Wire Wire Line
	850  4900 800  4900
Wire Wire Line
	800  4800 850  4800
Wire Wire Line
	850  4700 800  4700
Wire Wire Line
	3300 1550 3300 1000
Wire Wire Line
	3350 3550 3350 4100
Wire Wire Line
	800  2500 2300 2500
Wire Wire Line
	2300 2400 2300 2700
Wire Wire Line
	800  2600 2200 2600
Wire Wire Line
	2200 2250 2200 2850
Wire Wire Line
	2300 2400 2400 2400
Connection ~ 2300 2500
Wire Wire Line
	2400 2250 2200 2250
Connection ~ 2200 2600
Wire Wire Line
	2400 3550 2350 3550
Wire Wire Line
	2350 1900 2400 1900
Wire Wire Line
	800  950  2150 950 
Wire Wire Line
	3400 5850 3300 5850
Wire Wire Line
	3300 5750 3300 5950
Connection ~ 3300 5750
Wire Wire Line
	3300 5950 3400 5950
Connection ~ 3300 5850
Wire Wire Line
	3350 5450 3400 5450
Wire Wire Line
	900  4250 900  4550
Connection ~ 900  4250
Wire Wire Line
	900  4550 2100 4550
Wire Wire Line
	800  5550 3400 5550
Wire Wire Line
	6900 2950 7000 2950
Wire Wire Line
	5700 1550 5700 1750
Wire Wire Line
	4100 1850 5400 1850
Connection ~ 5700 1650
Wire Wire Line
	6800 4950 4800 4950
Wire Wire Line
	6800 6100 6800 4950
Wire Wire Line
	6400 6100 6400 6200
Wire Wire Line
	6400 6100 6800 6100
Connection ~ 6400 6100
Wire Wire Line
	6900 1650 7000 1650
Wire Wire Line
	5700 2850 5700 3050
Wire Wire Line
	5700 2950 5400 2950
Connection ~ 5700 2950
Wire Wire Line
	5300 2250 5300 3450
Wire Wire Line
	5300 2250 4100 2250
Wire Wire Line
	7000 4400 6700 4400
Wire Wire Line
	6700 4400 6700 3450
Wire Wire Line
	6700 3450 6600 3450
Wire Wire Line
	4100 2450 5200 2450
Wire Wire Line
	5200 2450 5200 4650
Wire Wire Line
	5200 4650 5700 4650
Wire Wire Line
	6900 6100 7300 6100
Wire Wire Line
	6600 4650 6900 4650
Wire Wire Line
	5400 1850 5400 1650
Wire Wire Line
	5400 1650 5700 1650
Wire Wire Line
	6900 4650 6900 6100
Wire Wire Line
	2050 4250 2150 4250
Wire Wire Line
	2200 2850 2400 2850
Wire Wire Line
	2300 2700 2400 2700
Connection ~ 1950 5550
Wire Wire Line
	5400 2950 5400 2050
Wire Wire Line
	5400 2050 4100 2050
Wire Wire Line
	4800 4950 4800 3250
Wire Wire Line
	4800 3250 4100 3250
Wire Wire Line
	9900 5400 9900 5350
Wire Wire Line
	9850 5400 9950 5400
Connection ~ 9900 5400
Wire Wire Line
	9900 5100 9900 5150
Wire Wire Line
	9900 5100 10900 5100
Wire Wire Line
	10250 4850 10250 5200
Wire Wire Line
	11000 4750 11000 4800
Wire Wire Line
	11000 4800 10750 4800
Connection ~ 10750 4800
Wire Wire Line
	900  6150 900  5800
Wire Wire Line
	900  5800 1600 5800
Wire Wire Line
	900  6700 900  7200
Wire Wire Line
	900  7200 1600 7200
Connection ~ 1200 7200
Wire Wire Line
	1200 7150 1200 7250
Wire Wire Line
	1200 6600 1200 6750
Wire Wire Line
	1200 6700 1600 6700
Connection ~ 1200 6700
Wire Wire Line
	4450 900  4450 950 
Wire Wire Line
	4450 950  5200 950 
Wire Wire Line
	4900 950  4900 1000
Wire Wire Line
	4600 1000 4600 950 
Connection ~ 4600 950 
Wire Wire Line
	4600 1200 4600 1250
Wire Wire Line
	4600 1250 5500 1250
Wire Wire Line
	5350 1250 5350 1300
Wire Wire Line
	4900 1200 4900 1250
Connection ~ 4900 1250
Wire Wire Line
	5200 1200 5200 1250
Connection ~ 5200 1250
Wire Wire Line
	5200 950  5200 1000
Connection ~ 4900 950 
Wire Wire Line
	8400 4200 8450 4200
Wire Wire Line
	8400 4100 8450 4100
Wire Wire Line
	8400 4000 8450 4000
Wire Wire Line
	900  6450 900  6350
Text Label 1600 5800 2    60   ~ 0
REST
$Comp
L Conn_01x01_Female J5
U 1 1 5AEE0AF2
P 700 6450
F 0 "J5" H 700 6550 50  0000 C CNN
F 1 "Reset SW" H 700 6350 50  0000 C CNN
F 2 "Wire_Pads:SolderWirePad_single_0-8mmDrill" H 700 6450 50  0001 C CNN
F 3 "" H 700 6450 50  0001 C CNN
	1    700  6450
	-1   0    0    1   
$EndComp
$Comp
L Conn_01x01_Female J6
U 1 1 5AEE0BA9
P 700 6700
F 0 "J6" H 700 6800 50  0000 C CNN
F 1 "Reset SW" H 700 6600 50  0000 C CNN
F 2 "Wire_Pads:SolderWirePad_single_0-8mmDrill" H 700 6700 50  0001 C CNN
F 3 "" H 700 6700 50  0001 C CNN
	1    700  6700
	-1   0    0    1   
$EndComp
Wire Wire Line
	2100 5800 2400 5800
Wire Wire Line
	2400 5750 2400 5850
Connection ~ 2400 5800
Wire Wire Line
	1500 7550 1500 7500
Wire Wire Line
	1500 7500 1600 7500
Wire Wire Line
	2100 7500 2200 7500
Wire Wire Line
	2200 7500 2200 7550
Wire Wire Line
	3400 5750 3300 5750
Wire Wire Line
	5500 1250 5500 1200
Connection ~ 5350 1250
Text GLabel 5600 900  2    60   Input ~ 0
E_P28
Wire Wire Line
	5600 900  5500 900 
Wire Wire Line
	5500 900  5500 1000
$Comp
L Audio-Jack-2 J7
U 1 1 5AEF44D9
P 10950 4850
F 0 "J7" H 10925 4925 50  0000 C CNN
F 1 "Audio-Jack-2" H 10925 4675 50  0000 C CNN
F 2 "Epromer_Switches:VPP-Switch" H 11200 4850 50  0001 C CNN
F 3 "" H 11200 4850 50  0001 C CNN
	1    10950 4850
	-1   0    0    -1  
$EndComp
$Comp
L GND #PWR024
U 1 1 5AEF4A69
P 10700 4950
F 0 "#PWR024" H 10700 4700 50  0001 C CNN
F 1 "GND" H 10700 4800 50  0000 C CNN
F 2 "" H 10700 4950 50  0001 C CNN
F 3 "" H 10700 4950 50  0001 C CNN
	1    10700 4950
	1    0    0    -1  
$EndComp
Wire Wire Line
	10700 4950 10750 4950
Wire Wire Line
	8750 1900 8750 3500
Wire Wire Line
	8400 3600 9050 3600
Wire Wire Line
	8750 3600 8750 4950
Wire Wire Line
	9300 2800 9300 3000
Wire Wire Line
	9050 3600 9050 2900
Wire Wire Line
	9050 2900 9300 2900
Connection ~ 9300 2900
Connection ~ 8750 3600
Wire Wire Line
	3350 3550 3300 3550
$EndSCHEMATC
