EESchema Schematic File Version 2
LIBS:power
LIBS:device
LIBS:transistors
LIBS:conn
LIBS:linear
LIBS:regul
LIBS:74xx
LIBS:cmos4000
LIBS:adc-dac
LIBS:memory
LIBS:xilinx
LIBS:microcontrollers
LIBS:dsp
LIBS:microchip
LIBS:analog_switches
LIBS:motorola
LIBS:texas
LIBS:intel
LIBS:audio
LIBS:interface
LIBS:digital-audio
LIBS:philips
LIBS:display
LIBS:cypress
LIBS:siliconi
LIBS:opto
LIBS:atmel
LIBS:contrib
LIBS:valves
LIBS:conn_01x44
LIBS:FlexCable-cache
EELAYER 25 0
EELAYER END
$Descr A4 11693 8268
encoding utf-8
Sheet 2 3
Title "Flex Cable Schematic Diagram"
Date "2015-10-10"
Rev "1"
Comp "HackMac"
Comment1 "Console End of Cable"
Comment2 ""
Comment3 ""
Comment4 ""
$EndDescr
$Comp
L CONN_02X22 P1
U 1 1 561927B4
P 3150 2800
F 0 "P1" H 3150 3950 50  0000 C CNN
F 1 "CONN_02X22" V 3150 2800 50  0000 C CNN
F 2 "" H 3150 1900 60  0000 C CNN
F 3 "" H 3150 1900 60  0000 C CNN
	1    3150 2800
	1    0    0    -1  
$EndComp
$Comp
L 74LS245 U2
U 1 1 56192F61
P 4750 2050
F 0 "U2" H 4850 2625 60  0000 L BNN
F 1 "74LS245" H 4800 1475 60  0000 L TNN
F 2 "" H 4750 2050 60  0000 C CNN
F 3 "" H 4750 2050 60  0000 C CNN
	1    4750 2050
	-1   0    0    -1  
$EndComp
Text Label 5850 1550 0    60   ~ 0
D0.A
Text Label 5850 1650 0    60   ~ 0
D1.A
Text Label 5850 1750 0    60   ~ 0
D2.A
Text Label 5850 1850 0    60   ~ 0
D3.A
Text Label 5850 1950 0    60   ~ 0
D4.A
Text Label 5850 2050 0    60   ~ 0
D5.A
Text Label 5850 2150 0    60   ~ 0
D6.A
Text Label 5850 2250 0    60   ~ 0
D7.A
Entry Wire Line
	6000 1550 6100 1650
Entry Wire Line
	6000 1650 6100 1750
Entry Wire Line
	6000 1750 6100 1850
Entry Wire Line
	6000 1850 6100 1950
Entry Wire Line
	6000 1950 6100 2050
Entry Wire Line
	6000 2050 6100 2150
Entry Wire Line
	6000 2150 6100 2250
Entry Wire Line
	6000 2250 6100 2350
Entry Wire Line
	6000 2550 6100 2650
Text Label 5450 2550 0    60   ~ 0
~RDBENA.A
$Comp
L R R15
U 1 1 56193915
P 5600 1550
F 0 "R15" V 5600 1550 50  0000 C CNN
F 1 "47" V 5550 1700 50  0000 C CNN
F 2 "" V 5530 1550 30  0000 C CNN
F 3 "" H 5600 1550 30  0000 C CNN
	1    5600 1550
	0    1    1    0   
$EndComp
$Comp
L R R14
U 1 1 56193A47
P 5600 1650
F 0 "R14" V 5600 1650 50  0000 C CNN
F 1 "47" V 5550 1800 50  0000 C CNN
F 2 "" V 5530 1650 30  0000 C CNN
F 3 "" H 5600 1650 30  0000 C CNN
	1    5600 1650
	0    1    1    0   
$EndComp
$Comp
L R R13
U 1 1 56193A61
P 5600 1750
F 0 "R13" V 5600 1750 50  0000 C CNN
F 1 "47" V 5550 1900 50  0000 C CNN
F 2 "" V 5530 1750 30  0000 C CNN
F 3 "" H 5600 1750 30  0000 C CNN
	1    5600 1750
	0    1    1    0   
$EndComp
$Comp
L R R12
U 1 1 56193A83
P 5600 1850
F 0 "R12" V 5600 1850 50  0000 C CNN
F 1 "47" V 5550 2000 50  0000 C CNN
F 2 "" V 5530 1850 30  0000 C CNN
F 3 "" H 5600 1850 30  0000 C CNN
	1    5600 1850
	0    1    1    0   
$EndComp
$Comp
L R R11
U 1 1 56193AA4
P 5600 1950
F 0 "R11" V 5600 1950 50  0000 C CNN
F 1 "47" V 5550 2100 50  0000 C CNN
F 2 "" V 5530 1950 30  0000 C CNN
F 3 "" H 5600 1950 30  0000 C CNN
	1    5600 1950
	0    1    1    0   
$EndComp
$Comp
L R R10
U 1 1 56193AC7
P 5600 2050
F 0 "R10" V 5600 2050 50  0000 C CNN
F 1 "47" V 5550 2200 50  0000 C CNN
F 2 "" V 5530 2050 30  0000 C CNN
F 3 "" H 5600 2050 30  0000 C CNN
	1    5600 2050
	0    1    1    0   
$EndComp
$Comp
L R R9
U 1 1 56193AEC
P 5600 2150
F 0 "R9" V 5600 2150 50  0000 C CNN
F 1 "47" V 5550 2300 50  0000 C CNN
F 2 "" V 5530 2150 30  0000 C CNN
F 3 "" H 5600 2150 30  0000 C CNN
	1    5600 2150
	0    1    1    0   
$EndComp
$Comp
L R R8
U 1 1 56193B13
P 5600 2250
F 0 "R8" V 5600 2250 50  0000 C CNN
F 1 "47" V 5550 2400 50  0000 C CNN
F 2 "" V 5530 2250 30  0000 C CNN
F 3 "" H 5600 2250 30  0000 C CNN
	1    5600 2250
	0    1    1    0   
$EndComp
Entry Wire Line
	5850 2800 5950 2700
Entry Wire Line
	2500 2050 2600 2150
Entry Wire Line
	2500 1950 2600 2050
Entry Wire Line
	2500 1850 2600 1950
Entry Wire Line
	2500 1750 2600 1850
Entry Wire Line
	2500 2150 2600 2250
Entry Wire Line
	2500 2350 2600 2450
Entry Wire Line
	2500 2450 2600 2550
Entry Wire Line
	2500 2550 2600 2650
Entry Wire Line
	2500 3050 2600 3150
Entry Wire Line
	2500 3150 2600 3250
Entry Wire Line
	2500 3250 2600 3350
Entry Wire Line
	2500 3350 2600 3450
Entry Wire Line
	2500 3450 2600 3550
Entry Wire Line
	2500 3550 2600 3650
Entry Wire Line
	3800 1450 3900 1550
Entry Wire Line
	3800 1550 3900 1650
Entry Wire Line
	3800 1650 3900 1750
Entry Wire Line
	3800 1750 3900 1850
Entry Wire Line
	3800 1850 3900 1950
Entry Wire Line
	3800 1950 3900 2050
Entry Wire Line
	3800 2050 3900 2150
Entry Wire Line
	3800 2150 3900 2250
Entry Wire Line
	3700 1850 3800 1750
Entry Wire Line
	3700 1950 3800 1850
Entry Wire Line
	3700 2050 3800 1950
Entry Wire Line
	3700 2150 3800 2050
Entry Wire Line
	3700 2250 3800 2150
Entry Wire Line
	3700 2350 3800 2250
Entry Wire Line
	3700 2450 3800 2350
Entry Wire Line
	3700 2550 3800 2450
Entry Wire Line
	3700 2650 3800 2550
Entry Wire Line
	3700 2750 3800 2650
Entry Wire Line
	3700 2850 3800 2750
Entry Wire Line
	3700 2950 3800 2850
Entry Wire Line
	3700 3150 3800 3050
Entry Wire Line
	3700 3250 3800 3150
Entry Wire Line
	3700 3350 3800 3250
Entry Wire Line
	3700 3450 3800 3350
Entry Wire Line
	3700 3550 3800 3450
Entry Wire Line
	3700 3650 3800 3550
Entry Wire Line
	3700 3750 3800 3650
Entry Wire Line
	3700 3850 3800 3750
Text Label 5450 2450 0    60   ~ 0
DBIN
Text Label 2900 2150 2    60   ~ 0
DBIN
Text Label 4050 1550 2    60   ~ 0
D0
Text Label 4050 1650 2    60   ~ 0
D1
Text Label 4050 1750 2    60   ~ 0
D2
Text Label 4050 1850 2    60   ~ 0
D3
Text Label 4050 1950 2    60   ~ 0
D4
Text Label 4050 2050 2    60   ~ 0
D5
Text Label 4050 2150 2    60   ~ 0
D6
Text Label 4050 2250 2    60   ~ 0
D7
Text Label 2900 3550 2    60   ~ 0
D0
Text Label 3400 3650 0    60   ~ 0
D1
Text Label 2900 3650 2    60   ~ 0
D2
Text Label 2900 3450 2    60   ~ 0
D4
Text Label 3400 3350 0    60   ~ 0
D7
Text Label 3400 3450 0    60   ~ 0
D6
Text Label 3400 3550 0    60   ~ 0
D5
Text Label 3400 3750 0    60   ~ 0
D3
$Comp
L GND #PWR?
U 1 1 561955E9
P 2750 2900
F 0 "#PWR?" H 2750 2650 50  0001 C CNN
F 1 "GND" H 2750 2750 50  0000 C CNN
F 2 "" H 2750 2900 60  0000 C CNN
F 3 "" H 2750 2900 60  0000 C CNN
	1    2750 2900
	1    0    0    -1  
$EndComp
Text Label 2900 1850 2    60   ~ 0
~RESET
Text Label 2900 1950 2    60   ~ 0
A5
Text Label 2900 2050 2    60   ~ 0
A4
Text Label 2900 2250 2    60   ~ 0
A12
Text Label 2900 2450 2    60   ~ 0
A13
Text Label 2900 2550 2    60   ~ 0
A7
Text Label 2900 2650 2    60   ~ 0
A15/CRUOUT
Text Label 2900 3150 2    60   ~ 0
A6
Text Label 2900 3250 2    60   ~ 0
A0
Text Label 2900 3350 2    60   ~ 0
CRUIN
Text Label 3400 1850 0    60   ~ 0
~EXTINT
Text Label 3400 1950 0    60   ~ 0
A10
Text Label 3400 2050 0    60   ~ 0
A11
Text Label 3400 2150 0    60   ~ 0
A3
Text Label 3400 2250 0    60   ~ 0
READY
Text Label 3400 2350 0    60   ~ 0
A8
Text Label 3400 2450 0    60   ~ 0
A14
Text Label 3400 2550 0    60   ~ 0
A9
Text Label 3400 2650 0    60   ~ 0
A2
Text Label 3400 2750 0    60   ~ 0
~CRUCLK
Text Label 3400 2850 0    60   ~ 0
~Ø3
Text Label 3400 2950 0    60   ~ 0
~WE
Text Label 3400 3150 0    60   ~ 0
A1
Text Label 3400 3250 0    60   ~ 0
~MEMEN
Text Label 3400 3850 0    60   ~ 0
AUDIOIN
Entry Wire Line
	5950 2900 6050 3000
Entry Wire Line
	5950 3000 6050 3100
Entry Wire Line
	5950 3100 6050 3200
Entry Wire Line
	5950 3200 6050 3300
Entry Wire Line
	5950 3300 6050 3400
Entry Wire Line
	5950 3400 6050 3500
Entry Wire Line
	5950 3500 6050 3600
Entry Wire Line
	5950 3600 6050 3700
Entry Wire Line
	5950 3700 6050 3800
Entry Wire Line
	5950 3800 6050 3900
Entry Wire Line
	5950 3900 6050 4000
Entry Wire Line
	5950 4000 6050 4100
Entry Wire Line
	5950 4100 6050 4200
Entry Wire Line
	5950 4200 6050 4300
Entry Wire Line
	5950 4300 6050 4400
Entry Wire Line
	5950 4400 6050 4500
Entry Wire Line
	5950 4500 6050 4600
Entry Wire Line
	5950 4600 6050 4700
$Comp
L R R1
U 1 1 561BA6AB
P 6500 3000
F 0 "R1" V 6500 3000 50  0000 C CNN
F 1 "47" V 6450 3200 50  0000 R CNN
F 2 "" V 6430 3000 30  0000 C CNN
F 3 "" H 6500 3000 30  0000 C CNN
	1    6500 3000
	0    1    1    0   
$EndComp
$Comp
L R R2
U 1 1 561BA852
P 6500 3100
F 0 "R2" V 6500 3100 50  0000 C CNN
F 1 "47" V 6450 3300 50  0000 R CNN
F 2 "" V 6430 3100 30  0000 C CNN
F 3 "" H 6500 3100 30  0000 C CNN
	1    6500 3100
	0    1    1    0   
$EndComp
$Comp
L R R3
U 1 1 561BA880
P 6500 3200
F 0 "R3" V 6500 3200 50  0000 C CNN
F 1 "47" V 6450 3400 50  0000 R CNN
F 2 "" V 6430 3200 30  0000 C CNN
F 3 "" H 6500 3200 30  0000 C CNN
	1    6500 3200
	0    1    1    0   
$EndComp
$Comp
L R R4
U 1 1 561BA8AF
P 6500 3300
F 0 "R4" V 6500 3300 50  0000 C CNN
F 1 "47" V 6450 3500 50  0000 R CNN
F 2 "" V 6430 3300 30  0000 C CNN
F 3 "" H 6500 3300 30  0000 C CNN
	1    6500 3300
	0    1    1    0   
$EndComp
$Comp
L R R5
U 1 1 561BA8DF
P 6500 3400
F 0 "R5" V 6500 3400 50  0000 C CNN
F 1 "47" V 6450 3600 50  0000 R CNN
F 2 "" V 6430 3400 30  0000 C CNN
F 3 "" H 6500 3400 30  0000 C CNN
	1    6500 3400
	0    1    1    0   
$EndComp
$Comp
L R R6
U 1 1 561BA90F
P 6500 3500
F 0 "R6" V 6500 3500 50  0000 C CNN
F 1 "47" V 6450 3700 50  0000 R CNN
F 2 "" V 6430 3500 30  0000 C CNN
F 3 "" H 6500 3500 30  0000 C CNN
	1    6500 3500
	0    1    1    0   
$EndComp
$Comp
L R R7
U 1 1 561BA941
P 6500 3600
F 0 "R7" V 6500 3600 50  0000 C CNN
F 1 "47" V 6450 3800 50  0000 R CNN
F 2 "" V 6430 3600 30  0000 C CNN
F 3 "" H 6500 3600 30  0000 C CNN
	1    6500 3600
	0    1    1    0   
$EndComp
$Comp
L R R17
U 1 1 561BA975
P 6500 3700
F 0 "R17" V 6500 3700 50  0000 C CNN
F 1 "47" V 6450 3900 50  0000 R CNN
F 2 "" V 6430 3700 30  0000 C CNN
F 3 "" H 6500 3700 30  0000 C CNN
	1    6500 3700
	0    1    1    0   
$EndComp
$Comp
L R R18
U 1 1 561BA9AB
P 6500 3800
F 0 "R18" V 6500 3800 50  0000 C CNN
F 1 "47" V 6450 4000 50  0000 R CNN
F 2 "" V 6430 3800 30  0000 C CNN
F 3 "" H 6500 3800 30  0000 C CNN
	1    6500 3800
	0    1    1    0   
$EndComp
$Comp
L R R19
U 1 1 561BA9E4
P 6500 3900
F 0 "R19" V 6500 3900 50  0000 C CNN
F 1 "47" V 6450 4100 50  0000 R CNN
F 2 "" V 6430 3900 30  0000 C CNN
F 3 "" H 6500 3900 30  0000 C CNN
	1    6500 3900
	0    1    1    0   
$EndComp
$Comp
L R R27
U 1 1 561BAA20
P 6500 4600
F 0 "R27" V 6500 4600 50  0000 C CNN
F 1 "47" V 6450 4800 50  0000 R CNN
F 2 "" V 6430 4600 30  0000 C CNN
F 3 "" H 6500 4600 30  0000 C CNN
	1    6500 4600
	0    1    1    0   
$EndComp
$Comp
L R R20
U 1 1 561BAA5B
P 6500 4000
F 0 "R20" V 6500 4000 50  0000 C CNN
F 1 "47" V 6450 4200 50  0000 R CNN
F 2 "" V 6430 4000 30  0000 C CNN
F 3 "" H 6500 4000 30  0000 C CNN
	1    6500 4000
	0    1    1    0   
$EndComp
$Comp
L R R21
U 1 1 561BAA9A
P 6500 4100
F 0 "R21" V 6500 4100 50  0000 C CNN
F 1 "47" V 6450 4300 50  0000 R CNN
F 2 "" V 6430 4100 30  0000 C CNN
F 3 "" H 6500 4100 30  0000 C CNN
	1    6500 4100
	0    1    1    0   
$EndComp
$Comp
L R R22
U 1 1 561BAADA
P 6500 4200
F 0 "R22" V 6500 4200 50  0000 C CNN
F 1 "47" V 6450 4400 50  0000 R CNN
F 2 "" V 6430 4200 30  0000 C CNN
F 3 "" H 6500 4200 30  0000 C CNN
	1    6500 4200
	0    1    1    0   
$EndComp
$Comp
L R R23
U 1 1 561BAB1C
P 6500 4300
F 0 "R23" V 6500 4300 50  0000 C CNN
F 1 "47" V 6450 4500 50  0000 R CNN
F 2 "" V 6430 4300 30  0000 C CNN
F 3 "" H 6500 4300 30  0000 C CNN
	1    6500 4300
	0    1    1    0   
$EndComp
$Comp
L R R24
U 1 1 561BAB60
P 6500 4400
F 0 "R24" V 6500 4400 50  0000 C CNN
F 1 "47" V 6450 4600 50  0000 R CNN
F 2 "" V 6430 4400 30  0000 C CNN
F 3 "" H 6500 4400 30  0000 C CNN
	1    6500 4400
	0    1    1    0   
$EndComp
$Comp
L R R28
U 1 1 561BABA6
P 6500 4700
F 0 "R28" V 6500 4700 50  0000 C CNN
F 1 "47" V 6450 4900 50  0000 R CNN
F 2 "" V 6430 4700 30  0000 C CNN
F 3 "" H 6500 4700 30  0000 C CNN
	1    6500 4700
	0    1    1    0   
$EndComp
$Comp
L R R26
U 1 1 561BABED
P 6500 4500
F 0 "R26" V 6500 4500 50  0000 C CNN
F 1 "47" V 6450 4700 50  0000 R CNN
F 2 "" V 6430 4500 30  0000 C CNN
F 3 "" H 6500 4500 30  0000 C CNN
	1    6500 4500
	0    1    1    0   
$EndComp
Text Label 6300 3000 2    60   ~ 0
A10
Text Label 6300 3100 2    60   ~ 0
A8
Text Label 6300 3200 2    60   ~ 0
A9
Text Label 6300 3300 2    60   ~ 0
A3
Text Label 6300 3400 2    60   ~ 0
A4
Text Label 6300 3500 2    60   ~ 0
A5
Text Label 6300 3600 2    60   ~ 0
~RESET
Text Label 6300 3700 2    60   ~ 0
A11
Text Label 6300 3800 2    60   ~ 0
A12
Text Label 6300 3900 2    60   ~ 0
A13
Text Label 6300 4000 2    60   ~ 0
A14
Text Label 6300 4100 2    60   ~ 0
A7
Text Label 6300 4200 2    60   ~ 0
A6
Text Label 6300 4300 2    60   ~ 0
A0
Text Label 6300 4400 2    60   ~ 0
A1
Text Label 6300 4500 2    60   ~ 0
A2
Text Label 6300 4600 2    60   ~ 0
~MEMEN
Text Label 6300 4700 2    60   ~ 0
DBIN
Entry Wire Line
	6950 4700 7050 4600
Entry Wire Line
	6950 3000 7050 2900
Entry Wire Line
	6950 3100 7050 3000
Entry Wire Line
	6950 3200 7050 3100
Entry Wire Line
	6950 3300 7050 3200
Entry Wire Line
	6950 3400 7050 3300
Entry Wire Line
	6950 3500 7050 3400
Entry Wire Line
	6950 3600 7050 3500
Entry Wire Line
	6950 3700 7050 3600
Entry Wire Line
	6950 3800 7050 3700
Entry Wire Line
	6950 3900 7050 3800
Entry Wire Line
	6950 4000 7050 3900
Entry Wire Line
	6950 4100 7050 4000
Entry Wire Line
	6950 4200 7050 4100
Entry Wire Line
	6950 4300 7050 4200
Entry Wire Line
	6950 4400 7050 4300
Entry Wire Line
	6950 4500 7050 4400
Entry Wire Line
	6950 4600 7050 4500
Entry Wire Line
	6950 4900 7050 4800
Entry Wire Line
	6950 5000 7050 4900
Entry Wire Line
	6950 5100 7050 5000
Entry Wire Line
	6950 5200 7050 5100
Entry Wire Line
	6950 5300 7050 5200
Entry Wire Line
	6950 5400 7050 5300
Entry Wire Line
	6950 5500 7050 5400
Entry Wire Line
	6950 5600 7050 5500
Entry Wire Line
	5950 4800 6050 4900
Entry Wire Line
	5950 4900 6050 5000
Entry Wire Line
	5950 5000 6050 5100
Entry Wire Line
	5950 5100 6050 5200
Entry Wire Line
	5950 5200 6050 5300
Entry Wire Line
	5950 5300 6050 5400
Entry Wire Line
	5950 5400 6050 5500
Entry Wire Line
	5950 5500 6050 5600
$Comp
L CONN_01X44 P2
U 1 1 561BAA4E
P 8700 3450
F 0 "P2" H 8700 5700 50  0000 C CNN
F 1 "CONN_01X44" V 8800 3450 50  0000 C CNN
F 2 "" H 8700 3650 60  0000 C CNN
F 3 "" H 8700 3650 60  0000 C CNN
	1    8700 3450
	1    0    0    -1  
$EndComp
Entry Wire Line
	7850 1500 7950 1400
Entry Wire Line
	7850 1400 7950 1300
Entry Wire Line
	7850 1500 7950 1600
Entry Wire Line
	7850 1600 7950 1700
Entry Wire Line
	7850 1700 7950 1800
Entry Wire Line
	7850 1900 7950 2000
Entry Wire Line
	7850 2100 7950 2200
Entry Wire Line
	7850 2200 7950 2300
Entry Wire Line
	7850 2300 7950 2400
Entry Wire Line
	7850 2400 7950 2500
Entry Wire Line
	7850 2500 7950 2600
Entry Wire Line
	7850 2600 7950 2700
Entry Wire Line
	7850 2700 7950 2800
Entry Wire Line
	7850 2800 7950 2900
Entry Wire Line
	7850 2900 7950 3000
Entry Wire Line
	7850 3000 7950 3100
Entry Wire Line
	7850 3100 7950 3200
Entry Wire Line
	7850 3200 7950 3300
Entry Wire Line
	7850 3300 7950 3400
Entry Wire Line
	7850 3400 7950 3500
Entry Wire Line
	7850 3500 7950 3600
Entry Wire Line
	7850 3700 7950 3800
Entry Wire Line
	7850 3900 7950 4000
Entry Wire Line
	7850 4000 7950 4100
Entry Wire Line
	7850 4100 7950 4200
Entry Wire Line
	7850 4200 7950 4300
Entry Wire Line
	7850 4400 7950 4500
Entry Wire Line
	7850 4500 7950 4600
Entry Wire Line
	7850 4600 7950 4700
Entry Wire Line
	7850 4700 7950 4800
Entry Wire Line
	7850 4900 7950 5000
Entry Wire Line
	7850 5000 7950 5100
Entry Wire Line
	7850 5100 7950 5200
Entry Wire Line
	7850 5200 7950 5300
Entry Wire Line
	7850 5400 7950 5500
$Comp
L GND #PWR?
U 1 1 561BBB3E
P 8000 5700
F 0 "#PWR?" H 8000 5450 50  0001 C CNN
F 1 "GND" H 8000 5550 50  0000 C CNN
F 2 "" H 8000 5700 60  0000 C CNN
F 3 "" H 8000 5700 60  0000 C CNN
	1    8000 5700
	1    0    0    -1  
$EndComp
$Comp
L 7805 Q1
U 1 1 561BBE93
P 6900 1100
F 0 "Q1" H 7050 904 60  0000 C CNN
F 1 "78M05" H 6900 1300 60  0000 C CNN
F 2 "" H 6900 1100 60  0000 C CNN
F 3 "" H 6900 1100 60  0000 C CNN
	1    6900 1100
	-1   0    0    -1  
$EndComp
$Comp
L GND #PWR?
U 1 1 561BC441
P 6900 1500
F 0 "#PWR?" H 6900 1250 50  0001 C CNN
F 1 "GND" H 6900 1350 50  0000 C CNN
F 2 "" H 6900 1500 60  0000 C CNN
F 3 "" H 6900 1500 60  0000 C CNN
	1    6900 1500
	1    0    0    -1  
$EndComp
$Comp
L C_Small C2
U 1 1 561BC6D1
P 7350 1200
F 0 "C2" H 7360 1270 50  0000 L CNN
F 1 "0.1" H 7360 1120 50  0000 L CNN
F 2 "" H 7350 1200 60  0000 C CNN
F 3 "" H 7350 1200 60  0000 C CNN
	1    7350 1200
	1    0    0    -1  
$EndComp
$Comp
L C_Small C5
U 1 1 561BC72B
P 7500 1200
F 0 "C5" H 7510 1270 50  0000 L CNN
F 1 "22µ" H 7510 1120 50  0000 L CNN
F 2 "" H 7500 1200 60  0000 C CNN
F 3 "" H 7500 1200 60  0000 C CNN
	1    7500 1200
	1    0    0    -1  
$EndComp
$Comp
L C_Small C4
U 1 1 561BC77F
P 6450 1200
F 0 "C4" H 6460 1270 50  0000 L CNN
F 1 "22µ" H 6460 1120 50  0000 L CNN
F 2 "" H 6450 1200 60  0000 C CNN
F 3 "" H 6450 1200 60  0000 C CNN
	1    6450 1200
	1    0    0    -1  
$EndComp
$Comp
L C_Small C1
U 1 1 561BC7E8
P 6300 1200
F 0 "C1" H 6310 1270 50  0000 L CNN
F 1 "0.1" H 6310 1120 50  0000 L CNN
F 2 "" H 6300 1200 60  0000 C CNN
F 3 "" H 6300 1200 60  0000 C CNN
	1    6300 1200
	1    0    0    -1  
$EndComp
$Comp
L C_Small C3
U 1 1 561BCE34
P 4950 1200
F 0 "C3" H 4960 1270 50  0000 L CNN
F 1 "0.1" H 4960 1120 50  0000 L CNN
F 2 "" H 4950 1200 60  0000 C CNN
F 3 "" H 4950 1200 60  0000 C CNN
	1    4950 1200
	1    0    0    -1  
$EndComp
$Comp
L GND #PWR?
U 1 1 561BCEBE
P 4950 1300
F 0 "#PWR?" H 4950 1050 50  0001 C CNN
F 1 "GND" H 4950 1150 50  0000 C CNN
F 2 "" H 4950 1300 60  0000 C CNN
F 3 "" H 4950 1300 60  0000 C CNN
	1    4950 1300
	1    0    0    -1  
$EndComp
Text Label 8450 1300 2    60   ~ 0
CRUIN
Text Label 8450 1400 2    60   ~ 0
~MEMEN.A
Text Label 6500 4900 2    60   ~ 0
CRUIN
Text Label 6700 4600 0    60   ~ 0
~MEMEN.A
Text Label 6500 5300 2    60   ~ 0
~WE
Text Label 8450 1600 2    60   ~ 0
~WE
Text Label 8450 1700 2    60   ~ 0
~CRUCLK
Text Label 6500 5000 2    60   ~ 0
~CRUCLK
Text Label 6500 5400 2    60   ~ 0
DBIN
Text Label 8450 1800 2    60   ~ 0
DBIN
Text Label 8450 2000 2    60   ~ 0
~Ø3
Text Label 6500 5600 2    60   ~ 0
~Ø3
Text Label 6700 4300 0    60   ~ 0
A0.A
Text Label 8450 2200 2    60   ~ 0
A0.A
Text Label 8450 2300 2    60   ~ 0
A1.A
Text Label 6700 4400 0    60   ~ 0
A1.A
Text Label 6700 4500 0    60   ~ 0
A2.A
Text Label 8450 2400 2    60   ~ 0
A2.A
Text Label 6700 3300 0    60   ~ 0
A3.A
Text Label 8450 2500 2    60   ~ 0
A3.A
Text Label 8450 2600 2    60   ~ 0
A4.A
Text Label 6700 3400 0    60   ~ 0
A4.A
Text Label 8450 2700 2    60   ~ 0
A5.A
Text Label 6700 3500 0    60   ~ 0
A5.A
Text Label 8450 2800 2    60   ~ 0
A6.A
Text Label 8450 2900 2    60   ~ 0
A7.A
Text Label 8450 3000 2    60   ~ 0
A8.A
Text Label 8450 3100 2    60   ~ 0
A9.A
Text Label 8450 3200 2    60   ~ 0
A10.A
Text Label 8450 3300 2    60   ~ 0
A11.A
Text Label 8450 3400 2    60   ~ 0
A12.A
Text Label 8450 3500 2    60   ~ 0
A13.A
Text Label 8450 3600 2    60   ~ 0
A14.A
Text Label 6700 3200 0    60   ~ 0
A9.A
Text Label 6700 3100 0    60   ~ 0
A8.A
Text Label 6700 3000 0    60   ~ 0
A10.A
Text Label 6700 3700 0    60   ~ 0
A11.A
Text Label 6700 3800 0    60   ~ 0
A12.A
Text Label 6700 3900 0    60   ~ 0
A13.A
Text Label 6700 4000 0    60   ~ 0
A14.A
Text Label 6700 4100 0    60   ~ 0
A7.A
Text Label 6700 4200 0    60   ~ 0
A6.A
Text HLabel 9000 1300 2    60   Input ~ 0
FC_1
Text HLabel 9000 1400 2    60   Output ~ 0
FC_2
Text HLabel 9000 1500 2    60   UnSpc ~ 0
FC_3
Text HLabel 9000 1600 2    60   Output ~ 0
FC_4
Text HLabel 9000 1700 2    60   Output ~ 0
FC_5
Text HLabel 9000 1800 2    60   Output ~ 0
FC_6
Text HLabel 9000 1900 2    60   UnSpc ~ 0
FC_7
Text HLabel 9000 2000 2    60   Output ~ 0
FC_8
Text HLabel 9000 2100 2    60   UnSpc ~ 0
FC_9
Text HLabel 9000 2200 2    60   Output ~ 0
FC_10
Text HLabel 9000 2300 2    60   Output ~ 0
FC_11
Text HLabel 9000 2400 2    60   Output ~ 0
FC_12
Text HLabel 9000 2500 2    60   Output ~ 0
FC_13
Text HLabel 9000 2600 2    60   Output ~ 0
FC_14
Text HLabel 9000 2700 2    60   Output ~ 0
FC_15
Text HLabel 9000 2800 2    60   Output ~ 0
FC_16
Text HLabel 9000 2900 2    60   Output ~ 0
FC_17
Text HLabel 9000 3000 2    60   Output ~ 0
FC_18
Text HLabel 9000 3100 2    60   Output ~ 0
FC_19
Text HLabel 9000 3200 2    60   Output ~ 0
FC_20
Text HLabel 9000 3300 2    60   Output ~ 0
FC_21
Text HLabel 9000 3400 2    60   Output ~ 0
FC_22
Text HLabel 9000 3500 2    60   Output ~ 0
FC_23
Text HLabel 9000 3600 2    60   Output ~ 0
FC_24
Text HLabel 9000 3700 2    60   UnSpc ~ 0
FC_25
Text HLabel 9000 3800 2    60   Output ~ 0
FC_26
Text HLabel 9000 3900 2    60   UnSpc ~ 0
FC_27
Text HLabel 9000 4000 2    60   BiDi ~ 0
FC_28
Text HLabel 9000 4100 2    60   BiDi ~ 0
FC_29
Text HLabel 9000 4200 2    60   BiDi ~ 0
FC_30
Text HLabel 9000 4300 2    60   BiDi ~ 0
FC_31
Text HLabel 9000 4400 2    60   UnSpc ~ 0
FC_32
Text HLabel 9000 4500 2    60   BiDi ~ 0
FC_33
Text HLabel 9000 4600 2    60   BiDi ~ 0
FC_34
Text HLabel 9000 4700 2    60   BiDi ~ 0
FC_35
Text HLabel 9000 4800 2    60   BiDi ~ 0
FC_36
Text HLabel 9000 4900 2    60   UnSpc ~ 0
FC_37
Text HLabel 9000 5000 2    60   Output ~ 0
FC_38
Text HLabel 9000 5100 2    60   Input ~ 0
FC_39
Text HLabel 9000 5200 2    60   Output ~ 0
FC_40
Text HLabel 9000 5300 2    60   Input ~ 0
FC_41
Text HLabel 9000 5400 2    60   UnSpc ~ 0
FC_42
Text HLabel 9000 5500 2    60   Input ~ 0
FC_43
Text HLabel 9000 5600 2    60   UnSpc ~ 0
FC_44
Wire Bus Line
	3800 2800 5950 2800
Wire Bus Line
	6100 1650 6100 2700
Wire Wire Line
	5450 2550 6000 2550
Wire Wire Line
	5450 2450 5950 2450
Wire Bus Line
	3800 1400 3800 3750
Wire Bus Line
	3800 1400 2500 1400
Wire Bus Line
	2500 1400 2500 3750
Wire Wire Line
	2600 1850 2900 1850
Wire Wire Line
	2600 1950 2900 1950
Wire Wire Line
	2600 2050 2900 2050
Wire Wire Line
	2600 2150 2900 2150
Wire Wire Line
	2600 2250 2900 2250
Wire Wire Line
	2600 2450 2900 2450
Wire Wire Line
	2600 2550 2900 2550
Wire Wire Line
	2600 2650 2900 2650
Wire Wire Line
	2600 3150 2900 3150
Wire Wire Line
	2600 3250 2900 3250
Wire Wire Line
	2600 3350 2900 3350
Wire Wire Line
	2600 3450 2900 3450
Wire Wire Line
	2600 3550 2900 3550
Wire Wire Line
	2600 3650 2900 3650
Wire Wire Line
	3400 1850 3700 1850
Wire Wire Line
	3400 1950 3700 1950
Wire Wire Line
	3400 2050 3700 2050
Wire Wire Line
	3400 2150 3700 2150
Wire Wire Line
	3400 2250 3700 2250
Wire Wire Line
	3400 2350 3700 2350
Wire Wire Line
	3400 2450 3700 2450
Wire Wire Line
	3400 2550 3700 2550
Wire Wire Line
	3400 2650 3700 2650
Wire Wire Line
	3400 2750 3700 2750
Wire Wire Line
	3400 2850 3700 2850
Wire Wire Line
	3400 2950 3700 2950
Wire Wire Line
	3400 3150 3700 3150
Wire Wire Line
	3400 3250 3700 3250
Wire Wire Line
	3400 3350 3700 3350
Wire Wire Line
	3400 3450 3700 3450
Wire Wire Line
	3400 3550 3700 3550
Wire Wire Line
	3400 3650 3700 3650
Wire Wire Line
	3400 3750 3700 3750
Wire Wire Line
	3400 3850 3700 3850
Wire Wire Line
	3900 1550 4050 1550
Wire Wire Line
	3900 1650 4050 1650
Wire Wire Line
	3900 1750 4050 1750
Wire Wire Line
	3900 1850 4050 1850
Wire Wire Line
	3900 1950 4050 1950
Wire Wire Line
	3900 2050 4050 2050
Wire Wire Line
	3900 2150 4050 2150
Wire Wire Line
	3900 2250 4050 2250
Wire Wire Line
	5750 1550 6000 1550
Wire Wire Line
	5750 1650 6000 1650
Wire Wire Line
	5750 1750 6000 1750
Wire Wire Line
	5750 1850 6000 1850
Wire Wire Line
	5750 1950 6000 1950
Wire Wire Line
	5750 2050 6000 2050
Wire Wire Line
	5750 2150 6000 2150
Wire Wire Line
	5750 2250 6000 2250
Wire Wire Line
	2900 2750 2850 2750
Wire Wire Line
	2850 2750 2850 3050
Wire Wire Line
	2850 3050 2900 3050
Wire Wire Line
	2900 2950 2850 2950
Connection ~ 2850 2950
Wire Wire Line
	2750 2850 2900 2850
Connection ~ 2850 2850
Wire Wire Line
	2750 2900 2750 2850
Wire Wire Line
	5950 2450 5950 2700
Wire Bus Line
	5950 2800 5950 5800
Wire Wire Line
	6050 3000 6350 3000
Wire Wire Line
	6050 3100 6350 3100
Wire Wire Line
	6050 3200 6350 3200
Wire Wire Line
	6050 3300 6350 3300
Wire Wire Line
	6050 3400 6350 3400
Wire Wire Line
	6050 3500 6350 3500
Wire Wire Line
	6050 3600 6350 3600
Wire Wire Line
	6050 3700 6350 3700
Wire Wire Line
	6050 3800 6350 3800
Wire Wire Line
	6050 3900 6350 3900
Wire Wire Line
	6050 4000 6350 4000
Wire Wire Line
	6050 4100 6350 4100
Wire Wire Line
	6050 4200 6350 4200
Wire Wire Line
	6050 4300 6350 4300
Wire Wire Line
	6050 4400 6350 4400
Wire Wire Line
	6050 4500 6350 4500
Wire Wire Line
	6050 4600 6350 4600
Wire Wire Line
	6050 4700 6350 4700
Wire Bus Line
	7850 2700 6100 2700
Wire Bus Line
	7050 2700 7050 5800
Wire Wire Line
	6650 3000 6950 3000
Wire Wire Line
	6650 3100 6950 3100
Wire Wire Line
	6650 3200 6950 3200
Wire Wire Line
	6650 3300 6950 3300
Wire Wire Line
	6650 3400 6950 3400
Wire Wire Line
	6650 3500 6950 3500
Wire Wire Line
	6650 3600 6950 3600
Wire Wire Line
	6650 3700 6950 3700
Wire Wire Line
	6650 3800 6950 3800
Wire Wire Line
	6650 3900 6950 3900
Wire Wire Line
	6650 4000 6950 4000
Wire Wire Line
	6650 4100 6950 4100
Wire Wire Line
	6650 4200 6950 4200
Wire Wire Line
	6650 4300 6950 4300
Wire Wire Line
	6650 4400 6950 4400
Wire Wire Line
	6650 4500 6950 4500
Wire Wire Line
	6650 4600 6950 4600
Wire Wire Line
	6650 4700 6950 4700
Wire Wire Line
	6050 4900 6950 4900
Wire Wire Line
	6050 5000 6950 5000
Wire Wire Line
	6050 5100 6950 5100
Wire Wire Line
	6050 5200 6950 5200
Wire Wire Line
	6050 5300 6950 5300
Wire Wire Line
	6050 5400 6950 5400
Wire Wire Line
	6050 5500 6950 5500
Wire Wire Line
	6050 5600 6950 5600
Wire Bus Line
	7850 1400 7850 5400
Wire Wire Line
	7950 1300 9000 1300
Wire Wire Line
	7950 1400 9000 1400
Wire Wire Line
	7950 1600 9000 1600
Wire Wire Line
	7950 1700 9000 1700
Wire Wire Line
	7950 1800 9000 1800
Wire Wire Line
	7950 2000 9000 2000
Wire Wire Line
	7950 2200 9000 2200
Wire Wire Line
	7950 2300 9000 2300
Wire Wire Line
	7950 2400 9000 2400
Wire Wire Line
	7950 2500 9000 2500
Wire Wire Line
	7950 2600 9000 2600
Wire Wire Line
	7950 2700 9000 2700
Wire Wire Line
	7950 2800 9000 2800
Wire Wire Line
	7950 2900 9000 2900
Wire Wire Line
	7950 3000 9000 3000
Wire Wire Line
	7950 3100 9000 3100
Wire Wire Line
	7950 3200 9000 3200
Wire Wire Line
	7950 3300 9000 3300
Wire Wire Line
	7950 3400 9000 3400
Wire Wire Line
	7950 3500 9000 3500
Wire Wire Line
	7950 3600 9000 3600
Wire Wire Line
	7950 3800 9000 3800
Wire Wire Line
	7950 4000 9000 4000
Wire Wire Line
	7950 4100 9000 4100
Wire Wire Line
	7950 4200 9000 4200
Wire Wire Line
	7950 4300 9000 4300
Wire Wire Line
	7950 4500 9000 4500
Wire Wire Line
	7950 4600 9000 4600
Wire Wire Line
	7950 4700 9000 4700
Wire Wire Line
	7950 4800 9000 4800
Wire Wire Line
	7950 5000 9000 5000
Wire Wire Line
	7950 5100 9000 5100
Wire Wire Line
	7950 5200 9000 5200
Wire Wire Line
	7950 5300 9000 5300
Wire Wire Line
	7950 5500 9000 5500
Wire Wire Line
	8000 1500 9000 1500
Wire Wire Line
	8000 1500 8000 5700
Wire Wire Line
	8000 1900 9000 1900
Wire Wire Line
	8000 2100 9000 2100
Connection ~ 8000 1900
Wire Wire Line
	8000 3700 9000 3700
Connection ~ 8000 2100
Wire Wire Line
	8000 3900 9000 3900
Connection ~ 8000 3700
Wire Wire Line
	8000 4400 9000 4400
Connection ~ 8000 3900
Wire Wire Line
	8000 4900 9000 4900
Connection ~ 8000 4400
Connection ~ 8000 4900
Wire Wire Line
	8100 5400 9000 5400
Wire Wire Line
	8100 5400 8100 5650
Wire Wire Line
	8100 5600 9000 5600
Wire Wire Line
	8100 5650 7600 5650
Wire Wire Line
	7600 1050 7600 5650
Wire Wire Line
	7300 1050 7600 1050
Wire Wire Line
	4750 1050 6500 1050
Connection ~ 8100 5600
Wire Wire Line
	6900 1350 6900 1500
Wire Wire Line
	4750 1050 4750 1500
Wire Wire Line
	6300 1300 6300 1400
Wire Wire Line
	6300 1400 7500 1400
Connection ~ 6900 1400
Wire Wire Line
	7500 1400 7500 1300
Wire Wire Line
	7350 1300 7350 1400
Connection ~ 7350 1400
Wire Wire Line
	6450 1300 6450 1400
Connection ~ 6450 1400
Connection ~ 8500 1300
Connection ~ 8500 1400
Connection ~ 8500 1500
Connection ~ 8500 1600
Connection ~ 8500 1700
Connection ~ 8500 1800
Connection ~ 8500 1900
Connection ~ 8500 2000
Connection ~ 8500 2100
Connection ~ 8500 2200
Connection ~ 8500 2300
Connection ~ 8500 2400
Connection ~ 8500 2500
Connection ~ 8500 2600
Connection ~ 8500 2700
Connection ~ 8500 2800
Connection ~ 8500 2900
Connection ~ 8500 3000
Connection ~ 8500 3100
Connection ~ 8500 3200
Connection ~ 8500 3300
Connection ~ 8500 3400
Connection ~ 8500 3500
Connection ~ 8500 3600
Connection ~ 8500 3800
Text Label 8450 3800 2    60   ~ 0
A15/CRUOUT
Text Label 6500 5100 2    60   ~ 0
A15/CRUOUT
Connection ~ 8500 3700
Connection ~ 8500 3900
Connection ~ 8500 4000
Text Label 8450 4000 2    60   ~ 0
D0.A
Text Label 8450 4100 2    60   ~ 0
D1.A
Text Label 8450 4200 2    60   ~ 0
D2.A
Text Label 8450 4300 2    60   ~ 0
D3.A
Connection ~ 8500 4100
Connection ~ 8500 4200
Connection ~ 8500 4300
Connection ~ 8500 4400
Connection ~ 8500 4500
Connection ~ 8500 4600
Connection ~ 8500 4700
Connection ~ 8500 4800
Text Label 8450 4500 2    60   ~ 0
D4.A
Text Label 8450 4600 2    60   ~ 0
D5.A
Text Label 8450 4700 2    60   ~ 0
D6.A
Text Label 8450 4800 2    60   ~ 0
D7.A
Connection ~ 8500 4900
Connection ~ 8500 5000
Text Label 8450 5000 2    60   ~ 0
~RESET.A
Text Label 6700 3600 0    60   ~ 0
~RESET.A
Text Label 8450 5100 2    60   ~ 0
AUDIOIN
Text Label 6500 5500 2    60   ~ 0
AUDIOIN
Connection ~ 8500 5100
Connection ~ 8500 5200
Text Label 8450 5200 2    60   ~ 0
READY
Text Label 6500 5200 2    60   ~ 0
READY
Connection ~ 8500 5300
Text Label 8450 5300 2    60   ~ 0
~EXTINT
Text Label 6500 5700 2    60   ~ 0
~EXTINT
Entry Wire Line
	6950 5700 7050 5600
Entry Wire Line
	5950 5600 6050 5700
Wire Wire Line
	6050 5700 6950 5700
Connection ~ 8500 5600
Connection ~ 8500 5400
Connection ~ 8500 5500
Text Label 8450 5500 2    60   ~ 0
~RDBENA.A
Wire Wire Line
	7500 1100 7500 1050
Connection ~ 7500 1050
Wire Wire Line
	7350 1100 7350 1050
Connection ~ 7350 1050
Wire Wire Line
	6450 1100 6450 1050
Connection ~ 6450 1050
Wire Wire Line
	6300 1100 6300 1050
Connection ~ 6300 1050
Text Notes 2950 4100 0    60   ~ 0
99/4 (A)\nI/O BUS
Text Notes 8450 5850 0    60   ~ 0
FLEX CABLE\nCONNECTOR
$EndSCHEMATC
