EESchema Schematic File Version 2
LIBS:power
LIBS:device
LIBS:transistors
LIBS:conn
LIBS:linear
LIBS:regul
LIBS:74xx
LIBS:cmos4000
LIBS:adc-dac
LIBS:memory
LIBS:xilinx
LIBS:microcontrollers
LIBS:dsp
LIBS:microchip
LIBS:analog_switches
LIBS:motorola
LIBS:texas
LIBS:intel
LIBS:audio
LIBS:interface
LIBS:digital-audio
LIBS:philips
LIBS:display
LIBS:cypress
LIBS:siliconi
LIBS:opto
LIBS:atmel
LIBS:contrib
LIBS:valves
LIBS:conn_01x44
LIBS:FlexCable-cache
EELAYER 25 0
EELAYER END
$Descr A4 11693 8268
encoding utf-8
Sheet 1 3
Title "Flex Cable Schematic Diagram"
Date "2015-10-10"
Rev "1"
Comp "HackMac"
Comment1 "Root which shows the connection between console side and PE-Box side"
Comment2 ""
Comment3 ""
Comment4 ""
$EndDescr
Text Label 4500 800  0    60   ~ 0
FlexCable
$Sheet
S 1250 1200 1000 4500
U 561B9E4A
F0 "Console Side" 60
F1 "ConsoleSide.sch" 60
F2 "FC_1" I R 2250 1300 60 
F3 "FC_2" O R 2250 1400 60 
F4 "FC_3" U R 2250 1500 60 
F5 "FC_4" O R 2250 1600 60 
F6 "FC_5" O R 2250 1700 60 
F7 "FC_6" O R 2250 1800 60 
F8 "FC_7" U R 2250 1900 60 
F9 "FC_8" O R 2250 2000 60 
F10 "FC_9" U R 2250 2100 60 
F11 "FC_10" O R 2250 2200 60 
F12 "FC_11" O R 2250 2300 60 
F13 "FC_12" O R 2250 2400 60 
F14 "FC_13" O R 2250 2500 60 
F15 "FC_14" O R 2250 2600 60 
F16 "FC_15" O R 2250 2700 60 
F17 "FC_16" O R 2250 2800 60 
F18 "FC_17" O R 2250 2900 60 
F19 "FC_18" O R 2250 3000 60 
F20 "FC_19" O R 2250 3100 60 
F21 "FC_20" O R 2250 3200 60 
F22 "FC_21" O R 2250 3300 60 
F23 "FC_22" O R 2250 3400 60 
F24 "FC_23" O R 2250 3500 60 
F25 "FC_24" O R 2250 3600 60 
F26 "FC_25" U R 2250 3700 60 
F27 "FC_26" O R 2250 3800 60 
F28 "FC_27" U R 2250 3900 60 
F29 "FC_28" B R 2250 4000 60 
F30 "FC_29" B R 2250 4100 60 
F31 "FC_30" B R 2250 4200 60 
F32 "FC_31" B R 2250 4300 60 
F33 "FC_32" U R 2250 4400 60 
F34 "FC_33" B R 2250 4500 60 
F35 "FC_34" B R 2250 4600 60 
F36 "FC_35" B R 2250 4700 60 
F37 "FC_36" B R 2250 4800 60 
F38 "FC_37" U R 2250 4900 60 
F39 "FC_38" O R 2250 5000 60 
F40 "FC_39" I R 2250 5100 60 
F41 "FC_40" O R 2250 5200 60 
F42 "FC_41" I R 2250 5300 60 
F43 "FC_42" U R 2250 5400 60 
F44 "FC_43" I R 2250 5500 60 
F45 "FC_44" U R 2250 5600 60 
$EndSheet
$Sheet
S 7900 1100 1400 4700
U 561BA123
F0 "PE-Box Side" 60
F1 "PEBoxSide.sch" 60
F2 "FC_1" O L 7900 1300 60 
F3 "FC_2" I L 7900 1400 60 
F4 "FC_3" U L 7900 1500 60 
F5 "FC_4" I L 7900 1600 60 
F6 "FC_5" I L 7900 1700 60 
F7 "FC_6" I L 7900 1800 60 
F8 "FC_7" U L 7900 1900 60 
F9 "FC_8" I L 7900 2000 60 
F10 "FC_9" U L 7900 2100 60 
F11 "FC_10" I L 7900 2200 60 
F12 "FC_11" I L 7900 2300 60 
F13 "FC_12" I L 7900 2400 60 
F14 "FC_13" I L 7900 2500 60 
F15 "FC_14" I L 7900 2600 60 
F16 "FC_15" I L 7900 2700 60 
F17 "FC_16" I L 7900 2800 60 
F18 "FC_17" I L 7900 2900 60 
F19 "FC_18" I L 7900 3000 60 
F20 "FC_19" I L 7900 3100 60 
F21 "FC_20" I L 7900 3200 60 
F22 "FC_21" I L 7900 3300 60 
F23 "FC_22" I L 7900 3400 60 
F24 "FC_23" I L 7900 3500 60 
F25 "FC_24" I L 7900 3600 60 
F26 "FC_25" U L 7900 3700 60 
F27 "FC_26" I L 7900 3800 60 
F28 "FC_27" U L 7900 3900 60 
F29 "FC_28" B L 7900 4000 60 
F30 "FC_29" B L 7900 4100 60 
F31 "FC_30" B L 7900 4200 60 
F32 "FC_31" B L 7900 4300 60 
F33 "FC_32" U L 7900 4400 60 
F34 "FC_33" B L 7900 4500 60 
F35 "FC_34" B L 7900 4600 60 
F36 "FC_35" B L 7900 4700 60 
F37 "FC_36" B L 7900 4800 60 
F38 "FC_37" U L 7900 4900 60 
F39 "FC_38" I L 7900 5000 60 
F40 "FC_39" O L 7900 5100 60 
F41 "FC_40" I L 7900 5200 60 
F42 "FC_41" O L 7900 5300 60 
F43 "FC_42" U L 7900 5400 60 
F44 "FC_43" O L 7900 5500 60 
F45 "FC_44" U L 7900 5600 60 
$EndSheet
Entry Wire Line
	2750 1300 2850 1200
Entry Wire Line
	2750 1400 2850 1300
Entry Wire Line
	2750 1600 2850 1500
Entry Wire Line
	2750 1700 2850 1600
Entry Wire Line
	2750 1800 2850 1700
Entry Wire Line
	2750 2000 2850 1900
Entry Wire Line
	2750 2200 2850 2100
Entry Wire Line
	2750 2300 2850 2200
Entry Wire Line
	2750 2400 2850 2300
Entry Wire Line
	2750 2500 2850 2400
Entry Wire Line
	2750 2600 2850 2500
Entry Wire Line
	2750 2700 2850 2600
Entry Wire Line
	2750 2800 2850 2700
Entry Wire Line
	2750 2900 2850 2800
Entry Wire Line
	2750 3000 2850 2900
Entry Wire Line
	2750 3100 2850 3000
Entry Wire Line
	2750 3200 2850 3100
Entry Wire Line
	2750 3300 2850 3200
Entry Wire Line
	2750 3400 2850 3300
Entry Wire Line
	2750 3500 2850 3400
Entry Wire Line
	2750 3600 2850 3500
Entry Wire Line
	2750 3800 2850 3700
Entry Wire Line
	2750 4000 2850 3900
Entry Wire Line
	2750 4100 2850 4000
Entry Wire Line
	2750 4200 2850 4100
Entry Wire Line
	2750 4300 2850 4200
Entry Wire Line
	2750 4500 2850 4400
Entry Wire Line
	2750 4600 2850 4500
Entry Wire Line
	2750 4700 2850 4600
Entry Wire Line
	2750 4800 2850 4700
Entry Wire Line
	2750 5000 2850 4900
Entry Wire Line
	2750 5100 2850 5000
Entry Wire Line
	2750 5200 2850 5100
Entry Wire Line
	2750 5300 2850 5200
Entry Wire Line
	2750 5400 2850 5300
Entry Wire Line
	2750 5500 2850 5400
Text Label 2300 1300 0    60   ~ 0
CRUIN
Text Label 2300 1400 0    60   ~ 0
~MEMEN
Text Label 2300 1600 0    60   ~ 0
~WE
Text Label 2300 1700 0    60   ~ 0
~CRUCLK
Text Label 2300 1800 0    60   ~ 0
DBIN
Text Label 2300 2000 0    60   ~ 0
~Ø3
Text Label 2300 2200 0    60   ~ 0
A0
Text Label 2300 2300 0    60   ~ 0
A1
Text Label 2300 2400 0    60   ~ 0
A2
Text Label 2300 2500 0    60   ~ 0
A3
Text Label 2300 2600 0    60   ~ 0
A4
Text Label 2300 2700 0    60   ~ 0
A5
Text Label 2300 2800 0    60   ~ 0
A6
Text Label 2300 2900 0    60   ~ 0
A7
Text Label 2300 3000 0    60   ~ 0
A8
Text Label 2300 3100 0    60   ~ 0
A9
Text Label 2300 3200 0    60   ~ 0
A10
Text Label 2300 3300 0    60   ~ 0
A11
Text Label 2300 3400 0    60   ~ 0
A12
Text Label 2300 3500 0    60   ~ 0
A13
Text Label 2300 3600 0    60   ~ 0
A14
Text Label 2300 3800 0    60   ~ 0
A15/CRUOUT
Text Label 2300 4000 0    60   ~ 0
D0
Text Label 2300 4100 0    60   ~ 0
D1
Text Label 2300 4200 0    60   ~ 0
D2
Text Label 2300 4300 0    60   ~ 0
D3
Text Label 2300 4500 0    60   ~ 0
D4
Text Label 2300 4600 0    60   ~ 0
D5
Text Label 2300 4700 0    60   ~ 0
D6
Text Label 2300 4800 0    60   ~ 0
D7
Text Label 2300 5000 0    60   ~ 0
~RESET
Text Label 2300 5100 0    60   ~ 0
AUTIOIN
Text Label 2300 5200 0    60   ~ 0
READY
Text Label 2300 5300 0    60   ~ 0
~EXTINT
Text Label 2300 5400 0    60   ~ 0
Unreg.+8V
Text Label 2300 5500 0    60   ~ 0
~RDBENA.A
$Comp
L GND #PWR?
U 1 1 561D94DE
P 3050 1550
F 0 "#PWR?" H 3050 1300 50  0001 C CNN
F 1 "GND" H 3050 1400 50  0000 C CNN
F 2 "" H 3050 1550 60  0000 C CNN
F 3 "" H 3050 1550 60  0000 C CNN
	1    3050 1550
	1    0    0    -1  
$EndComp
Wire Bus Line
	2850 800  7200 800 
Wire Bus Line
	2850 800  2850 1200
Wire Bus Line
	2850 1200 2850 1300
Wire Bus Line
	2850 1300 2850 1500
Wire Bus Line
	2850 1500 2850 1600
Wire Bus Line
	2850 1600 2850 1700
Wire Bus Line
	2850 1700 2850 1900
Wire Bus Line
	2850 1900 2850 2100
Wire Bus Line
	2850 2100 2850 2200
Wire Bus Line
	2850 2200 2850 2300
Wire Bus Line
	2850 2300 2850 2400
Wire Bus Line
	2850 2400 2850 2500
Wire Bus Line
	2850 2500 2850 2600
Wire Bus Line
	2850 2600 2850 2700
Wire Bus Line
	2850 2700 2850 2800
Wire Bus Line
	2850 2800 2850 2900
Wire Bus Line
	2850 2900 2850 3000
Wire Bus Line
	2850 3000 2850 3100
Wire Bus Line
	2850 3100 2850 3200
Wire Bus Line
	2850 3200 2850 3300
Wire Bus Line
	2850 3300 2850 3400
Wire Bus Line
	2850 3400 2850 3500
Wire Bus Line
	2850 3500 2850 3700
Wire Bus Line
	2850 3700 2850 3900
Wire Bus Line
	2850 3900 2850 4000
Wire Bus Line
	2850 4000 2850 4100
Wire Bus Line
	2850 4100 2850 4200
Wire Bus Line
	2850 4200 2850 4400
Wire Bus Line
	2850 4400 2850 4500
Wire Bus Line
	2850 4500 2850 4600
Wire Bus Line
	2850 4600 2850 4700
Wire Bus Line
	2850 4700 2850 4900
Wire Bus Line
	2850 4900 2850 5000
Wire Bus Line
	2850 5000 2850 5100
Wire Bus Line
	2850 5100 2850 5200
Wire Bus Line
	2850 5200 2850 5300
Wire Bus Line
	2850 5300 2850 5400
Wire Bus Line
	2850 5400 2850 5500
Wire Wire Line
	2250 1300 2750 1300
Wire Wire Line
	2250 1400 2750 1400
Wire Wire Line
	2250 1500 2700 1500
Wire Wire Line
	2700 1500 2750 1500
Wire Wire Line
	2250 1600 2750 1600
Wire Wire Line
	2250 1700 2750 1700
Wire Wire Line
	2250 1800 2750 1800
Wire Wire Line
	2250 1900 2700 1900
Wire Wire Line
	2250 2000 2750 2000
Wire Wire Line
	2700 2100 2250 2100
Wire Wire Line
	2250 2200 2750 2200
Wire Wire Line
	2250 2300 2750 2300
Wire Wire Line
	2250 2400 2750 2400
Wire Wire Line
	2250 2500 2750 2500
Wire Wire Line
	2250 2600 2750 2600
Wire Wire Line
	2250 2700 2750 2700
Wire Wire Line
	2250 2800 2750 2800
Wire Wire Line
	2250 2900 2750 2900
Wire Wire Line
	2250 3000 2750 3000
Wire Wire Line
	2250 3100 2750 3100
Wire Wire Line
	2250 3200 2750 3200
Wire Wire Line
	2250 3300 2750 3300
Wire Wire Line
	2250 3400 2750 3400
Wire Wire Line
	2250 3500 2750 3500
Wire Wire Line
	2250 3600 2750 3600
Wire Wire Line
	2700 3700 2250 3700
Wire Wire Line
	2250 3800 2750 3800
Wire Wire Line
	2700 3900 2250 3900
Wire Wire Line
	2250 4000 2750 4000
Wire Wire Line
	2250 4100 2750 4100
Wire Wire Line
	2250 4200 2750 4200
Wire Wire Line
	2250 4300 2750 4300
Wire Wire Line
	2700 4400 2250 4400
Wire Wire Line
	2250 4500 2750 4500
Wire Wire Line
	2250 4600 2750 4600
Wire Wire Line
	2250 4700 2750 4700
Wire Wire Line
	2250 4800 2750 4800
Wire Wire Line
	2700 4900 2250 4900
Wire Wire Line
	2250 5000 2750 5000
Wire Wire Line
	2250 5100 2750 5100
Wire Wire Line
	2250 5200 2750 5200
Wire Wire Line
	2250 5300 2750 5300
Wire Wire Line
	2250 5400 2700 5400
Wire Wire Line
	2700 5400 2750 5400
Wire Wire Line
	2250 5500 2750 5500
Wire Wire Line
	2700 5600 2250 5600
Wire Bus Line
	7200 800  7200 1200
Wire Bus Line
	7200 1200 7200 1300
Wire Bus Line
	7200 1300 7200 1500
Wire Bus Line
	7200 1500 7200 1600
Wire Bus Line
	7200 1600 7200 1700
Wire Bus Line
	7200 1700 7200 1900
Wire Bus Line
	7200 1900 7200 2100
Wire Bus Line
	7200 2100 7200 2200
Wire Bus Line
	7200 2200 7200 2300
Wire Bus Line
	7200 2300 7200 2400
Wire Bus Line
	7200 2400 7200 2500
Wire Bus Line
	7200 2500 7200 2600
Wire Bus Line
	7200 2600 7200 2700
Wire Bus Line
	7200 2700 7200 2800
Wire Bus Line
	7200 2800 7200 2900
Wire Bus Line
	7200 2900 7200 3000
Wire Bus Line
	7200 3000 7200 3100
Wire Bus Line
	7200 3100 7200 3200
Wire Bus Line
	7200 3200 7200 3300
Wire Bus Line
	7200 3300 7200 3400
Wire Bus Line
	7200 3400 7200 3500
Wire Bus Line
	7200 3500 7200 3700
Wire Bus Line
	7200 3700 7200 3900
Wire Bus Line
	7200 3900 7200 4000
Wire Bus Line
	7200 4000 7200 4100
Wire Bus Line
	7200 4100 7200 4200
Wire Bus Line
	7200 4200 7200 4400
Wire Bus Line
	7200 4400 7200 4500
Wire Bus Line
	7200 4500 7200 4600
Wire Bus Line
	7200 4600 7200 4700
Wire Bus Line
	7200 4700 7200 4900
Wire Bus Line
	7200 4900 7200 5000
Wire Bus Line
	7200 5000 7200 5100
Wire Bus Line
	7200 5100 7200 5200
Wire Bus Line
	7200 5200 7200 5300
Wire Bus Line
	7200 5300 7200 5400
Wire Bus Line
	7200 5400 7200 5600
Wire Wire Line
	2700 5400 2700 5600
Connection ~ 2700 5400
Wire Wire Line
	2700 1500 2700 1900
Wire Wire Line
	2700 1900 2700 2100
Wire Wire Line
	2700 2100 2700 3700
Wire Wire Line
	2700 3700 2700 3900
Wire Wire Line
	2700 3900 2700 4400
Wire Wire Line
	2700 4400 2700 4900
Connection ~ 2700 3900
Connection ~ 2700 4400
Connection ~ 2700 3700
Connection ~ 2700 2100
Connection ~ 2700 1900
Wire Wire Line
	2750 1500 2750 1450
Wire Wire Line
	2750 1450 3050 1450
Wire Wire Line
	3050 1450 3050 1550
Connection ~ 2700 1500
Entry Wire Line
	7200 1200 7300 1300
Entry Wire Line
	7200 1300 7300 1400
Entry Wire Line
	7200 1500 7300 1600
Entry Wire Line
	7200 1600 7300 1700
Entry Wire Line
	7200 1700 7300 1800
Entry Wire Line
	7200 1900 7300 2000
Entry Wire Line
	7200 2100 7300 2200
Entry Wire Line
	7200 2200 7300 2300
Entry Wire Line
	7200 2300 7300 2400
Entry Wire Line
	7200 2400 7300 2500
Entry Wire Line
	7200 2500 7300 2600
Entry Wire Line
	7200 2600 7300 2700
Entry Wire Line
	7200 2700 7300 2800
Entry Wire Line
	7200 2800 7300 2900
Entry Wire Line
	7200 2900 7300 3000
Entry Wire Line
	7200 3000 7300 3100
Entry Wire Line
	7200 3100 7300 3200
Entry Wire Line
	7200 3200 7300 3300
Entry Wire Line
	7200 3300 7300 3400
Entry Wire Line
	7200 3400 7300 3500
Entry Wire Line
	7200 3500 7300 3600
Entry Wire Line
	7200 3700 7300 3800
Entry Wire Line
	7200 3900 7300 4000
Entry Wire Line
	7200 4000 7300 4100
Entry Wire Line
	7200 4100 7300 4200
Entry Wire Line
	7200 4200 7300 4300
Entry Wire Line
	7200 4400 7300 4500
Entry Wire Line
	7200 4500 7300 4600
Entry Wire Line
	7200 4600 7300 4700
Entry Wire Line
	7200 4700 7300 4800
Entry Wire Line
	7200 4900 7300 5000
Entry Wire Line
	7200 5000 7300 5100
Entry Wire Line
	7200 5100 7300 5200
Entry Wire Line
	7200 5200 7300 5300
Entry Wire Line
	7200 5300 7300 5400
Entry Wire Line
	7200 5400 7300 5500
Wire Wire Line
	7300 1300 7900 1300
Wire Wire Line
	7300 1400 7900 1400
Wire Wire Line
	7300 1500 7350 1500
Wire Wire Line
	7350 1500 7900 1500
Wire Wire Line
	7300 1600 7900 1600
Wire Wire Line
	7300 1700 7900 1700
Wire Wire Line
	7300 1800 7900 1800
Wire Wire Line
	7350 1900 7900 1900
Wire Wire Line
	7300 2000 7900 2000
Wire Wire Line
	7350 2100 7900 2100
Wire Wire Line
	7300 2200 7900 2200
Wire Wire Line
	7300 2300 7900 2300
Wire Wire Line
	7300 2400 7900 2400
Wire Wire Line
	7300 2500 7900 2500
Wire Wire Line
	7300 2600 7900 2600
Wire Wire Line
	7300 2700 7900 2700
Wire Wire Line
	7300 2800 7900 2800
Wire Wire Line
	7300 2900 7900 2900
Wire Wire Line
	7300 3000 7900 3000
Wire Wire Line
	7300 3100 7900 3100
Wire Wire Line
	7300 3200 7900 3200
Wire Wire Line
	7300 3300 7900 3300
Wire Wire Line
	7300 3400 7900 3400
Wire Wire Line
	7300 3500 7900 3500
Wire Wire Line
	7300 3600 7900 3600
Wire Wire Line
	7350 3700 7900 3700
Wire Wire Line
	7300 3800 7900 3800
Wire Wire Line
	7350 3900 7900 3900
Wire Wire Line
	7300 4000 7900 4000
Wire Wire Line
	7300 4100 7900 4100
Wire Wire Line
	7300 4200 7900 4200
Wire Wire Line
	7300 4300 7900 4300
Wire Wire Line
	7350 4400 7900 4400
Wire Wire Line
	7300 4500 7900 4500
Wire Wire Line
	7300 4600 7900 4600
Wire Wire Line
	7300 4700 7900 4700
Wire Wire Line
	7300 4800 7900 4800
Wire Wire Line
	7350 4900 7900 4900
Wire Wire Line
	7300 5000 7900 5000
Wire Wire Line
	7300 5100 7900 5100
Wire Wire Line
	7300 5200 7900 5200
Wire Wire Line
	7300 5300 7900 5300
Wire Wire Line
	7300 5400 7350 5400
Wire Wire Line
	7350 5400 7900 5400
Wire Wire Line
	7300 5500 7900 5500
Wire Wire Line
	7900 5600 7350 5600
Wire Wire Line
	7350 5600 7350 5400
Connection ~ 7350 5400
Wire Wire Line
	7350 1500 7350 1900
Wire Wire Line
	7350 1900 7350 2100
Wire Wire Line
	7350 2100 7350 3700
Wire Wire Line
	7350 3700 7350 3900
Wire Wire Line
	7350 3900 7350 4400
Wire Wire Line
	7350 4400 7350 4900
Connection ~ 7350 1900
Connection ~ 7350 2100
Connection ~ 7350 3700
Connection ~ 7350 3900
Connection ~ 7350 4400
$Comp
L GND #PWR?
U 1 1 561DEF78
P 7000 1550
F 0 "#PWR?" H 7000 1300 50  0001 C CNN
F 1 "GND" H 7000 1400 50  0000 C CNN
F 2 "" H 7000 1550 60  0000 C CNN
F 3 "" H 7000 1550 60  0000 C CNN
	1    7000 1550
	1    0    0    -1  
$EndComp
Wire Wire Line
	7300 1500 7300 1450
Wire Wire Line
	7300 1450 7000 1450
Wire Wire Line
	7000 1450 7000 1550
Connection ~ 7350 1500
Text Label 7850 1300 2    60   ~ 0
CRUIN
Text Label 7850 1400 2    60   ~ 0
~MEMEN
Text Label 7850 1600 2    60   ~ 0
~WE
Text Label 7850 1700 2    60   ~ 0
~CRUCLK
Text Label 7850 1800 2    60   ~ 0
DBIN
Text Label 7850 2000 2    60   ~ 0
~Ø3
Text Label 7850 2200 2    60   ~ 0
A0
Text Label 7850 2300 2    60   ~ 0
A1
Text Label 7850 2400 2    60   ~ 0
A2
Text Label 7850 2500 2    60   ~ 0
A3
Text Label 7850 2600 2    60   ~ 0
A4
Text Label 7850 2700 2    60   ~ 0
A5
Text Label 7850 2800 2    60   ~ 0
A6
Text Label 7850 2900 2    60   ~ 0
A7
Text Label 7850 3000 2    60   ~ 0
A8
Text Label 7850 3100 2    60   ~ 0
A9
Text Label 7850 3200 2    60   ~ 0
A10
Text Label 7850 3300 2    60   ~ 0
A11
Text Label 7850 3400 2    60   ~ 0
A12
Text Label 7850 3500 2    60   ~ 0
A13
Text Label 7850 3600 2    60   ~ 0
A14
Text Label 7850 3800 2    60   ~ 0
A15/CRUOUT
Text Label 7850 4000 2    60   ~ 0
D0
Text Label 7850 4100 2    60   ~ 0
D1
Text Label 7850 4200 2    60   ~ 0
D2
Text Label 7850 4300 2    60   ~ 0
D3
Text Label 7850 4500 2    60   ~ 0
D4
Text Label 7850 4600 2    60   ~ 0
D5
Text Label 7850 4700 2    60   ~ 0
D6
Text Label 7850 4800 2    60   ~ 0
D7
Text Label 7850 5000 2    60   ~ 0
~RESET
Text Label 7850 5100 2    60   ~ 0
AUTIOIN
Text Label 7850 5200 2    60   ~ 0
READY
Text Label 7850 5300 2    60   ~ 0
~EXTINT
Text Label 7850 5400 2    60   ~ 0
Unreg.+8V
Text Label 7850 5500 2    60   ~ 0
~RDBENA.A
$EndSCHEMATC
